<?xml version="1.0" encoding="UTF-8" standalone="no"?>
<!-- Created with Inkscape (http://www.inkscape.org/) -->

<svg
   xmlns:dc="http://purl.org/dc/elements/1.1/"
   xmlns:cc="http://creativecommons.org/ns#"
   xmlns:rdf="http://www.w3.org/1999/02/22-rdf-syntax-ns#"
   xmlns:svg="http://www.w3.org/2000/svg"
   xmlns="http://www.w3.org/2000/svg"
   xmlns:xlink="http://www.w3.org/1999/xlink"
   xmlns:sodipodi="http://sodipodi.sourceforge.net/DTD/sodipodi-0.dtd"
   xmlns:inkscape="http://www.inkscape.org/namespaces/inkscape"
   width="16.000963"
   height="15.999035"
   id="svg2"
   version="1.1"
   inkscape:version="0.48.2 r9819"
   sodipodi:docname="clock.svg">
  <defs
     id="defs4">
    <linearGradient
       inkscape:collect="always"
       id="linearGradient3759">
      <stop
         style="stop-color:#ffffff;stop-opacity:1;"
         offset="0"
         id="stop3761" />
      <stop
         style="stop-color:#ffffff;stop-opacity:0;"
         offset="1"
         id="stop3763" />
    </linearGradient>
    <radialGradient
       inkscape:collect="always"
       xlink:href="#linearGradient3759"
       id="radialGradient3765"
       cx="24.999998"
       cy="1002.3622"
       fx="24.999998"
       fy="1002.3622"
       r="30"
       gradientUnits="userSpaceOnUse"
       gradientTransform="matrix(0.6369792,1.0191671,-1.3333335,0.83333304,1345.5586,141.58148)" />
  </defs>
  <sodipodi:namedview
     id="base"
     pagecolor="#ffffff"
     bordercolor="#666666"
     borderopacity="1.0"
     inkscape:pageopacity="0.0"
     inkscape:pageshadow="2"
     inkscape:zoom="22.627417"
     inkscape:cx="-2.2167012"
     inkscape:cy="7.4232978"
     inkscape:document-units="px"
     inkscape:current-layer="layer1"
     showgrid="false"
     width="744.09px"
     fit-margin-top="0"
     fit-margin-left="0"
     fit-margin-right="0"
     fit-margin-bottom="0"
     inkscape:window-width="1366"
     inkscape:window-height="706"
     inkscape:window-x="1912"
     inkscape:window-y="481"
     inkscape:window-maximized="1">
    <inkscape:grid
       type="xygrid"
       id="grid2985"
       empspacing="5"
       visible="true"
       enabled="true"
       snapvisiblegridlinesonly="true" />
  </sodipodi:namedview>
  <metadata
     id="metadata7">
    <rdf:RDF>
      <cc:Work
         rdf:about="">
        <dc:format>image/svg+xml</dc:format>
        <dc:type
           rdf:resource="http://purl.org/dc/dcmitype/StillImage" />
        <dc:title />
      </cc:Work>
    </rdf:RDF>
  </metadata>
  <g
     inkscape:label="Layer 1"
     inkscape:groupmode="layer"
     id="layer1"
     transform="translate(-71.999483,-578.47832)">
    <path
       sodipodi:type="arc"
       style="fill:#d9d9d9;fill-opacity:1;stroke:#000000;stroke-width:5.64457941;stroke-miterlimit:4;stroke-opacity:1;stroke-dasharray:none"
       id="path2987"
       sodipodi:cx="42.5"
       sodipodi:cy="1009.8622"
       sodipodi:rx="42.5"
       sodipodi:ry="42.5"
       d="m 85,1009.8622 c 0,23.4721 -19.027898,42.5 -42.5,42.5 -23.472102,0 -42.5,-19.0279 -42.5,-42.5 0,-23.47212 19.027898,-42.50002 42.5,-42.50002 23.472102,0 42.5,19.0279 42.5,42.50002 z"
       transform="matrix(0.17652493,0,0,0.17650224,72.497655,408.2349)" />
    <path
       sodipodi:type="arc"
       style="opacity:0.8;fill:url(#radialGradient3765);fill-opacity:1;stroke:none"
       id="path3757"
       sodipodi:cx="40"
       sodipodi:cy="1012.3622"
       sodipodi:rx="30"
       sodipodi:ry="30"
       d="m 70,1012.3622 c 0,16.5685 -13.431458,30 -30,30 -16.568542,0 -30,-13.4315 -30,-30 0,-16.56856 13.431458,-30.00002 30,-30.00002 16.568542,0 30,13.43146 30,30.00002 z"
       transform="matrix(0.18755775,0,0,0.18753363,72.497655,396.62589)" />
    <g
       transform="scale(0.98267148,1.0176341)"
       style="font-size:2.30166459px;font-style:normal;font-weight:normal;line-height:125%;letter-spacing:0px;word-spacing:0px;fill:#000000;fill-opacity:1;stroke:none;font-family:Sans"
       id="text3803" />
    <g
       transform="scale(0.98267148,1.0176341)"
       style="font-size:2.30166459px;font-style:normal;font-weight:normal;line-height:125%;letter-spacing:0px;word-spacing:0px;fill:#000000;fill-opacity:1;stroke:none;font-family:Sans"
       id="text3807" />
    <g
       transform="scale(0.98267148,1.0176341)"
       style="font-size:2.30166459px;font-style:normal;font-weight:normal;line-height:125%;letter-spacing:0px;word-spacing:0px;fill:#000000;fill-opacity:1;stroke:none;font-family:Sans"
       id="text3811" />
    <g
       transform="scale(0.98267148,1.0176341)"
       style="font-size:2.30166459px;font-style:normal;font-weight:normal;line-height:125%;letter-spacing:0px;word-spacing:0px;fill:#000000;fill-opacity:1;stroke:none;font-family:Sans"
       id="text3815" />
    <g
       transform="scale(0.98267148,1.0176341)"
       style="font-size:2.30166459px;font-style:normal;font-weight:normal;line-height:125%;letter-spacing:0px;word-spacing:0px;fill:#000000;fill-opacity:1;stroke:none;font-family:Sans"
       id="text3819" />
    <g
       transform="scale(0.98267148,1.0176341)"
       style="font-size:2.30166459px;font-style:normal;font-weight:normal;line-height:125%;letter-spacing:0px;word-spacing:0px;fill:#000000;fill-opacity:1;stroke:none;font-family:Sans"
       id="text3823" />
    <g
       transform="scale(0.98267148,1.0176341)"
       style="font-size:2.30166459px;font-style:normal;font-weight:normal;line-height:125%;letter-spacing:0px;word-spacing:0px;fill:#000000;fill-opacity:1;stroke:none;font-family:Sans"
       id="text3827" />
    <g
       transform="scale(0.98267148,1.0176341)"
       style="font-size:2.30166459px;font-style:normal;font-weight:normal;line-height:125%;letter-spacing:0px;word-spacing:0px;fill:#000000;fill-opacity:1;stroke:none;font-family:Sans"
       id="text3831" />
    <g
       transform="scale(0.98267148,1.0176341)"
       style="font-size:2.30166459px;font-style:normal;font-weight:normal;line-height:125%;letter-spacing:0px;word-spacing:0px;fill:#000000;fill-opacity:1;stroke:none;font-family:Sans"
       id="text3835" />
    <g
       transform="scale(0.98267148,1.0176341)"
       style="font-size:2.30166459px;font-style:normal;font-weight:normal;line-height:125%;letter-spacing:0px;word-spacing:0px;fill:#000000;fill-opacity:1;stroke:none;font-family:Sans"
       id="text3839" />
    <g
       transform="scale(0.98267148,1.0176341)"
       style="font-size:2.30166459px;font-style:normal;font-weight:normal;line-height:125%;letter-spacing:0px;word-spacing:0px;fill:#000000;fill-opacity:1;stroke:none;font-family:Sans"
       id="text3843" />
    <g
       transform="scale(0.98267148,1.0176341)"
       style="font-size:2.30166459px;font-style:normal;font-weight:normal;line-height:125%;letter-spacing:0px;word-spacing:0px;fill:#000000;fill-opacity:1;stroke:none;font-family:Sans"
       id="text3847">
      <path
         id="path3126"
         style=""
         d="m 79.473536,572.1734 -0.202295,0 0,-1.28907 c -0.0487,0.0465 -0.112573,0.0929 -0.191618,0.13936 -0.07904,0.0465 -0.150035,0.0813 -0.212971,0.10452 l 0,-0.19555 c 0.113135,-0.0532 0.212034,-0.11763 0.296699,-0.1933 0.08466,-0.0757 0.144603,-0.1491 0.179817,-0.22028 l 0.130368,0 z m -1.2812,0 -0.202295,0 0,-1.28907 c -0.0487,0.0465 -0.112573,0.0929 -0.191618,0.13936 -0.07904,0.0465 -0.150035,0.0813 -0.212971,0.10452 l 0,-0.19555 c 0.113135,-0.0532 0.212034,-0.11763 0.296699,-0.1933 0.08466,-0.0757 0.144602,-0.1491 0.179817,-0.22028 l 0.130368,0 z m -1.718509,1.34523 c 0,-0.19481 0.02004,-0.35158 0.06013,-0.47034 0.04008,-0.11875 0.09965,-0.21035 0.178694,-0.27478 0.07904,-0.0644 0.178505,-0.0966 0.298384,-0.0966 0.08841,0 0.165956,0.0178 0.232639,0.0534 0.06668,0.0356 0.121751,0.0869 0.165208,0.15397 0.04345,0.0671 0.07755,0.14872 0.102271,0.245 0.02472,0.0963 0.03709,0.22608 0.03709,0.38942 -10e-7,0.1933 -0.01986,0.34933 -0.05956,0.46808 -0.03971,0.11876 -0.09909,0.21054 -0.178132,0.27535 -0.07905,0.0648 -0.178882,0.0972 -0.299509,0.0972 -0.158839,0 -0.283587,-0.0569 -0.374245,-0.17082 -0.10864,-0.13711 -0.16296,-0.36039 -0.16296,-0.66982 z m 0.207914,0 c 0,0.27047 0.03166,0.45048 0.09497,0.54001 0.06331,0.0895 0.141418,0.1343 0.234324,0.1343 0.09291,0 0.171014,-0.0449 0.234325,-0.13486 0.06331,-0.0899 0.09497,-0.26973 0.09497,-0.53945 -10e-7,-0.27123 -0.03166,-0.45142 -0.09497,-0.54058 -0.06331,-0.0892 -0.142169,-0.13374 -0.236572,-0.13374 -0.09291,0 -0.167081,0.0393 -0.222525,0.11801 -0.06968,0.1004 -0.104519,0.28583 -0.104519,0.55631 z m -0.727137,0.81255 -0.202295,0 0,-1.28907 c -0.0487,0.0465 -0.112573,0.0929 -0.191618,0.13936 -0.07905,0.0465 -0.150035,0.0813 -0.212971,0.10452 l 0,-0.19555 c 0.113135,-0.0532 0.212034,-0.11763 0.296699,-0.19331 0.08466,-0.0757 0.144603,-0.1491 0.179818,-0.22027 l 0.130367,0 z m -1.21114,2.33629 0.194428,-0.018 c 0.01648,0.0914 0.04795,0.15772 0.0944,0.19892 0.04645,0.0412 0.106017,0.0618 0.178694,0.0618 0.06219,0 0.116693,-0.0142 0.163521,-0.0427 0.04683,-0.0285 0.08523,-0.0665 0.115196,-0.11407 0.02997,-0.0476 0.05507,-0.11182 0.0753,-0.19274 0.02023,-0.0809 0.03034,-0.16334 0.03034,-0.24725 -10e-7,-0.009 -3.76e-4,-0.0225 -0.0011,-0.0405 -0.04046,0.0644 -0.09572,0.11669 -0.165769,0.15678 -0.07005,0.0401 -0.145916,0.0601 -0.227582,0.0601 -0.136362,0 -0.251745,-0.0494 -0.346149,-0.14835 -0.0944,-0.0989 -0.141606,-0.22926 -0.141606,-0.3911 0,-0.16708 0.04926,-0.30157 0.147787,-0.40346 0.09853,-0.1019 0.221962,-0.15285 0.370312,-0.15285 0.107141,0 0.205104,0.0289 0.29389,0.0865 0.08878,0.0577 0.156215,0.13992 0.202294,0.24668 0.04608,0.10677 0.06912,0.2613 0.06912,0.4636 -2e-6,0.21053 -0.02285,0.37818 -0.06856,0.50292 -0.0457,0.12475 -0.113698,0.21972 -0.20398,0.2849 -0.09028,0.0652 -0.196115,0.0978 -0.317491,0.0978 -0.128869,0 -0.234137,-0.0358 -0.315804,-0.10733 -0.08167,-0.0716 -0.130743,-0.17214 -0.147226,-0.30176 z m 0.828285,-0.72713 c -10e-7,-0.11613 -0.03091,-0.20829 -0.09272,-0.27647 -0.06181,-0.0682 -0.136175,-0.10227 -0.223086,-0.10227 -0.08991,0 -0.168205,0.0367 -0.234887,0.11013 -0.06668,0.0734 -0.100023,0.16858 -0.100023,0.28546 0,0.1049 0.03166,0.19012 0.09497,0.25568 0.06331,0.0656 0.141419,0.0983 0.234325,0.0983 0.09365,0 0.170638,-0.0328 0.230953,-0.0983 0.06031,-0.0656 0.09047,-0.1564 0.09047,-0.27253 z m 0.411703,3.09173 c -0.08392,-0.0307 -0.146102,-0.0745 -0.186561,-0.13149 -0.04046,-0.0569 -0.06069,-0.12512 -0.06069,-0.20455 0,-0.11987 0.04308,-0.22065 0.129244,-0.30231 0.08616,-0.0817 0.200796,-0.1225 0.343901,-0.1225 0.143854,0 0.259611,0.0418 0.347273,0.12531 0.08766,0.0835 0.13149,0.18525 0.131492,0.30512 -2e-6,0.0764 -0.02004,0.14292 -0.06013,0.19949 -0.04008,0.0566 -0.100961,0.10021 -0.182627,0.13093 0.101146,0.033 0.178131,0.0862 0.230953,0.15959 0.05282,0.0734 0.07923,0.16108 0.07923,0.26298 -10e-7,0.14086 -0.04982,0.25924 -0.149473,0.35514 -0.09965,0.0959 -0.230767,0.14385 -0.393351,0.14385 -0.162586,0 -0.293702,-0.0481 -0.393351,-0.14441 -0.09965,-0.0963 -0.149473,-0.21635 -0.149473,-0.3602 0,-0.10714 0.02716,-0.19686 0.08148,-0.26916 0.05432,-0.0723 0.131678,-0.12157 0.232077,-0.14779 z m -0.04046,-0.34278 c -10e-7,0.0779 0.0251,0.14161 0.0753,0.19106 0.0502,0.0494 0.115383,0.0742 0.195552,0.0742 0.07792,0 0.141793,-0.0245 0.191618,-0.0736 0.04982,-0.0491 0.07474,-0.1092 0.07474,-0.18038 -1e-6,-0.0742 -0.02566,-0.13655 -0.07699,-0.18712 -0.05132,-0.0506 -0.115196,-0.0759 -0.191618,-0.0759 -0.07717,0 -0.141232,0.0247 -0.19218,0.0742 -0.05095,0.0494 -0.07642,0.10864 -0.07642,0.17757 z m -0.06518,0.76085 c -1e-6,0.0577 0.01367,0.11351 0.04102,0.16746 0.02735,0.0539 0.06799,0.0957 0.121938,0.12531 0.05394,0.0296 0.112011,0.0444 0.174199,0.0444 0.09665,0 0.176445,-0.0311 0.239382,-0.0933 0.06294,-0.0622 0.0944,-0.14123 0.0944,-0.23713 -10e-7,-0.0974 -0.03241,-0.17795 -0.09721,-0.24163 -0.06481,-0.0637 -0.145915,-0.0955 -0.243315,-0.0955 -0.09515,0 -0.174012,0.0315 -0.236573,0.0944 -0.06256,0.0629 -0.09384,0.14161 -0.09384,0.23601 z m 1.885705,1.04159 0,-0.19443 1.066543,0 0,0.15734 c -0.104895,0.11164 -0.208851,0.25999 -0.311871,0.44505 -0.103021,0.18506 -0.182628,0.37537 -0.23882,0.57092 -0.04046,0.13786 -0.06631,0.28883 -0.07755,0.45291 l -0.207915,0 c 0.0022,-0.12962 0.02772,-0.28621 0.07642,-0.46977 0.0487,-0.18356 0.118567,-0.36057 0.2096,-0.53102 0.09103,-0.17045 0.187871,-0.31412 0.290517,-0.431 z m 4.073118,1.22662 -0.201171,0.0157 c -0.01798,-0.0794 -0.04346,-0.1371 -0.07642,-0.17307 -0.05469,-0.0577 -0.122127,-0.0865 -0.202295,-0.0865 -0.06444,0 -0.121002,0.018 -0.169702,0.0539 -0.06369,0.0465 -0.113885,0.11426 -0.150598,0.20342 -0.03671,0.0892 -0.05582,0.21615 -0.05732,0.38099 0.0487,-0.0742 0.108264,-0.12925 0.178693,-0.16521 0.07043,-0.036 0.144228,-0.0539 0.221401,-0.0539 0.134862,0 0.249683,0.0496 0.344463,0.14891 0.09478,0.0993 0.142167,0.22759 0.142168,0.38493 -10e-7,0.10339 -0.02229,0.19948 -0.06687,0.28827 -0.04458,0.0888 -0.105831,0.15677 -0.183751,0.20398 -0.07792,0.0472 -0.166332,0.0708 -0.265231,0.0708 -0.168579,0 -0.306065,-0.062 -0.412456,-0.186 -0.106392,-0.124 -0.159588,-0.32835 -0.159588,-0.61306 0,-0.31843 0.05882,-0.54995 0.176446,-0.69455 0.102645,-0.12587 0.24088,-0.18881 0.414704,-0.18881 0.129618,0 0.235822,0.0363 0.318614,0.10902 0.08279,0.0727 0.132427,0.17307 0.148912,0.30119 z m -0.826037,0.71028 c -10e-7,0.0697 0.0148,0.13636 0.04439,0.20005 0.0296,0.0637 0.07099,0.1122 0.124187,0.14554 0.0532,0.0333 0.109013,0.05 0.167455,0.05 0.08541,0 0.158838,-0.0345 0.220276,-0.1034 0.06144,-0.0689 0.09216,-0.16258 0.09216,-0.28096 -10e-7,-0.11389 -0.03034,-0.20361 -0.09103,-0.26917 -0.06069,-0.0656 -0.137112,-0.0983 -0.229267,-0.0983 -0.09141,0 -0.168954,0.0328 -0.232639,0.0983 -0.06369,0.0656 -0.09553,0.15154 -0.09553,0.25793 z m 2.973106,-0.85677 0.21241,-0.018 c 0.01573,0.1034 0.05226,0.18113 0.109576,0.2332 0.05732,0.0521 0.126433,0.0781 0.207352,0.0781 0.0974,0 0.179817,-0.0367 0.247249,-0.11014 0.06743,-0.0734 0.101146,-0.17082 0.101147,-0.2922 -1e-6,-0.11538 -0.03241,-0.20641 -0.09721,-0.2731 -0.06481,-0.0667 -0.149662,-0.10002 -0.254555,-0.10002 -0.06518,0 -0.123999,0.0148 -0.176446,0.0444 -0.05245,0.0296 -0.09365,0.068 -0.123624,0.1152 l -0.189932,-0.0247 0.159588,-0.84626 0.819293,0 0,0.1933 -0.657458,0 -0.08879,0.4428 c 0.0989,-0.0689 0.202669,-0.10339 0.31131,-0.10339 0.143853,0 0.26523,0.0498 0.36413,0.14947 0.0989,0.0996 0.148348,0.22777 0.14835,0.38436 -2e-6,0.1491 -0.04346,0.27797 -0.130368,0.38661 -0.105644,0.13336 -0.249872,0.20004 -0.432686,0.20004 -0.149848,0 -0.272162,-0.042 -0.36694,-0.12587 -0.09478,-0.0839 -0.148912,-0.19517 -0.162398,-0.33378 z m 2.966125,-1.64632 0,-0.39448 -0.714775,0 0,-0.18543 0.751862,-1.06767 0.165207,0 0,1.06767 0.222524,0 0,0.18543 -0.222524,0 0,0.39448 z m 0,-0.57991 0,-0.74288 -0.515852,0.74288 z m 0.151835,-2.89195 0.202295,-0.027 c 0.02323,0.11464 0.06275,0.19724 0.118567,0.24782 0.05582,0.0506 0.123812,0.0759 0.203981,0.0759 0.09515,0 0.175509,-0.033 0.241068,-0.0989 0.06556,-0.0659 0.09834,-0.1476 0.09834,-0.245 -10e-7,-0.0929 -0.03035,-0.16952 -0.09103,-0.22983 -0.06069,-0.0603 -0.137861,-0.0905 -0.231515,-0.0905 -0.03821,0 -0.08579,0.007 -0.14273,0.0225 l 0.02248,-0.17757 c 0.01349,0.002 0.02435,0.002 0.03259,0.002 0.08616,0 0.163708,-0.0225 0.232639,-0.0674 0.06893,-0.0449 0.103394,-0.11426 0.103395,-0.20792 -10e-7,-0.0742 -0.0251,-0.13561 -0.0753,-0.18431 -0.0502,-0.0487 -0.115009,-0.073 -0.194428,-0.073 -0.07867,0 -0.144229,0.0247 -0.196675,0.0742 -0.05245,0.0495 -0.08616,0.12362 -0.101147,0.22252 l -0.202295,-0.036 c 0.02473,-0.13561 0.08092,-0.2407 0.168579,-0.31525 0.08766,-0.0745 0.196675,-0.11182 0.327043,-0.11182 0.08991,0 0.172699,0.0193 0.248373,0.0579 0.07567,0.0386 0.133551,0.0912 0.173636,0.1579 0.04008,0.0667 0.06013,0.13749 0.06013,0.21241 -10e-7,0.0712 -0.01911,0.13599 -0.05732,0.19443 -0.03821,0.0584 -0.09478,0.10489 -0.169703,0.13936 0.0974,0.0225 0.173074,0.0691 0.22702,0.13992 0.05394,0.0708 0.08092,0.1594 0.08092,0.26579 -10e-7,0.14385 -0.05245,0.26579 -0.157341,0.36582 -0.104894,0.10002 -0.237509,0.15003 -0.397846,0.15003 -0.144604,0 -0.264669,-0.0431 -0.360197,-0.12924 -0.09553,-0.0862 -0.150035,-0.1978 -0.163522,-0.33491 z m -0.05682,-2.71653 0,0.19443 -1.08902,0 c -0.0015,-0.0487 0.0064,-0.0955 0.0236,-0.14048 0.02772,-0.0742 0.07211,-0.14723 0.133177,-0.21916 0.06106,-0.0719 0.149286,-0.15509 0.264669,-0.24949 0.179068,-0.14685 0.30007,-0.26317 0.363007,-0.34896 0.06293,-0.0858 0.0944,-0.16689 0.0944,-0.24332 -10e-7,-0.0802 -0.02866,-0.14778 -0.08597,-0.20285 -0.05732,-0.0551 -0.132054,-0.0826 -0.22421,-0.0826 -0.0974,0 -0.175323,0.0292 -0.233763,0.0877 -0.05844,0.0584 -0.08804,0.13936 -0.08879,0.24276 l -0.207914,-0.0214 c 0.01424,-0.15509 0.06781,-0.27328 0.160712,-0.35457 0.09291,-0.0813 0.217654,-0.12194 0.374245,-0.12194 0.158089,0 0.283212,0.0438 0.375369,0.13149 0.09216,0.0877 0.138234,0.1963 0.138235,0.32592 -10e-7,0.0659 -0.01349,0.13074 -0.04046,0.19443 -0.02697,0.0637 -0.07174,0.13074 -0.134301,0.20117 -0.06256,0.0704 -0.166519,0.16708 -0.311871,0.28995 -0.121377,0.1019 -0.199298,0.17102 -0.233763,0.20736 -0.03446,0.0363 -0.06294,0.0729 -0.08541,0.10957 z m -2.299165,-1.56375 -0.202295,0 0,-1.28907 c -0.0487,0.0465 -0.112574,0.0929 -0.191618,0.13936 -0.07905,0.0465 -0.150036,0.0813 -0.212971,0.10452 l 0,-0.19555 c 0.113135,-0.0532 0.212034,-0.11763 0.296699,-0.1933 0.08466,-0.0757 0.144602,-0.1491 0.179817,-0.22028 l 0.130368,0 z m -2.253711,-0.99362 0,0.19443 -1.08902,0 c -0.0015,-0.0487 0.0064,-0.0955 0.0236,-0.14049 0.02772,-0.0742 0.07211,-0.14722 0.133177,-0.21915 0.06106,-0.0719 0.149286,-0.15509 0.264669,-0.2495 0.179068,-0.14685 0.30007,-0.26316 0.363007,-0.34895 0.06293,-0.0858 0.0944,-0.1669 0.0944,-0.24332 -10e-7,-0.0802 -0.02866,-0.14779 -0.08598,-0.20286 -0.05732,-0.0551 -0.132054,-0.0826 -0.22421,-0.0826 -0.0974,0 -0.175323,0.0292 -0.233763,0.0877 -0.05844,0.0584 -0.08804,0.13936 -0.08879,0.24275 l -0.207914,-0.0213 c 0.01424,-0.15509 0.06781,-0.27328 0.160712,-0.35458 0.09291,-0.0813 0.217654,-0.12193 0.374245,-0.12193 0.158089,0 0.283212,0.0438 0.37537,0.13149 0.09215,0.0877 0.138233,0.1963 0.138234,0.32592 -10e-7,0.0659 -0.01349,0.13074 -0.04046,0.19442 -0.02697,0.0637 -0.07174,0.13075 -0.134301,0.20117 -0.06256,0.0704 -0.166519,0.16709 -0.311871,0.28996 -0.121377,0.1019 -0.199298,0.17101 -0.233763,0.20735 -0.03446,0.0363 -0.06294,0.0729 -0.08541,0.10958 z m -1.582394,0.19443 -0.202295,0 0,-1.28907 c -0.0487,0.0464 -0.112574,0.0929 -0.191618,0.13936 -0.07905,0.0464 -0.150036,0.0813 -0.212972,0.10452 l 0,-0.19555 c 0.113135,-0.0532 0.212035,-0.11763 0.296699,-0.19331 0.08466,-0.0757 0.144603,-0.1491 0.179818,-0.22027 l 0.130368,0 z" />
    </g>
    <path
       style="fill:#333333;stroke:#000000;stroke-width:0.01542277px;stroke-linecap:butt;stroke-linejoin:miter;stroke-opacity:1"
       d="m 79.734318,586.05187 -0.49965,-4.33868 0.312879,-0.0443 0.499647,4.33869 z"
       id="path3867"
       inkscape:connector-curvature="0" />
    <path
       style="fill:#ff2a2a;stroke:#000000;stroke-width:0.01598378px;stroke-linecap:butt;stroke-linejoin:miter;stroke-opacity:1"
       d="m 79.68583,586.57354 -3.926702,2.43985 0.157068,0.16266 3.926702,-2.43985 z"
       id="path3871"
       inkscape:connector-curvature="0"
       sodipodi:nodetypes="ccccc" />
    <path
       style="fill:#333333;stroke:#000000;stroke-width:0.01523993px;stroke-linecap:butt;stroke-linejoin:miter;stroke-opacity:1"
       d="m 80.401307,586.72976 1.98213,2.44856 -0.383954,0.29903 -1.98213,-2.44856 z"
       id="path3869"
       inkscape:connector-curvature="0" />
    <path
       sodipodi:type="arc"
       style="fill:#333333;fill-opacity:1;stroke:#000000;stroke-opacity:1"
       id="path3873"
       sodipodi:cx="80"
       sodipodi:cy="592.36218"
       sodipodi:rx="40"
       sodipodi:ry="40"
       d="m 120,592.36218 c 0,22.09139 -17.90861,40 -40,40 -22.09139,0 -40,-17.90861 -40,-40 0,-22.09139 17.90861,-40 40,-40 22.09139,0 40,17.90861 40,40 z"
       transform="matrix(0.01570681,0,0,0.01626564,78.743421,576.93839)" />
  </g>
</svg>
