<?xml version="1.0" encoding="UTF-8" standalone="no"?>
<!-- Created with Inkscape (http://www.inkscape.org/) -->

<svg
   xmlns:dc="http://purl.org/dc/elements/1.1/"
   xmlns:cc="http://creativecommons.org/ns#"
   xmlns:rdf="http://www.w3.org/1999/02/22-rdf-syntax-ns#"
   xmlns:svg="http://www.w3.org/2000/svg"
   xmlns="http://www.w3.org/2000/svg"
   xmlns:xlink="http://www.w3.org/1999/xlink"
   xmlns:sodipodi="http://sodipodi.sourceforge.net/DTD/sodipodi-0.dtd"
   xmlns:inkscape="http://www.inkscape.org/namespaces/inkscape"
   width="16.025505"
   height="16.013668"
   id="svg3777"
   version="1.1"
   inkscape:version="0.48.2 r9819"
   sodipodi:docname="ecks.svg">
  <defs
     id="defs3779">
    <linearGradient
       inkscape:collect="always"
       id="linearGradient4355">
      <stop
         style="stop-color:#ff8080;stop-opacity:1;"
         offset="0"
         id="stop4357" />
      <stop
         style="stop-color:#ff8080;stop-opacity:0;"
         offset="1"
         id="stop4359" />
    </linearGradient>
    <radialGradient
       inkscape:collect="always"
       xlink:href="#linearGradient3759"
       id="radialGradient3765"
       cx="48.234898"
       cy="69.178253"
       fx="48.234898"
       fy="69.178253"
       r="4"
       gradientTransform="matrix(-2.8668542,4.1268834,-1.8592506,-1.2915801,345.21346,-78.011167)"
       gradientUnits="userSpaceOnUse" />
    <linearGradient
       inkscape:collect="always"
       id="linearGradient3759">
      <stop
         style="stop-color:#ccffaa;stop-opacity:1;"
         offset="0"
         id="stop3761" />
      <stop
         style="stop-color:#ccffaa;stop-opacity:0;"
         offset="1"
         id="stop3763" />
    </linearGradient>
    <radialGradient
       inkscape:collect="always"
       xlink:href="#linearGradient3769"
       id="radialGradient3775"
       cx="30.163342"
       cy="104.23742"
       fx="30.163342"
       fy="104.23742"
       r="7.5"
       gradientTransform="matrix(-0.6666661,0.3999997,-0.80000015,-1.3333334,143.49882,176.28009)"
       gradientUnits="userSpaceOnUse" />
    <linearGradient
       inkscape:collect="always"
       id="linearGradient3769">
      <stop
         style="stop-color:#b3ff80;stop-opacity:1;"
         offset="0"
         id="stop3771" />
      <stop
         style="stop-color:#b3ff80;stop-opacity:0;"
         offset="1"
         id="stop3773" />
    </linearGradient>
    <radialGradient
       inkscape:collect="always"
       xlink:href="#linearGradient4355"
       id="radialGradient4361"
       cx="47.437668"
       cy="42.784901"
       fx="47.437668"
       fy="42.784901"
       r="17.993343"
       gradientTransform="matrix(0.32746209,0.25208098,-0.3954124,0.51365469,40.65229,-7.2375927)"
       gradientUnits="userSpaceOnUse" />
  </defs>
  <sodipodi:namedview
     id="base"
     pagecolor="#ffffff"
     bordercolor="#666666"
     borderopacity="1.0"
     inkscape:pageopacity="0.0"
     inkscape:pageshadow="2"
     inkscape:zoom="44.8"
     inkscape:cx="2.6526561"
     inkscape:cy="8.2887016"
     inkscape:document-units="px"
     inkscape:current-layer="layer1"
     showgrid="false"
     inkscape:window-width="1920"
     inkscape:window-height="1058"
     inkscape:window-x="-8"
     inkscape:window-y="-8"
     inkscape:window-maximized="1"
     fit-margin-top="0"
     fit-margin-left="0"
     fit-margin-right="0"
     fit-margin-bottom="0">
    <inkscape:grid
       type="xygrid"
       id="grid3785"
       empspacing="5"
       visible="true"
       enabled="true"
       snapvisiblegridlinesonly="true" />
  </sodipodi:namedview>
  <metadata
     id="metadata3782">
    <rdf:RDF>
      <cc:Work
         rdf:about="">
        <dc:format>image/svg+xml</dc:format>
        <dc:type
           rdf:resource="http://purl.org/dc/dcmitype/StillImage" />
        <dc:title />
      </cc:Work>
    </rdf:RDF>
  </metadata>
  <g
     inkscape:label="Layer 1"
     inkscape:groupmode="layer"
     id="layer1"
     transform="translate(-36.97979,-19.350292)">
    <path
       style="fill:#c83737;stroke:#000000;stroke-width:0.95886147;stroke-linecap:butt;stroke-linejoin:round;stroke-miterlimit:4;stroke-opacity:1;stroke-dasharray:none"
       d="m 37.479431,32.148 4.772716,-4.789861 -4.772716,-4.781773 2.734752,-2.734752 4.749897,4.787205 4.821737,-4.787205 2.734752,2.734752 -4.798614,4.785745 4.798614,4.785889 -2.734752,2.734752 -4.795838,-4.764362 -4.775796,4.764362 z"
       id="path3839"
       inkscape:connector-curvature="0"
       sodipodi:nodetypes="ccccccccccccc" />
    <path
       style="fill:url(#radialGradient4361);fill-opacity:1;stroke:none"
       d="m 40.230162,33.385856 -1.243149,-1.237174 4.677894,-4.864082 -4.723908,-4.671455 1.333199,-1.40083 4.769934,4.73979 3.246062,-3.348667 c -0.983468,5.550177 -8.135642,6.593259 -8.060032,10.782418 z"
       id="path3845"
       inkscape:connector-curvature="0"
       sodipodi:nodetypes="cccccccc" />
  </g>
</svg>
