<?xml version="1.0" encoding="UTF-8" standalone="no"?>
<!-- Created with Inkscape (http://www.inkscape.org/) -->

<svg
   xmlns:dc="http://purl.org/dc/elements/1.1/"
   xmlns:cc="http://creativecommons.org/ns#"
   xmlns:rdf="http://www.w3.org/1999/02/22-rdf-syntax-ns#"
   xmlns:svg="http://www.w3.org/2000/svg"
   xmlns="http://www.w3.org/2000/svg"
   xmlns:xlink="http://www.w3.org/1999/xlink"
   xmlns:sodipodi="http://sodipodi.sourceforge.net/DTD/sodipodi-0.dtd"
   xmlns:inkscape="http://www.inkscape.org/namespaces/inkscape"
   width="48.002037"
   height="47.998978"
   id="svg3995"
   version="1.1"
   inkscape:version="0.48.2 r9819"
   sodipodi:docname="info.svg">
  <defs
     id="defs3997">
    <linearGradient
       inkscape:collect="always"
       id="linearGradient4433">
      <stop
         style="stop-color:#ffffff;stop-opacity:1;"
         offset="0"
         id="stop4435" />
      <stop
         style="stop-color:#ffffff;stop-opacity:0;"
         offset="1"
         id="stop4437" />
    </linearGradient>
    <linearGradient
       inkscape:collect="always"
       id="linearGradient4425">
      <stop
         style="stop-color:#ffffff;stop-opacity:1;"
         offset="0"
         id="stop4427" />
      <stop
         style="stop-color:#ffffff;stop-opacity:0;"
         offset="1"
         id="stop4429" />
    </linearGradient>
    <linearGradient
       inkscape:collect="always"
       id="linearGradient4409">
      <stop
         style="stop-color:#55ddff;stop-opacity:1;"
         offset="0"
         id="stop4411" />
      <stop
         style="stop-color:#55ddff;stop-opacity:0;"
         offset="1"
         id="stop4413" />
    </linearGradient>
    <linearGradient
       id="linearGradient4401">
      <stop
         style="stop-color:#8ab1d0;stop-opacity:1;"
         offset="0"
         id="stop4403" />
      <stop
         style="stop-color:#afdde9;stop-opacity:1"
         offset="1"
         id="stop4405" />
    </linearGradient>
    <linearGradient
       id="linearGradient4595">
      <stop
         style="stop-color:#ffffff;stop-opacity:1;"
         offset="0"
         id="stop4597" />
      <stop
         id="stop4625"
         offset="0.00024414"
         style="stop-color:#ffffff;stop-opacity:0.99607843;" />
      <stop
         id="stop4623"
         offset="0.00048828"
         style="stop-color:#ffffff;stop-opacity:0.99607843;" />
      <stop
         id="stop4621"
         offset="0.00097656"
         style="stop-color:#ffffff;stop-opacity:0.99607843;" />
      <stop
         id="stop4619"
         offset="0.00195313"
         style="stop-color:#ffffff;stop-opacity:0.99607843;" />
      <stop
         id="stop4617"
         offset="0.00390625"
         style="stop-color:#ffffff;stop-opacity:0.99607843;" />
      <stop
         id="stop4615"
         offset="0.0078125"
         style="stop-color:#ffffff;stop-opacity:0.99215686;" />
      <stop
         id="stop4613"
         offset="0.015625"
         style="stop-color:#ffffff;stop-opacity:0.98431373;" />
      <stop
         id="stop4611"
         offset="0.03125"
         style="stop-color:#ffffff;stop-opacity:0.96862745;" />
      <stop
         id="stop4609"
         offset="0.0625"
         style="stop-color:#ffffff;stop-opacity:0.9372549;" />
      <stop
         id="stop4607"
         offset="0.125"
         style="stop-color:#ffffff;stop-opacity:0.8745098;" />
      <stop
         id="stop4605"
         offset="0.25"
         style="stop-color:#ffffff;stop-opacity:0.74901961;" />
      <stop
         id="stop4603"
         offset="0.5"
         style="stop-color:#ffffff;stop-opacity:0.49803922;" />
      <stop
         style="stop-color:#ffffff;stop-opacity:0;"
         offset="1"
         id="stop4599" />
    </linearGradient>
    <linearGradient
       inkscape:collect="always"
       id="linearGradient4555">
      <stop
         style="stop-color:#ff8080;stop-opacity:1;"
         offset="0"
         id="stop4557" />
      <stop
         style="stop-color:#ff8080;stop-opacity:0;"
         offset="1"
         id="stop4559" />
    </linearGradient>
    <radialGradient
       inkscape:collect="always"
       xlink:href="#linearGradient4555"
       id="radialGradient4561"
       cx="81.715721"
       cy="195.1208"
       fx="81.715721"
       fy="195.1208"
       r="210"
       gradientTransform="matrix(0.76190479,1.6666667,-1.7761687,0.81196289,384.30787,-122.26153)"
       gradientUnits="userSpaceOnUse" />
    <radialGradient
       inkscape:collect="always"
       xlink:href="#linearGradient4595"
       id="radialGradient4601"
       cx="188.94994"
       cy="191.80853"
       fx="188.94994"
       fy="191.80853"
       r="135"
       gradientTransform="matrix(1.1527322,1.2167731,-1.4074075,1.3333333,222.1441,-268.29172)"
       gradientUnits="userSpaceOnUse" />
    <radialGradient
       inkscape:collect="always"
       xlink:href="#linearGradient4409"
       id="radialGradient4415"
       cx="22.857143"
       cy="232.14984"
       fx="22.857143"
       fy="232.14984"
       r="224.3699"
       gradientTransform="matrix(0.91685331,0.71310806,-1.7338264,2.2292056,404.40803,-301.44715)"
       gradientUnits="userSpaceOnUse" />
    <radialGradient
       inkscape:collect="always"
       xlink:href="#linearGradient4425"
       id="radialGradient4431"
       cx="225.91785"
       cy="96.602959"
       fx="225.91785"
       fy="96.602959"
       r="25"
       gradientTransform="matrix(0.98959464,1.1840028,-1.4986054,1.4775987,148.68916,-317.70868)"
       gradientUnits="userSpaceOnUse" />
    <radialGradient
       inkscape:collect="always"
       xlink:href="#linearGradient4433"
       id="radialGradient4439"
       cx="227.65102"
       cy="221.14143"
       fx="227.65102"
       fy="221.14143"
       r="27.5"
       gradientTransform="matrix(0.11142919,0.31298705,-0.19291872,0.06868264,356.09101,208.4826)"
       gradientUnits="userSpaceOnUse" />
  </defs>
  <sodipodi:namedview
     id="base"
     pagecolor="#ffffff"
     bordercolor="#666666"
     borderopacity="1.0"
     inkscape:pageopacity="0.0"
     inkscape:pageshadow="2"
     inkscape:zoom="31.678384"
     inkscape:cx="22.08042"
     inkscape:cy="37.764055"
     inkscape:document-units="px"
     inkscape:current-layer="layer1"
     showgrid="false"
     inkscape:window-width="1920"
     inkscape:window-height="1058"
     inkscape:window-x="-8"
     inkscape:window-y="-8"
     inkscape:window-maximized="1"
     fit-margin-top="0"
     fit-margin-left="0"
     fit-margin-right="0"
     fit-margin-bottom="0">
    <inkscape:grid
       type="xygrid"
       id="grid4511"
       empspacing="5"
       visible="true"
       enabled="true"
       snapvisiblegridlinesonly="true" />
  </sodipodi:namedview>
  <metadata
     id="metadata4000">
    <rdf:RDF>
      <cc:Work
         rdf:about="">
        <dc:format>image/svg+xml</dc:format>
        <dc:type
           rdf:resource="http://purl.org/dc/dcmitype/StillImage" />
        <dc:title />
      </cc:Work>
    </rdf:RDF>
  </metadata>
  <g
     inkscape:label="Layer 1"
     inkscape:groupmode="layer"
     id="layer1"
     transform="translate(-316.00408,-274.02234)">
    <path
       sodipodi:type="arc"
       style="fill:#00aad4;fill-opacity:1;stroke:#03114e;stroke-width:10.10416698;stroke-linejoin:miter;stroke-miterlimit:4;stroke-opacity:1;stroke-dasharray:none"
       id="path3863"
       sodipodi:cx="240"
       sodipodi:cy="232.36218"
       sodipodi:rx="240"
       sodipodi:ry="240"
       d="m 480,232.36218 c 0,132.54834 -107.45166,240 -240,240 -132.54834,0 -240,-107.45166 -240,-240 C 0,99.813843 107.45166,-7.6378174 240,-7.6378174 c 132.54834,0 240,107.4516604 240,239.9999974 z"
       transform="matrix(0.09793836,0,0,0.09793836,316.49989,275.26493)" />
    <path
       sodipodi:type="arc"
       style="fill:url(#radialGradient4415);fill-opacity:1;stroke:none"
       id="path3863-1"
       sodipodi:cx="240"
       sodipodi:cy="232.36218"
       sodipodi:rx="240"
       sodipodi:ry="240"
       d="M 175.45924,463.5212 C 47.793642,427.87632 -26.803892,295.48702 8.8409846,167.82142 44.485862,40.155824 176.87516,-34.44171 304.54076,1.2031672 365.56838,18.242385 417.38178,58.723448 448.67878,113.81612 L 240,232.36218 z"
       transform="matrix(0.08569607,0,0,0.08569607,319.43804,278.10957)"
       sodipodi:start="1.8430677"
       sodipodi:end="5.7665678" />
    <path
       sodipodi:type="arc"
       style="fill:#e6e6e6;fill-opacity:1;stroke:none"
       id="path3079"
       sodipodi:cx="24.151785"
       sodipodi:cy="11.704335"
       sodipodi:rx="3.4375"
       sodipodi:ry="3.3482144"
       d="m 27.589285,11.704335 a 3.4375,3.3482144 0 1 1 -6.875,0 3.4375,3.3482144 0 1 1 6.875,0 z"
       transform="matrix(0.97402597,0,0,0.99666663,316.72068,274.16181)" />
    <path
       style="fill:#e6e6e6;fill-opacity:1;stroke:none"
       d="m 18.839286,18.19987 8.4375,0.02232 0,16.964286 c 0.143721,1.966101 1.26882,2.173901 2.398993,2.372609 l 0.0092,0.762991 -10.86806,0.0065 0,-0.798387 c 1.31566,-0.08971 2.307732,-0.596235 2.388393,-2.276786 l 0,-13.794643 c 0.08396,-1.318899 -0.746298,-2.133405 -2.388393,-2.5 z"
       id="path3849"
       inkscape:connector-curvature="0"
       transform="translate(316.00408,274.02234)"
       sodipodi:nodetypes="ccccccccccc" />
    <path
       style="fill:url(#radialGradient4439);fill-opacity:1;stroke:none"
       d="m 338.04633,304.38809 0,-10.28352 c 0.008,-0.51461 -0.46941,-0.75615 -0.97938,-0.97938 l 5.38661,0 0,8.81444 c -2.66837,-2.16813 -2.44846,1.46908 -4.40723,2.44846 z"
       id="path4421"
       inkscape:connector-curvature="0"
       sodipodi:nodetypes="cccccc" />
    <path
       sodipodi:type="arc"
       style="fill:url(#radialGradient4431);fill-opacity:1;stroke:none"
       id="path4423"
       sodipodi:cx="240"
       sodipodi:cy="104.86218"
       sodipodi:rx="25"
       sodipodi:ry="27.5"
       d="m 265,104.86218 c 0,15.18783 -11.19288,27.5 -25,27.5 -13.80712,0 -25,-12.31217 -25,-27.5 0,-15.187828 11.19288,-27.499997 25,-27.499997 13.80712,0 25,12.312169 25,27.499997 z"
       transform="matrix(0.0968496,0,0,0.08916934,317.05551,276.42561)" />
  </g>
</svg>
