<?xml version="1.0" encoding="UTF-8" standalone="no"?>
<!-- Created with Inkscape (http://www.inkscape.org/) -->

<svg
   xmlns:dc="http://purl.org/dc/elements/1.1/"
   xmlns:cc="http://creativecommons.org/ns#"
   xmlns:rdf="http://www.w3.org/1999/02/22-rdf-syntax-ns#"
   xmlns:svg="http://www.w3.org/2000/svg"
   xmlns="http://www.w3.org/2000/svg"
   xmlns:xlink="http://www.w3.org/1999/xlink"
   xmlns:sodipodi="http://sodipodi.sourceforge.net/DTD/sodipodi-0.dtd"
   xmlns:inkscape="http://www.inkscape.org/namespaces/inkscape"
   width="29.844727"
   height="15.125"
   id="svg2"
   version="1.1"
   inkscape:version="0.48.2 r9819"
   sodipodi:docname="ontop.svg">
  <defs
     id="defs4">
    <linearGradient
       id="linearGradient4430">
      <stop
         style="stop-color:#6b92bd;stop-opacity:1;"
         offset="0"
         id="stop4432" />
      <stop
         style="stop-color:#a1bbd5;stop-opacity:1;"
         offset="1"
         id="stop4434" />
    </linearGradient>
    <linearGradient
       id="linearGradient4417">
      <stop
         style="stop-color:#6b92bd;stop-opacity:1;"
         offset="0"
         id="stop4419" />
      <stop
         id="stop4428"
         offset="0.5"
         style="stop-color:#7399c3;stop-opacity:1;" />
      <stop
         id="stop4425"
         offset="0.5"
         style="stop-color:#3d638d;stop-opacity:1;" />
      <stop
         style="stop-color:#7b9ec5;stop-opacity:1;"
         offset="1"
         id="stop4421" />
    </linearGradient>
    <linearGradient
       inkscape:collect="always"
       id="linearGradient4425">
      <stop
         style="stop-color:#de8787;stop-opacity:1;"
         offset="0"
         id="stop4427" />
      <stop
         style="stop-color:#de8787;stop-opacity:0;"
         offset="1"
         id="stop4429" />
    </linearGradient>
    <linearGradient
       inkscape:collect="always"
       id="linearGradient3997">
      <stop
         style="stop-color:#782121;stop-opacity:1;"
         offset="0"
         id="stop3999" />
      <stop
         style="stop-color:#782121;stop-opacity:0;"
         offset="1"
         id="stop4001" />
    </linearGradient>
    <linearGradient
       inkscape:collect="always"
       xlink:href="#linearGradient3997"
       id="linearGradient4003"
       x1="49.911613"
       y1="8.5233479"
       x2="49.734837"
       y2="53.637756"
       gradientUnits="userSpaceOnUse"
       gradientTransform="matrix(0.25263156,0,0,0.10983553,10.736842,1037.5745)" />
    <linearGradient
       inkscape:collect="always"
       xlink:href="#linearGradient4425"
       id="linearGradient4431"
       x1="52.166447"
       y1="34.499115"
       x2="52.303223"
       y2="13.197523"
       gradientUnits="userSpaceOnUse"
       gradientTransform="matrix(0.26373626,0,0,0.24930596,10.153846,1029.7931)" />
    <linearGradient
       inkscape:collect="always"
       xlink:href="#linearGradient4417"
       id="linearGradient4423"
       x1="25"
       y1="1051.875"
       x2="25"
       y2="1064.875"
       gradientUnits="userSpaceOnUse"
       gradientTransform="matrix(-0.79488341,0,0,0.94716941,44.748045,34.966781)" />
    <linearGradient
       inkscape:collect="always"
       xlink:href="#linearGradient4430"
       id="linearGradient4436"
       x1="25"
       y1="1050.875"
       x2="25"
       y2="1065.875"
       gradientUnits="userSpaceOnUse"
       gradientTransform="matrix(-0.83713161,0,0,0.94716941,45.246226,34.966781)" />
  </defs>
  <sodipodi:namedview
     id="base"
     pagecolor="#ffffff"
     bordercolor="#666666"
     borderopacity="1.0"
     inkscape:pageopacity="0.0"
     inkscape:pageshadow="2"
     inkscape:zoom="32"
     inkscape:cx="11.610628"
     inkscape:cy="8.6297324"
     inkscape:document-units="px"
     inkscape:current-layer="layer1"
     showgrid="false"
     inkscape:window-width="1920"
     inkscape:window-height="1058"
     inkscape:window-x="-8"
     inkscape:window-y="-8"
     inkscape:window-maximized="1"
     fit-margin-top="0"
     fit-margin-left="0"
     fit-margin-right="0"
     fit-margin-bottom="0">
    <inkscape:grid
       type="xygrid"
       id="grid2985"
       empspacing="5"
       visible="true"
       enabled="true"
       snapvisiblegridlinesonly="true" />
  </sodipodi:namedview>
  <metadata
     id="metadata7">
    <rdf:RDF>
      <cc:Work
         rdf:about="">
        <dc:format>image/svg+xml</dc:format>
        <dc:type
           rdf:resource="http://purl.org/dc/dcmitype/StillImage" />
        <dc:title></dc:title>
      </cc:Work>
    </rdf:RDF>
  </metadata>
  <g
     inkscape:label="Layer 1"
     inkscape:groupmode="layer"
     id="layer1"
     transform="translate(-13.374023,-1030.0313)">
    <text
       xml:space="preserve"
       style="font-size:40px;font-style:normal;font-weight:normal;line-height:125%;letter-spacing:0px;word-spacing:0px;fill:#000000;fill-opacity:1;stroke:none;font-family:Sans"
       x="26.071428"
       y="17.540754"
       id="text3787"
       sodipodi:linespacing="125%"><tspan
         sodipodi:role="line"
         id="tspan3789"
         x="26.071428"
         y="17.540754" /></text>
    <path
       style="fill:url(#linearGradient4436);fill-opacity:1;stroke:#1c2c41;stroke-width:1.11801338000000010;stroke-linejoin:miter;stroke-miterlimit:4;stroke-opacity:1;stroke-dasharray:none"
       d="m 42.674108,1030.5938 0,14 -28.748939,0 c -0.0032,-13.9598 0.0019,-0.036 0,-14 z"
       id="rect3894"
       inkscape:connector-curvature="0"
       sodipodi:nodetypes="ccccc" />
    <path
       inkscape:connector-curvature="0"
       id="path4407"
       d="m 40.799275,1032.105 0,11 -24.924301,0 c -0.0347,-10.9957 -0.01619,0.011 0,-11 z"
       style="fill:url(#linearGradient4423);fill-opacity:1;stroke:none"
       sodipodi:nodetypes="ccccc" />
    <path
       style="fill:#e6e6e6;fill-opacity:1;stroke:#343434;stroke-width:1.15535903;stroke-linecap:butt;stroke-linejoin:round;stroke-miterlimit:4;stroke-opacity:1;stroke-dasharray:none"
       d="m 35.544653,1040.1222 0,-5.3381 c -1.288849,0 -1.288849,0 -1.288849,0.4449 0,0.8896 -3.00733,2.2242 -6.014661,-0.8896 0,-0.4449 0,-0.4449 -1.288861,-0.4449 l 0,3.114 -6.873889,0.4447 6.873889,0.4449 0,3.1139 c 1.288861,0 1.288861,0 1.288861,-0.4448 3.007331,-3.114 6.014661,-1.7794 6.014661,-0.8899 0,0.445 0,0.445 1.288849,0.445 z"
       id="path2987-1"
       inkscape:connector-curvature="0"
       sodipodi:nodetypes="cccccccccccc" />
  </g>
</svg>
