<?xml version="1.0" encoding="UTF-8" standalone="no"?>
<!-- Created with Inkscape (http://www.inkscape.org/) -->

<svg
   xmlns:dc="http://purl.org/dc/elements/1.1/"
   xmlns:cc="http://creativecommons.org/ns#"
   xmlns:rdf="http://www.w3.org/1999/02/22-rdf-syntax-ns#"
   xmlns:svg="http://www.w3.org/2000/svg"
   xmlns="http://www.w3.org/2000/svg"
   xmlns:xlink="http://www.w3.org/1999/xlink"
   xmlns:sodipodi="http://sodipodi.sourceforge.net/DTD/sodipodi-0.dtd"
   xmlns:inkscape="http://www.inkscape.org/namespaces/inkscape"
   width="20.020441"
   height="34.978394"
   id="svg2"
   version="1.1"
   inkscape:version="0.48.2 r9819"
   sodipodi:docname="wound-marker.svg">
  <defs
     id="defs4">
    <linearGradient
       inkscape:collect="always"
       id="linearGradient3849">
      <stop
         style="stop-color:#ffaaaa;stop-opacity:1;"
         offset="0"
         id="stop3851" />
      <stop
         style="stop-color:#ffaaaa;stop-opacity:0;"
         offset="1"
         id="stop3853" />
    </linearGradient>
    <linearGradient
       inkscape:collect="always"
       id="linearGradient3836">
      <stop
         style="stop-color:#ffd5d5;stop-opacity:1;"
         offset="0"
         id="stop3838" />
      <stop
         style="stop-color:#ffd5d5;stop-opacity:0;"
         offset="1"
         id="stop3840" />
    </linearGradient>
    <linearGradient
       id="linearGradient3805">
      <stop
         style="stop-color:#3c0000;stop-opacity:1;"
         offset="0"
         id="stop3807" />
      <stop
         style="stop-color:#550000;stop-opacity:0;"
         offset="1"
         id="stop3809" />
    </linearGradient>
    <linearGradient
       id="linearGradient3797">
      <stop
         style="stop-color:#ff8080;stop-opacity:1;"
         offset="0"
         id="stop3799" />
      <stop
         style="stop-color:#ff8080;stop-opacity:0;"
         offset="1"
         id="stop3801" />
    </linearGradient>
    <linearGradient
       id="linearGradient3777">
      <stop
         style="stop-color:#ff1515;stop-opacity:1;"
         offset="0"
         id="stop3779" />
      <stop
         style="stop-color:#600000;stop-opacity:1;"
         offset="1"
         id="stop3781" />
    </linearGradient>
    <linearGradient
       id="linearGradient3759">
      <stop
         style="stop-color:#ff5555;stop-opacity:1;"
         offset="0"
         id="stop3761" />
      <stop
         style="stop-color:#ff5555;stop-opacity:0;"
         offset="1"
         id="stop3763" />
    </linearGradient>
    <radialGradient
       inkscape:collect="always"
       xlink:href="#linearGradient3759"
       id="radialGradient3765"
       cx="34.566086"
       cy="16.888069"
       fx="34.566086"
       fy="16.888069"
       r="9.5"
       gradientTransform="matrix(0.72940774,-1.0972448,0.58019673,0.38569333,-4.6246643,75.409149)"
       gradientUnits="userSpaceOnUse" />
    <radialGradient
       inkscape:collect="always"
       xlink:href="#linearGradient3777"
       id="radialGradient3783"
       cx="11.723043"
       cy="17.30834"
       fx="11.723043"
       fy="17.30834"
       r="12.11895"
       gradientTransform="matrix(1.090267,-0.06737481,0.07760803,1.2558621,14.7234,11.514313)"
       gradientUnits="userSpaceOnUse" />
    <radialGradient
       inkscape:collect="always"
       xlink:href="#linearGradient3797"
       id="radialGradient3803"
       cx="7.1342025"
       cy="7.3570352"
       fx="7.1342025"
       fy="7.3570352"
       r="2.9673231"
       gradientTransform="matrix(1,0,0,1.0531915,0,-0.39133192)"
       gradientUnits="userSpaceOnUse" />
    <radialGradient
       inkscape:collect="always"
       xlink:href="#linearGradient3805"
       id="radialGradient3811"
       cx="30.48192"
       cy="43.165859"
       fx="30.48192"
       fy="43.165859"
       r="7.520672"
       gradientTransform="matrix(1.0178081,-1.3059244,1.0226098,0.7969991,-44.684656,48.906714)"
       gradientUnits="userSpaceOnUse" />
    <radialGradient
       inkscape:collect="always"
       xlink:href="#linearGradient3836"
       id="radialGradient3842"
       cx="7.3586082"
       cy="3.7291455"
       fx="7.3586082"
       fy="3.7291455"
       r="6.703125"
       gradientTransform="matrix(1.0194206,-0.40909598,0.16711963,0.41644307,-1.2921408,6.5916937)"
       gradientUnits="userSpaceOnUse" />
    <radialGradient
       inkscape:collect="always"
       xlink:href="#linearGradient3849"
       id="radialGradient3855"
       cx="4.3128004"
       cy="9.9803019"
       fx="4.3128004"
       fy="9.9803019"
       r="6.6931806"
       gradientTransform="matrix(0.45761237,0.50292511,-1.2189377,1.1091133,15.029844,-4.2301091)"
       gradientUnits="userSpaceOnUse" />
  </defs>
  <sodipodi:namedview
     id="base"
     pagecolor="#ffffff"
     bordercolor="#666666"
     borderopacity="1.0"
     inkscape:pageopacity="0.0"
     inkscape:pageshadow="2"
     inkscape:zoom="31.678384"
     inkscape:cx="2.168109"
     inkscape:cy="22.612071"
     inkscape:document-units="px"
     inkscape:current-layer="layer1"
     showgrid="false"
     fit-margin-top="0"
     fit-margin-left="0"
     fit-margin-right="0"
     fit-margin-bottom="0"
     inkscape:window-width="1366"
     inkscape:window-height="746"
     inkscape:window-x="2552"
     inkscape:window-y="792"
     inkscape:window-maximized="1">
    <inkscape:grid
       type="xygrid"
       id="grid2985"
       empspacing="5"
       visible="true"
       enabled="true"
       snapvisiblegridlinesonly="true" />
  </sodipodi:namedview>
  <metadata
     id="metadata7">
    <rdf:RDF>
      <cc:Work
         rdf:about="">
        <dc:format>image/svg+xml</dc:format>
        <dc:type
           rdf:resource="http://purl.org/dc/dcmitype/StillImage" />
        <dc:title />
      </cc:Work>
    </rdf:RDF>
  </metadata>
  <g
     inkscape:label="Layer 1"
     inkscape:groupmode="layer"
     id="layer1"
     transform="translate(-19.989779,-20.497985)">
    <path
       style="fill:url(#radialGradient3783);fill-opacity:1;stroke:#4c0000;stroke-width:1;stroke-linecap:round;stroke-linejoin:round;stroke-miterlimit:3.79999995;stroke-opacity:1;stroke-dasharray:none"
       d="M 30,55.05038 21.751216,37.436757 c -8.248783,-22.017029 24.746351,-22.017029 16.497568,0 z"
       id="path2987"
       inkscape:connector-curvature="0"
       sodipodi:nodetypes="cccc" />
    <path
       style="fill:url(#radialGradient3811);fill-opacity:1;stroke:none;stroke-width:1;stroke-miterlimit:3.79999995;stroke-dasharray:none"
       d="M 29.905298,51.780193 23.586248,38.73742 c 9.490499,3.344731 7.031939,-5.888774 15.041344,-6.458481 -0.691413,4.700395 -5.853687,12.941276 -8.722294,19.501254 z"
       id="path3757"
       inkscape:connector-curvature="0"
       sodipodi:nodetypes="cccc" />
    <path
       style="fill:url(#radialGradient3855);fill-opacity:1;stroke:none;stroke-width:1;stroke-miterlimit:3.79999995;stroke-dasharray:none"
       d="M 10.875,1.75 C 8.4805993,1.6146321 5.9638286,2.4652748 4.1875,4.25 5.2527142,4.2747187 6.3157976,4.3910581 7.375,4.65625 9.1398003,3.2519116 12.991517,3.0486581 15.125,3.25 13.893635,2.353477 12.415418,1.8370878 10.875,1.75 z M 3.53125,5 c -1.2553323,1.6242803 -2.4274083,3.6436591 -1.75,6.6875 1.2153711,3.487233 8.866002,0.894438 6.6875,-1.625 C 6.3680425,7.8831527 6.1027527,6.3691296 6.78125,5.3125 5.7367435,5.0737832 4.6467666,4.9901816 3.53125,5 z"
       transform="translate(19.989779,20.497985)"
       id="path3844"
       inkscape:connector-curvature="0"
       sodipodi:nodetypes="scccsccccc" />
  </g>
</svg>
