FirstName: Raquel		LastName: Acosta		Gender: 		PatientIdNumber: A00782		MedicareNumber: 265760596A		PrimaryInsurance: 1		SSN: 265760596		DOB: 10/6/1928 12:00:00 AM		PhoneHome: 8133509040		AddressLine1: 2933 W Columbus Dr		AddressCity: Tampa		AddressStateCode: FL		AddressZipCode: 33607		StartofCareDate: 6/21/2013 12:00:00 AM		Created: 9/12/2013 3:28:04 PM		Modified: 9/12/2013 3:28:04 PM		Phys FN: CARLOS		Phys LN: FUMERO		Phys NPI: 1184710501		Phys Phone: 		Phys Fax: 				Comments: Episode Start Date:6/20/2013 ; Insurance: Medicare PGBA; Insurance Number: 265760596A; 		
FirstName: Ana			LastName: Alvarez		Gender: 		PatientIdNumber: A00936							PrimaryInsurance: 		SSN: 265726896		DOB: 4/25/1924 12:00:00 AM		PhoneHome: 8139150309		AddressLine1: 4016 Cortez Drive			AddressCity: Tampa		AddressStateCode: FL		AddressZipCode: 33614		StartofCareDate: 8/26/2013 12:00:00 AM		Created: 9/12/2013 3:28:08 PM		Modified: 9/12/2013 3:28:08 PM																				Comments: Episode Start Date:8/23/2013 ; Insurance: United HealthCare; Insurance Number: 804166526; 		
FirstName: Maria		LastName: Arroyo		Gender: 		PatientIdNumber: A01154		MedicareNumber: 638840616T		PrimaryInsurance: 1		SSN: 638840616		DOB: 11/9/1951 12:00:00 AM		PhoneHome: 8132701858		AddressLine1: 1712 Marvy Ave			AddressCity: Forest Hills	AddressStateCode: FL		AddressZipCode: 33612		StartofCareDate: 7/20/2013 12:00:00 AM		Created: 9/12/2013 3:28:08 PM		Modified: 9/12/2013 3:28:08 PM																				Comments: Episode Start Date:7/18/2013 ; Insurance: Medicare PGBA; Insurance Number: 638840616T; 		
FirstName: Manuela		LastName: Ayala			Gender: 		PatientIdNumber: A01040		MedicareNumber: 581203493B		PrimaryInsurance: 1		SSN: 581203493		DOB: 10/11/1936 12:00:00 AM		PhoneHome: 8136720527		AddressLine1: 11329 Andy Drive			AddressCity: Riverview		AddressStateCode: FL		AddressZipCode: 33569		StartofCareDate: 8/19/2013 12:00:00 AM		Created: 9/12/2013 3:28:08 PM		Modified: 9/12/2013 3:28:08 PM		Phys FN: JOSE		Phys LN: PIZARRO OTERO	Phys NPI: 1669528550		Phys Phone: 		Phys Fax: 				Comments: Episode Start Date:8/16/2013 ; Insurance: Medicare PGBA; Insurance Number: 581203493B; 		
FirstName: Zellar		LastName: Bailey		Gender: 		PatientIdNumber: A00123		MedicareNumber: 415361127D2		PrimaryInsurance: 1		SSN: 262562339		DOB: 8/18/1927 12:00:00 AM		PhoneHome: 8134472228		AddressLine1: 3706 Sumner Dr			AddressCity: Dover		AddressStateCode: FL		AddressZipCode: 33527		StartofCareDate: 3/12/2009 12:00:00 AM		Created: 9/12/2013 3:28:08 PM		Modified: 9/12/2013 3:28:08 PM																				Comments: Episode Start Date:3/12/2009 ; Insurance: Medicare PGBA; Insurance Number: 415361127D2; 		
FirstName: Hermagores		LastName: Barreras		Gender: 		PatientIdNumber: A00582		MedicareNumber: 338467834A		PrimaryInsurance: 1		SSN: 338467834		DOB: 11/9/1924 12:00:00 AM		PhoneHome: 8138793061		AddressLine1: 3325 Spruce St			AddressCity: Tampa		AddressStateCode: FL		AddressZipCode: 33607		StartofCareDate: 8/7/2013 12:00:00 AM		Created: 9/12/2013 3:28:08 PM		Modified: 9/12/2013 3:28:08 PM																				Comments: Episode Start Date:8/6/2013 ; Insurance: Medicare PGBA; Insurance Number: 338467834A; 		
FirstName: Ana			LastName: Benitez		Gender: 		PatientIdNumber: A00273		MedicareNumber: 134264289A		PrimaryInsurance: 1		SSN: 134264289		DOB: 4/22/1923 12:00:00 AM		PhoneHome: 8133509040		AddressLine1: 2933 W Columbus Dr		AddressCity: Tampa		AddressStateCode: FL		AddressZipCode: 33607		StartofCareDate: 7/31/2013 12:00:00 AM		Created: 9/12/2013 3:28:08 PM		Modified: 9/12/2013 3:28:08 PM		Phys FN: CHRISTOPHER	Phys LN: EWANOWSKI	Phys NPI: 1780880476		Phys Phone: 		Phys Fax: 				Comments: Episode Start Date:7/30/2013 ; Insurance: Medicare PGBA; Insurance Number: 134264289A; 		
FirstName: Jesus		LastName: Bequer		Gender: 		PatientIdNumber: A00104							PrimaryInsurance: 		SSN: 264707851		DOB: 10/11/1923 12:00:00 AM		PhoneHome: 8139600908		AddressLine1: 4611 Cloverlawn Dr		AddressCity: Tampa		AddressStateCode: FL		AddressZipCode: 33624		StartofCareDate: 7/11/2013 12:00:00 AM		Created: 9/12/2013 3:28:08 PM		Modified: 9/12/2013 3:28:08 PM																				Comments: Insurance: No Active POC; 		
FirstName: Vitalia		LastName: Bequer		Gender: 		PatientIdNumber: A00105		MedicareNumber: 267720203A		PrimaryInsurance: 1		SSN: 267720203		DOB: 4/26/1924 12:00:00 AM		PhoneHome: 8139600908		AddressLine1: 4611 Cloverlawn Dr		AddressCity: Tampa		AddressStateCode: FL		AddressZipCode: 33624		StartofCareDate: 7/20/2011 12:00:00 AM		Created: 9/12/2013 3:28:08 PM		Modified: 9/12/2013 3:28:08 PM																				Comments: Episode Start Date:7/19/2011 ; Insurance: Medicare PGBA; Insurance Number: 267720203A; 		
FirstName: Theodore		LastName: Bickel		Gender: 		PatientIdNumber: A01167							PrimaryInsurance: 		SSN: 221161366		DOB: 8/11/1926 12:00:00 AM		PhoneHome: 8136337777		AddressLine1: 970 Cypress Village Blvd		AddressCity: Ruskin		AddressStateCode: FL		AddressZipCode: 33573		StartofCareDate: 8/12/2013 12:00:00 AM		Created: 9/12/2013 3:28:08 PM		Modified: 9/12/2013 3:28:08 PM																				Comments: Episode Start Date:8/9/2013 ; Insurance: United HealthCare; Insurance Number: 979649892; 		
FirstName: Luciano		LastName: Blasco		Gender: 		PatientIdNumber: A00915		MedicareNumber: 265627153A		PrimaryInsurance: 1		SSN: 265627153		DOB: 1/1/0001 12:00:00 AM		PhoneHome: 			AddressLine1: 2933 West Columbus Drive		AddressCity: Tampa		AddressStateCode: FL		AddressZipCode: 33607		StartofCareDate: 8/30/2013 12:00:00 AM		Created: 9/12/2013 3:28:08 PM		Modified: 9/12/2013 3:28:08 PM		Phys FN: CARLOS		Phys LN: FUMERO		Phys NPI: 1184710501		Phys Phone: 		Phys Fax: 				Comments: Episode Start Date:8/30/2013 ; Insurance: Medicare PGBA; Insurance Number: 265627153A; 		
FirstName: Angela		LastName: Canchola		Gender: 		PatientIdNumber: A00597		MedicareNumber: 267442168A		PrimaryInsurance: 1		SSN: 267442168		DOB: 11/13/1936 12:00:00 AM		PhoneHome: 			AddressLine1: 2933 W Columbus Dr		AddressCity: Tampa		AddressStateCode: FL		AddressZipCode: 33607		StartofCareDate: 6/5/2013 12:00:00 AM		Created: 9/12/2013 3:28:08 PM		Modified: 9/12/2013 3:28:08 PM		Phys FN: CARLOS		Phys LN: FUMERO		Phys NPI: 1184710501		Phys Phone: 		Phys Fax: 				Comments: Episode Start Date:6/4/2013 ; Insurance: Medicare PGBA; Insurance Number: 267442168A; 		
FirstName: Charles		LastName: Cardwell		Gender: 		PatientIdNumber: A01095							PrimaryInsurance: 		SSN: 413468439		DOB: 1/1/0001 12:00:00 AM		PhoneHome: 			AddressLine1: 725 W Wheeler Rd			AddressCity: Brandon		AddressStateCode: FL		AddressZipCode: 33510		StartofCareDate: 5/1/2013 12:00:00 AM		Created: 9/12/2013 3:28:08 PM		Modified: 9/12/2013 3:28:08 PM																				Comments: Insurance: No Active POC; 		
FirstName: Milagros		LastName: Cebollero		Gender: 		PatientIdNumber: A01159		MedicareNumber: 580848883A		PrimaryInsurance: 1		SSN: 580848883		DOB: 10/24/1922 12:00:00 AM		PhoneHome: 8134310363		AddressLine1: 14101 Farmington Blvd		AddressCity: Tampa		AddressStateCode: FL		AddressZipCode: 33625		StartofCareDate: 8/1/2013 12:00:00 AM		Created: 9/12/2013 3:28:08 PM		Modified: 9/12/2013 3:28:08 PM																				Comments: Episode Start Date:8/1/2013 ; Insurance: Medicare PGBA; Insurance Number: 580848883A; 		
FirstName: Erminda		LastName: Cervantes		Gender: 		PatientIdNumber: A00286		MedicareNumber: 067283764B		PrimaryInsurance: 1		SSN: 123487136		DOB: 2/5/1928 12:00:00 AM		PhoneHome: 8133509040		AddressLine1: 2933 W Columbus Dr		AddressCity: Tampa		AddressStateCode: FL		AddressZipCode: 33607		StartofCareDate: 8/6/2012 12:00:00 AM		Created: 9/12/2013 3:28:08 PM		Modified: 9/12/2013 3:28:08 PM																				Comments: Episode Start Date:8/6/2012 ; Insurance: Medicare PGBA; Insurance Number: 067283764B; 		
FirstName: Jorge		LastName: Cevallos		Gender: 		PatientIdNumber: A01121		MedicareNumber: 592384936A		PrimaryInsurance: 1		SSN: 592384936		DOB: 12/12/1918 12:00:00 AM		PhoneHome: 8134433404		AddressLine1: 5108 Redwillow Ct			AddressCity: Northdale		AddressStateCode: FL		AddressZipCode: 33624		StartofCareDate: 6/3/2013 12:00:00 AM		Created: 9/12/2013 3:28:08 PM		Modified: 9/12/2013 3:28:08 PM																				Comments: Episode Start Date:5/30/2013 ; Insurance: Medicare PGBA; Insurance Number: 592384936A; 		
FirstName: Delia		LastName: Collins		Gender: 		PatientIdNumber: A00551		MedicareNumber: 265262540D		PrimaryInsurance: 1		SSN: 261616720		DOB: 7/1/1916 12:00:00 AM		PhoneHome: 8133509040		AddressLine1: 2933 W Columbus Dr		AddressCity: Tampa		AddressStateCode: FL		AddressZipCode: 33607		StartofCareDate: 4/24/2013 12:00:00 AM		Created: 9/12/2013 3:28:08 PM		Modified: 9/12/2013 3:28:08 PM		Phys FN: CARLOS		Phys LN: FUMERO		Phys NPI: 1184710501		Phys Phone: 		Phys Fax: 				Comments: Episode Start Date:4/24/2013 ; Insurance: Medicare PGBA; Insurance Number: 265262540D; 		
FirstName: Lidia		LastName: Covenas		Gender: 		PatientIdNumber: A01168		MedicareNumber: 154925640B		PrimaryInsurance: 1		SSN: 154925640		DOB: 8/2/1934 12:00:00 AM		PhoneHome: 8134541999		AddressLine1: 4116 W. Barcelona St		AddressCity: Tampa		AddressStateCode: FL		AddressZipCode: 33614		StartofCareDate: 8/13/2013 12:00:00 AM		Created: 9/12/2013 3:28:08 PM		Modified: 9/12/2013 3:28:08 PM																				Comments: Episode Start Date:8/12/2013 ; Insurance: Medicare PGBA; Insurance Number: 154925640B; 		
FirstName: Carlos		LastName: Cruz			Gender: 		PatientIdNumber: A01135		MedicareNumber: 100284612A		PrimaryInsurance: 1		SSN: 100284612		DOB: 11/4/1935 12:00:00 AM		PhoneHome: 8137848187		AddressLine1: 3128 W Palmetto St		AddressCity: Tampa		AddressStateCode: FL		AddressZipCode: 33607		StartofCareDate: 6/13/2013 12:00:00 AM		Created: 9/12/2013 3:28:08 PM		Modified: 9/12/2013 3:28:08 PM																				Comments: Episode Start Date:6/12/2013 ; Insurance: Medicare PGBA; Insurance Number: 100284612A; 		
FirstName: Richard		LastName: Davis			Gender: 		PatientIdNumber: A00755							PrimaryInsurance: 		SSN: 386544821		DOB: 1/1/0001 12:00:00 AM		PhoneHome: 			AddressLine1: 12402  Spicer PL Apt A		AddressCity: Forest Hills	AddressStateCode: FL		AddressZipCode: 33612		StartofCareDate: 8/30/2013 12:00:00 AM		Created: 9/12/2013 3:28:08 PM		Modified: 9/12/2013 3:28:08 PM		Phys FN: COLLEEN	Phys LN: WARD		Phys NPI: 1831166842		Phys Phone: 		Phys Fax: 				Comments: Episode Start Date:8/29/2013 ; Insurance: VA Fee Basis; Insurance Number: 386544821; 		
FirstName: Elba			LastName: DeForest		Gender: 		PatientIdNumber: A00972		MedicareNumber: 261385379A		PrimaryInsurance: 1		SSN: 261385379		DOB: 7/4/1928 12:00:00 AM		PhoneHome: 8133509040		AddressLine1: 2933 West Columbus Drive		AddressCity: Tampa		AddressStateCode: FL		AddressZipCode: 33607		StartofCareDate: 9/2/2012 12:00:00 AM		Created: 9/12/2013 3:28:08 PM		Modified: 9/12/2013 3:28:08 PM		Phys FN: CARLOS		Phys LN: FUMERO		Phys NPI: 1184710501		Phys Phone: 		Phys Fax: 				Comments: Episode Start Date:8/31/2012 ; Insurance: Medicare PGBA; Insurance Number: 261385379A; 		
FirstName: Mireya		LastName: Deheredia		Gender: 		PatientIdNumber: A00298		MedicareNumber: 051422909D		PrimaryInsurance: 1		SSN: 121527827		DOB: 10/3/1927 12:00:00 AM		PhoneHome: 8133509040		AddressLine1: 2933 W Columbus Dr		AddressCity: Tampa		AddressStateCode: FL		AddressZipCode: 33607		StartofCareDate: 8/21/2013 12:00:00 AM		Created: 9/12/2013 3:28:08 PM		Modified: 9/12/2013 3:28:08 PM		Phys FN: CARLOS		Phys LN: FUMERO		Phys NPI: 1184710501		Phys Phone: 		Phys Fax: 				Comments: Episode Start Date:8/20/2013 ; Insurance: Medicare PGBA; Insurance Number: 051422909D; 		
FirstName: Noelia		LastName: Del Rio		Gender: 		PatientIdNumber: A00980		MedicareNumber: 263957220B		PrimaryInsurance: 1		SSN: 263959230		DOB: 11/23/1938 12:00:00 AM		PhoneHome: 8133509040		AddressLine1: 2933 West Columbus Drive		AddressCity: Tampa		AddressStateCode: FL		AddressZipCode: 33607		StartofCareDate: 9/14/2012 12:00:00 AM		Created: 9/12/2013 3:28:08 PM		Modified: 9/12/2013 3:28:08 PM		Phys FN: CARLOS		Phys LN: FUMERO		Phys NPI: 1184710501		Phys Phone: 		Phys Fax: 				Comments: Episode Start Date:9/14/2012 ; Insurance: Medicare PGBA; Insurance Number: 263957220B; 		
FirstName: Jose			LastName: Delrio		Gender: 		PatientIdNumber: A00994		MedicareNumber: 263957220A		PrimaryInsurance: 1		SSN: 263957220		DOB: 7/10/1932 12:00:00 AM		PhoneHome: 8133509040		AddressLine1: 2933 W Columbus Dr		AddressCity: Tampa		AddressStateCode: FL		AddressZipCode: 33607		StartofCareDate: 8/7/2013 12:00:00 AM		Created: 9/12/2013 3:28:08 PM		Modified: 9/12/2013 3:28:08 PM		Phys FN: CARLOS		Phys LN: FUMERO		Phys NPI: 1184710501		Phys Phone: 		Phys Fax: 				Comments: Episode Start Date:8/6/2013 ; Insurance: Medicare PGBA; Insurance Number: 263957220A; 		
FirstName: German		LastName: Diaz Melendez		Gender: 		PatientIdNumber: A01169		MedicareNumber: 580282258A		PrimaryInsurance: 1		SSN: 580282258		DOB: 5/29/1933 12:00:00 AM		PhoneHome: 8136012380		AddressLine1: 2933 W Columbus Dr		AddressCity: Tampa		AddressStateCode: FL		AddressZipCode: 33573		StartofCareDate: 8/14/2013 12:00:00 AM		Created: 9/12/2013 3:28:08 PM		Modified: 9/12/2013 3:28:08 PM		Phys FN: CARLOS		Phys LN: FUMERO		Phys NPI: 1184710501		Phys Phone: 		Phys Fax: 				Comments: Episode Start Date:8/13/2013 ; Insurance: Medicare PGBA; Insurance Number: 580282258A; 		
FirstName: Thelma		LastName: Doucette		Gender: 		PatientIdNumber: A01177		MedicareNumber: 015241001D		PrimaryInsurance: 1		SSN: 010241587		DOB: 4/11/1932 12:00:00 AM		PhoneHome: 8136012380		AddressLine1: 758 Cortaro Dr.			AddressCity: Ruskin		AddressStateCode: FL		AddressZipCode: 33573		StartofCareDate: 8/30/2013 12:00:00 AM		Created: 9/12/2013 3:28:08 PM		Modified: 9/12/2013 3:28:08 PM																				Comments: Episode Start Date:8/29/2013 ; Insurance: Medicare PGBA; Insurance Number: 015241001D; 		
FirstName: Jimmie		LastName: Dozier		Gender: 		PatientIdNumber: A01108		MedicareNumber: 424366994D2		PrimaryInsurance: 1		SSN: 264941672		DOB: 5/3/1944 12:00:00 AM		PhoneHome: 8135256910		AddressLine1: 3708 N. 24 th St Apt A		AddressCity: East Lake		AddressStateCode: FL		AddressZipCode: 33610		StartofCareDate: 8/19/2013 12:00:00 AM		Created: 9/12/2013 3:28:08 PM		Modified: 9/12/2013 3:28:08 PM																				Comments: Episode Start Date:8/16/2013 ; Insurance: Medicare PGBA; Insurance Number: 424366994D2; 		
FirstName: Leanor		LastName: Edilla		Gender: 		PatientIdNumber: A00590		MedicareNumber: 263302457A		PrimaryInsurance: 1		SSN: 263302457		DOB: 10/6/1928 12:00:00 AM		PhoneHome: 8133509040		AddressLine1: 2933 W Columbus Dr		AddressCity: Tampa		AddressStateCode: FL		AddressZipCode: 33607		StartofCareDate: 8/14/2013 12:00:00 AM		Created: 9/12/2013 3:28:08 PM		Modified: 9/12/2013 3:28:08 PM		Phys FN: CARLOS		Phys LN: FUMERO		Phys NPI: 1184710501		Phys Phone: 		Phys Fax: 				Comments: Episode Start Date:8/13/2013 ; Insurance: Medicare PGBA; Insurance Number: 263302457A; 		
FirstName: Maria		LastName: Esquilin		Gender: 		PatientIdNumber: A00287		MedicareNumber: 581072818D		PrimaryInsurance: 1		SSN: 101380316		DOB: 1/1/0001 12:00:00 AM		PhoneHome: 8133509040		AddressLine1: 2933 W Columbus Dr		AddressCity: Tampa		AddressStateCode: FL		AddressZipCode: 33607		StartofCareDate: 8/28/2013 12:00:00 AM		Created: 9/12/2013 3:28:08 PM		Modified: 9/12/2013 3:28:08 PM		Phys FN: CARLOS		Phys LN: FUMERO		Phys NPI: 1184710501		Phys Phone: 		Phys Fax: 				Comments: Episode Start Date:8/27/2013 ; Insurance: Medicare PGBA; Insurance Number: 581072818D; 		
FirstName: Zoa			LastName: Estevez		Gender: 		PatientIdNumber: A01075		MedicareNumber: 261207829D		PrimaryInsurance: 1		SSN: 266485715		DOB: 7/5/1931 12:00:00 AM		PhoneHome: 8133509040		AddressLine1: 2933 W. Columbus Dr.		AddressCity: Tampa		AddressStateCode: FL		AddressZipCode: 33607		StartofCareDate: 7/18/2013 12:00:00 AM		Created: 9/12/2013 3:28:08 PM		Modified: 9/12/2013 3:28:08 PM		Phys FN: CHRISTOPHER	Phys LN: EWANOWSKI	Phys NPI: 1780880476		Phys Phone: 		Phys Fax: 				Comments: Episode Start Date:7/17/2013 ; Insurance: Medicare PGBA; Insurance Number: 261207829D; 		
FirstName: Elizabeth		LastName: Faber			Gender: 		PatientIdNumber: A01073		MedicareNumber: 364668429A		PrimaryInsurance: 1		SSN: 364668429		DOB: 11/21/1956 12:00:00 AM		PhoneHome: 8133930146		AddressLine1: 5454 Fulmar Dr.			AddressCity: Tampa		AddressStateCode: FL		AddressZipCode: 33625		StartofCareDate: 4/2/2013 12:00:00 AM		Created: 9/12/2013 3:28:08 PM		Modified: 9/12/2013 3:28:08 PM																				Comments: Episode Start Date:4/2/2013 ; Insurance: Medicare PGBA; Insurance Number: 364668429A; 		
FirstName: Felix		LastName: Fernandez		Gender: 		PatientIdNumber: A00940		MedicareNumber: 410544435A		PrimaryInsurance: 1		SSN: 410544435		DOB: 8/4/1927 12:00:00 AM		PhoneHome: 			AddressLine1: 2933 West Columbus Drive		AddressCity: Tampa		AddressStateCode: FL		AddressZipCode: 33607		StartofCareDate: 3/6/2013 12:00:00 AM		Created: 9/12/2013 3:28:08 PM		Modified: 9/12/2013 3:28:08 PM		Phys FN: CARLOS		Phys LN: FUMERO		Phys NPI: 1184710501		Phys Phone: 		Phys Fax: 				Comments: Episode Start Date:3/5/2013 ; Insurance: Medicare PGBA; Insurance Number: 410544435A; 		
FirstName: Josephine		LastName: Gonzalez		Gender: 		PatientIdNumber: A00062		MedicareNumber: 267101057A		PrimaryInsurance: 1		SSN: 267101057		DOB: 2/19/1920 12:00:00 AM		PhoneHome: 8132549088		AddressLine1: 2401 Bayshore Blvd		AddressCity: Tampa		AddressStateCode: FL		AddressZipCode: 33629		StartofCareDate: 5/30/2013 12:00:00 AM		Created: 9/12/2013 3:28:08 PM		Modified: 9/12/2013 3:28:08 PM																				Comments: Episode Start Date:5/29/2013 ; Insurance: Medicare PGBA; Insurance Number: 267101057A; 		
FirstName: Justa		LastName: Gonzalez		Gender: 		PatientIdNumber: A00046		MedicareNumber: 035509728M		PrimaryInsurance: 1		SSN: 035509728		DOB: 2/3/1921 12:00:00 AM		PhoneHome: 8132215018		AddressLine1: 11345 Hollyglen Drive		AddressCity: Tampa		AddressStateCode: FL		AddressZipCode: 33624		StartofCareDate: 9/23/2010 12:00:00 AM		Created: 9/12/2013 3:28:08 PM		Modified: 9/12/2013 3:28:08 PM																				Comments: Episode Start Date:9/22/2010 ; Insurance: Medicare PGBA; Insurance Number: 035509728M; 		
FirstName: Mary			LastName: Gonzalez		Gender: 		PatientIdNumber: A00004		MedicareNumber: 075226281A		PrimaryInsurance: 1		SSN: 075226281		DOB: 8/25/1928 12:00:00 AM		PhoneHome: 8133509040		AddressLine1: 2933 W Columbus Drive		AddressCity: Tampa		AddressStateCode: FL		AddressZipCode: 33607		StartofCareDate: 7/4/2013 12:00:00 AM		Created: 9/12/2013 3:28:08 PM		Modified: 9/12/2013 3:28:08 PM		Phys FN: CARLOS		Phys LN: FUMERO		Phys NPI: 1184710501		Phys Phone: 		Phys Fax: 				Comments: Episode Start Date:7/3/2013 ; Insurance: Medicare PGBA; Insurance Number: 075226281A; 		
FirstName: Frederick		LastName: Gorman		Gender: 		PatientIdNumber: A00826							PrimaryInsurance: 		SSN: 142148171		DOB: 1/21/1923 12:00:00 AM		PhoneHome: 8136338851		AddressLine1: 1014 Norfork Island Ct		AddressCity: Sun City Center	AddressStateCode: FL		AddressZipCode: 33573		StartofCareDate: 8/27/2013 12:00:00 AM		Created: 9/12/2013 3:28:08 PM		Modified: 9/12/2013 3:28:08 PM		Phys FN: CLAUDIA	Phys LN: BALDUCCI	Phys NPI: 1063432540		Phys Phone: 		Phys Fax: 				Comments: Episode Start Date:8/27/2013 ; Insurance: VA Fee Basis; Insurance Number: 142-14-8171; 		
FirstName: Zita			LastName: Govantes		Gender: 		PatientIdNumber: A00741		MedicareNumber: 066341433A		PrimaryInsurance: 1		SSN: 066341433		DOB: 4/27/1927 12:00:00 AM		PhoneHome: 8133509040		AddressLine1: 2933 W Columbus Dr		AddressCity: Tampa		AddressStateCode: FL		AddressZipCode: 33607		StartofCareDate: 8/15/2013 12:00:00 AM		Created: 9/12/2013 3:28:08 PM		Modified: 9/12/2013 3:28:08 PM		Phys FN: CARLOS		Phys LN: FUMERO		Phys NPI: 1184710501		Phys Phone: 		Phys Fax: 				Comments: Episode Start Date:8/13/2013 ; Insurance: Medicare PGBA; Insurance Number: 066341433A; 		
FirstName: Robert		LastName: Gramprie		Gender: 		PatientIdNumber: A01110							PrimaryInsurance: 		SSN: 359184087		DOB: 1/1/0001 12:00:00 AM		PhoneHome: 			AddressLine1: 1211 South Gunby Ave		AddressCity: Tampa		AddressStateCode: FL		AddressZipCode: 33606		StartofCareDate: 7/23/2013 12:00:00 AM		Created: 9/12/2013 3:28:08 PM		Modified: 9/12/2013 3:28:08 PM		Phys FN: DAVID		Phys LN: WHITAKER	Phys NPI: 1053590075		Phys Phone: 		Phys Fax: 				Comments: Episode Start Date:7/19/2013 ; Insurance: VA Fee Basis; Insurance Number: 359184087; 		
FirstName: Larry		LastName: Grauel		Gender: 		PatientIdNumber: A01151		MedicareNumber: 303448190A		PrimaryInsurance: 1		SSN: 303448190		DOB: 12/11/1942 12:00:00 AM		PhoneHome: 8136532775		AddressLine1: 9804 LaVonda St			AddressCity: Riverview		AddressStateCode: FL		AddressZipCode: 33569		StartofCareDate: 7/17/2013 12:00:00 AM		Created: 9/12/2013 3:28:08 PM		Modified: 9/12/2013 3:28:08 PM		Phys FN: BHAVIK		Phys LN: GEDIA		Phys NPI: 1871887406		Phys Phone: 		Phys Fax: 				Comments: Episode Start Date:7/15/2013 ; Insurance: Medicare PGBA; Insurance Number: 303448190A; 		
FirstName: Eloisa		LastName: Hasselo		Gender: 		PatientIdNumber: A01002							PrimaryInsurance: 		SSN: 267389567		DOB: 3/1/1922 12:00:00 AM		PhoneHome: 8132524781		AddressLine1: 8841 E. Auburn way		AddressCity: Tampa		AddressStateCode: FL		AddressZipCode: 33615		StartofCareDate: 7/3/2013 12:00:00 AM		Created: 9/12/2013 3:28:08 PM		Modified: 9/12/2013 3:28:08 PM																				Comments: Insurance: No Active POC; 		
FirstName: Raymond		LastName: Jackson		Gender: 		PatientIdNumber: A01158		MedicareNumber: 264666329A		PrimaryInsurance: 1		SSN: 264666329		DOB: 2/21/1945 12:00:00 AM		PhoneHome: 8132376230		AddressLine1: 3015 East Emma St			AddressCity: Tampa		AddressStateCode: FL		AddressZipCode: 33610		StartofCareDate: 8/1/2013 12:00:00 AM		Created: 9/12/2013 3:28:08 PM		Modified: 9/12/2013 3:28:08 PM																				Comments: Episode Start Date:7/30/2013 ; Insurance: Medicare PGBA; Insurance Number: 264666329A; 		
FirstName: Jessie		LastName: Jolliff		Gender: 		PatientIdNumber: A01173		MedicareNumber: 262093176A		PrimaryInsurance: 1		SSN: 262093176		DOB: 11/4/1917 12:00:00 AM		PhoneHome: 8138757205		AddressLine1: 2946 W Columbus Dr.		AddressCity: Tampa		AddressStateCode: FL		AddressZipCode: 33607		StartofCareDate: 8/22/2013 12:00:00 AM		Created: 9/12/2013 3:28:08 PM		Modified: 9/12/2013 3:28:08 PM																				Comments: Episode Start Date:8/21/2013 ; Insurance: Medicare PGBA; Insurance Number: 262093176A; 		
FirstName: Donald		LastName: Kerr			Gender: 		PatientIdNumber: A01118							PrimaryInsurance: 		SSN: 353144650		DOB: 4/11/1926 12:00:00 AM		PhoneHome: 8136341058		AddressLine1: 2203 Canterbury Ln		AddressCity: Sun City Center	AddressStateCode: FL		AddressZipCode: 33573		StartofCareDate: 7/10/2013 12:00:00 AM		Created: 9/12/2013 3:28:08 PM		Modified: 9/12/2013 3:28:08 PM																				Comments: Insurance: No Active POC; 		
FirstName: William		LastName: Kirby			Gender: 		PatientIdNumber: A00814							PrimaryInsurance: 		SSN: 264649752		DOB: 1/1/0001 12:00:00 AM		PhoneHome: 			AddressLine1: 10307 Casa Palarmo Dr		AddressCity: Riverview		AddressStateCode: FL		AddressZipCode: 33578		StartofCareDate: 9/10/2013 12:00:00 AM		Created: 9/12/2013 3:28:08 PM		Modified: 9/12/2013 3:28:08 PM																				Comments: Episode Start Date:9/9/2013 ; Insurance: VA Fee Basis; Insurance Number: 264649752; 		
FirstName: Margaret		LastName: Lemus			Gender: 		PatientIdNumber: A00314							PrimaryInsurance: 		SSN: 267104276		DOB: 12/5/1919 12:00:00 AM		PhoneHome: 8132524781		AddressLine1: 8841 E. Auburn way		AddressCity: Tampa		AddressStateCode: FL		AddressZipCode: 33615		StartofCareDate: 7/3/2013 12:00:00 AM		Created: 9/12/2013 3:28:08 PM		Modified: 9/12/2013 3:28:08 PM																				Comments: Insurance: No Active POC; 		
FirstName: Indalecio		LastName: Linares		Gender: 		PatientIdNumber: A00922		MedicareNumber: 265261017A		PrimaryInsurance: 1		SSN: 265261017		DOB: 9/21/1921 12:00:00 AM		PhoneHome: 8138753300		AddressLine1: 3202 St. John			AddressCity: Tampa		AddressStateCode: FL		AddressZipCode: 33607		StartofCareDate: 8/7/2013 12:00:00 AM		Created: 9/12/2013 3:28:08 PM		Modified: 9/12/2013 3:28:08 PM																				Comments: Episode Start Date:8/6/2013 ; Insurance: Medicare PGBA; Insurance Number: 265261017A; 		
FirstName: Pedro		LastName: Lopez			Gender: 		PatientIdNumber: A01064		MedicareNumber: 584566877A		PrimaryInsurance: 1		SSN: 584566877		DOB: 8/1/1925 12:00:00 AM		PhoneHome: 8138703184		AddressLine1: 3412 W Braddock St		AddressCity: Tampa		AddressStateCode: FL		AddressZipCode: 33607		StartofCareDate: 7/18/2013 12:00:00 AM		Created: 9/12/2013 3:28:08 PM		Modified: 9/12/2013 3:28:08 PM																				Comments: Episode Start Date:7/16/2013 ; Insurance: Medicare PGBA; Insurance Number: 584566877A; 		
FirstName: Norman		LastName: Maddux		Gender: 		PatientIdNumber: A01178		MedicareNumber: 464034431A		PrimaryInsurance: 1		SSN: 464034431		DOB: 1/1/0001 12:00:00 AM		PhoneHome: 			AddressLine1: 10750 Fern Hill Dr.		AddressCity: Riverview		AddressStateCode: FL		AddressZipCode: 33578		StartofCareDate: 9/5/2013 12:00:00 AM		Created: 9/12/2013 3:28:08 PM		Modified: 9/12/2013 3:28:08 PM																				Comments: Episode Start Date:9/4/2013 ; Insurance: Medicare PGBA; Insurance Number: 464034431A; 		
FirstName: Dora			LastName: Marchese		Gender: 		PatientIdNumber: A00893		MedicareNumber: 265408043D		PrimaryInsurance: 1		SSN: 265408043		DOB: 10/1/1931 12:00:00 AM		PhoneHome: 8133509040		AddressLine1: 2933 W Columbus Dr		AddressCity: Tampa		AddressStateCode: FL		AddressZipCode: 33607		StartofCareDate: 4/6/2012 12:00:00 AM		Created: 9/12/2013 3:28:08 PM		Modified: 9/12/2013 3:28:08 PM		Phys FN: CARLOS		Phys LN: FUMERO		Phys NPI: 1184710501		Phys Phone: 		Phys Fax: 				Comments: Episode Start Date:4/6/2012 ; Insurance: Medicare PGBA; Insurance Number: 265408043D; 		
FirstName: Miguel		LastName: Mari			Gender: 		PatientIdNumber: A00774		MedicareNumber: 591275059A		PrimaryInsurance: 1		SSN: 591275059		DOB: 5/8/1951 12:00:00 AM		PhoneHome: 8133509040		AddressLine1: 2933 W Columbus Dr		AddressCity: Tampa		AddressStateCode: FL		AddressZipCode: 33607		StartofCareDate: 8/23/2013 12:00:00 AM		Created: 9/12/2013 3:28:08 PM		Modified: 9/12/2013 3:28:08 PM		Phys FN: CARLOS		Phys LN: FUMERO		Phys NPI: 1184710501		Phys Phone: 		Phys Fax: 				Comments: Episode Start Date:8/22/2013 ; Insurance: Medicare PGBA; Insurance Number: 591275059A; 		
FirstName: Gloria		LastName: Marticorena		Gender: 		PatientIdNumber: A00107		MedicareNumber: 148505458A		PrimaryInsurance: 1		SSN: 148505458		DOB: 9/26/1935 12:00:00 AM		PhoneHome: 8138776122		AddressLine1: 210 N Excelda Ave			AddressCity: Tampa		AddressStateCode: FL		AddressZipCode: 33609		StartofCareDate: 6/27/2013 12:00:00 AM		Created: 9/12/2013 3:28:08 PM		Modified: 9/12/2013 3:28:08 PM																				Comments: Episode Start Date:6/26/2013 ; Insurance: Medicare PGBA; Insurance Number: 148505458A; 		
FirstName: Miguel		LastName: Martinez		Gender: 		PatientIdNumber: A00014		MedicareNumber: 130183777A		PrimaryInsurance: 1		SSN: 130183777		DOB: 5/8/1926 12:00:00 AM		PhoneHome: 8133509040		AddressLine1: 2933 W Columbus Drive		AddressCity: Tampa		AddressStateCode: FL		AddressZipCode: 33607		StartofCareDate: 6/28/2013 12:00:00 AM		Created: 9/12/2013 3:28:08 PM		Modified: 9/12/2013 3:28:08 PM																				Comments: Episode Start Date:6/28/2013 ; Insurance: Medicare PGBA; Insurance Number: 130183777A; 		
FirstName: Ramona		LastName: Martinez		Gender: 		PatientIdNumber: A00309		MedicareNumber: 115019329A		PrimaryInsurance: 1		SSN: 115019329		DOB: 6/7/1918 12:00:00 AM		PhoneHome: 8133509040		AddressLine1: 2933 W Columbus Dr		AddressCity: Tampa		AddressStateCode: FL		AddressZipCode: 33607		StartofCareDate: 6/19/2013 12:00:00 AM		Created: 9/12/2013 3:28:08 PM		Modified: 9/12/2013 3:28:08 PM		Phys FN: CARLOS		Phys LN: FUMERO		Phys NPI: 1184710501		Phys Phone: 		Phys Fax: 				Comments: Episode Start Date:6/18/2013 ; Insurance: Medicare PGBA; Insurance Number: 115019329A; 		
FirstName: Eleanor		LastName: Mcbride		Gender: 		PatientIdNumber: A01117		MedicareNumber: 324307552A		PrimaryInsurance: 1		SSN: 324307552		DOB: 12/9/1937 12:00:00 AM		PhoneHome: 8136337777		AddressLine1: 970 Cypress Village BLVD		AddressCity: Ruskin		AddressStateCode: FL		AddressZipCode: 33573		StartofCareDate: 8/16/2013 12:00:00 AM		Created: 9/12/2013 3:28:08 PM		Modified: 9/12/2013 3:28:08 PM																				Comments: Episode Start Date:8/12/2013 ; Insurance: Medicare PGBA; Insurance Number: 324307552A; 		
FirstName: Bonnie		LastName: Mehling		Gender: 		PatientIdNumber: A00884		MedicareNumber: 267462199A		PrimaryInsurance: 1		SSN: 267462199		DOB: 2/17/1934 12:00:00 AM		PhoneHome: 8134432686		AddressLine1: 703 East Skagway Avenue		AddressCity: Tampa		AddressStateCode: FL		AddressZipCode: 33604		StartofCareDate: 8/19/2013 12:00:00 AM		Created: 9/12/2013 3:28:08 PM		Modified: 9/12/2013 3:28:08 PM																				Comments: Episode Start Date:8/14/2013 ; Insurance: Medicare PGBA; Insurance Number: 267462199A; 		
FirstName: Lucrecia		LastName: Melendez Vaz		Gender: 		PatientIdNumber: A00907		MedicareNumber: 580725768A		PrimaryInsurance: 1		SSN: 580725768		DOB: 5/15/1922 12:00:00 AM		PhoneHome: 8133509040		AddressLine1: 2933 West Columbus Drive		AddressCity: Tampa		AddressStateCode: FL		AddressZipCode: 33607		StartofCareDate: 4/30/2012 12:00:00 AM		Created: 9/12/2013 3:28:08 PM		Modified: 9/12/2013 3:28:08 PM		Phys FN: CARLOS		Phys LN: FUMERO		Phys NPI: 1184710501		Phys Phone: 		Phys Fax: 				Comments: Episode Start Date:4/27/2012 ; Insurance: Medicare PGBA; Insurance Number: 580725768A; 		
FirstName: Flora		LastName: Miranda		Gender: 		PatientIdNumber: A01174		MedicareNumber: 267569060A		PrimaryInsurance: 1		SSN: 267569060		DOB: 11/24/1925 12:00:00 AM		PhoneHome: 8138764766		AddressLine1: 4125 N Lincoln Ave		AddressCity: Tampa		AddressStateCode: FL		AddressZipCode: 33607		StartofCareDate: 8/26/2013 12:00:00 AM		Created: 9/12/2013 3:28:08 PM		Modified: 9/12/2013 3:28:08 PM		Phys FN: CARLOS		Phys LN: FUMERO		Phys NPI: 1184710501		Phys Phone: 		Phys Fax: 				Comments: Episode Start Date:8/23/2013 ; Insurance: Medicare PGBA; Insurance Number: 267569060A; 		
FirstName: Maria		LastName: Molina		Gender: 		PatientIdNumber: A00048		MedicareNumber: 267974752D		PrimaryInsurance: 1		SSN: 267974765		DOB: 5/9/1926 12:00:00 AM		PhoneHome: 8133509040		AddressLine1: 2933 W Columbus Dr		AddressCity: Tampa		AddressStateCode: FL		AddressZipCode: 33607		StartofCareDate: 8/8/2013 12:00:00 AM		Created: 9/12/2013 3:28:08 PM		Modified: 9/12/2013 3:28:08 PM		Phys FN: CARLOS		Phys LN: FUMERO		Phys NPI: 1184710501		Phys Phone: 		Phys Fax: 				Comments: Episode Start Date:8/6/2013 ; Insurance: Medicare PGBA; Insurance Number: 267974752D; 		
FirstName: Pablo		LastName: Molina		Gender: 		PatientIdNumber: A01126		MedicareNumber: 067283764A		PrimaryInsurance: 1		SSN: 067283764		DOB: 9/6/1926 12:00:00 AM		PhoneHome: 8133509040		AddressLine1: 2933 W Columbus Dr		AddressCity: Tampa		AddressStateCode: FL		AddressZipCode: 33607		StartofCareDate: 6/12/2013 12:00:00 AM		Created: 9/12/2013 3:28:08 PM		Modified: 9/12/2013 3:28:08 PM		Phys FN: CARLOS		Phys LN: FUMERO		Phys NPI: 1184710501		Phys Phone: 		Phys Fax: 				Comments: Episode Start Date:6/11/2013 ; Insurance: Medicare PGBA; Insurance Number: 067283764A; 		
FirstName: Johnny		LastName: Moore			Gender: 		PatientIdNumber: A00514		MedicareNumber: 266689147D		PrimaryInsurance: 1		SSN: 266689147		DOB: 11/15/1942 12:00:00 AM		PhoneHome: 8139362273		AddressLine1: 2607 W Humphrey St		AddressCity: Tampa		AddressStateCode: FL		AddressZipCode: 33614		StartofCareDate: 3/26/2012 12:00:00 AM		Created: 9/12/2013 3:28:08 PM		Modified: 9/12/2013 3:28:08 PM																				Comments: Episode Start Date:3/22/2012 ; Insurance: Medicare PGBA; Insurance Number: 266689147D; 		
FirstName: Antonio		LastName: Oliva			Gender: 		PatientIdNumber: A00692		MedicareNumber: 589996040A		PrimaryInsurance: 1		SSN: 589996040		DOB: 7/15/1928 12:00:00 AM		PhoneHome: 8134100910		AddressLine1: 4125 N Lincoln Ave		AddressCity: Tampa		AddressStateCode: FL		AddressZipCode: 33607		StartofCareDate: 3/1/2013 12:00:00 AM		Created: 9/12/2013 3:28:08 PM		Modified: 9/12/2013 3:28:08 PM																				Comments: Episode Start Date:3/1/2013 ; Insurance: Medicare PGBA; Insurance Number: 589996040A; 		
FirstName: Sam			LastName: Palermo		Gender: 		PatientIdNumber: A01176							PrimaryInsurance: 		SSN: 109200389		DOB: 5/29/1926 12:00:00 AM		PhoneHome: 8139282968		AddressLine1: 3619  30th st SE			AddressCity: Apollo Beach	AddressStateCode: FL		AddressZipCode: 33570		StartofCareDate: 8/29/2013 12:00:00 AM		Created: 9/12/2013 3:28:08 PM		Modified: 9/12/2013 3:28:08 PM		Phys FN: SHIRLY		Phys LN: MOONJELI	Phys NPI: 1992707244		Phys Phone: 		Phys Fax: 				Comments: Episode Start Date:8/28/2013 ; Insurance: VA Fee Basis; Insurance Number: 109200389; 		
FirstName: E			LastName: Perez			Gender: 		PatientIdNumber: A00522		MedicareNumber: 264747951A		PrimaryInsurance: 1		SSN: 264747951		DOB: 10/13/1925 12:00:00 AM		PhoneHome: 8133509040		AddressLine1: 2933 W Columbus Dr		AddressCity: Tampa		AddressStateCode: FL		AddressZipCode: 33607		StartofCareDate: 8/14/2013 12:00:00 AM		Created: 9/12/2013 3:28:08 PM		Modified: 9/12/2013 3:28:08 PM		Phys FN: CARLOS		Phys LN: FUMERO		Phys NPI: 1184710501		Phys Phone: 		Phys Fax: 				Comments: Episode Start Date:8/13/2013 ; Insurance: Medicare PGBA; Insurance Number: 264747951A; 		
FirstName: Alice		LastName: Pinkham		Gender: 		PatientIdNumber: A01132							PrimaryInsurance: 		SSN: 019163941		DOB: 12/21/1922 12:00:00 AM		PhoneHome: 8139362273		AddressLine1: 2607 W Humphrey St		AddressCity: Tampa		AddressStateCode: FL		AddressZipCode: 33614		StartofCareDate: 8/27/2013 12:00:00 AM		Created: 9/12/2013 3:28:08 PM		Modified: 9/12/2013 3:28:08 PM																				Comments: Episode Start Date:8/27/2013 ; Insurance: United HealthCare; Insurance Number: 874003306; 		
FirstName: Maria		LastName: Porro			Gender: 		PatientIdNumber: A00019		MedicareNumber: 595056718M		PrimaryInsurance: 1		SSN: 595056718		DOB: 3/28/1921 12:00:00 AM		PhoneHome: 8133509040		AddressLine1: 2933 W Columbus Drive		AddressCity: Tampa		AddressStateCode: FL		AddressZipCode: 33607		StartofCareDate: 7/19/2010 12:00:00 AM		Created: 9/12/2013 3:28:08 PM		Modified: 9/12/2013 3:28:08 PM																				Comments: Episode Start Date:7/19/2010 ; Insurance: Medicare PGBA; Insurance Number: 595056718M; 		
FirstName: Cynthia		LastName: Rodriguez		Gender: 		PatientIdNumber: A01088		MedicareNumber: 267866693A		PrimaryInsurance: 1		SSN: 267866693		DOB: 11/25/1946 12:00:00 AM		PhoneHome: 8133509040		AddressLine1: 2933 W. Columbus Dr.		AddressCity: Tampa		AddressStateCode: FL		AddressZipCode: 33607		StartofCareDate: 7/1/2013 12:00:00 AM		Created: 9/12/2013 3:28:08 PM		Modified: 9/12/2013 3:28:08 PM		Phys FN: CARLOS		Phys LN: FUMERO		Phys NPI: 1184710501		Phys Phone: 		Phys Fax: 				Comments: Episode Start Date:7/1/2013 ; Insurance: Medicare PGBA; Insurance Number: 267866693A; 		
FirstName: Felipe		LastName: Rodriguez		Gender: 		PatientIdNumber: A00187		MedicareNumber: 265934414M		PrimaryInsurance: 1		SSN: 265934414		DOB: 1/1/0001 12:00:00 AM		PhoneHome: 8134100910		AddressLine1: 2130 W Perio Street		AddressCity: Tampa		AddressStateCode: FL		AddressZipCode: 33607		StartofCareDate: 9/3/2013 12:00:00 AM		Created: 9/12/2013 3:28:08 PM		Modified: 9/12/2013 3:28:08 PM																				Comments: Episode Start Date:9/3/2013 ; Insurance: Medicare PGBA; Insurance Number: 265934414M; 		
FirstName: Alfida		LastName: Rosario		Gender: 		PatientIdNumber: A00336		MedicareNumber: 122400095A		PrimaryInsurance: 1		SSN: 122400095		DOB: 1/1/0001 12:00:00 AM		PhoneHome: 			AddressLine1: 14515 Wessex St			AddressCity: Tampa		AddressStateCode: FL		AddressZipCode: 33625		StartofCareDate: 9/11/2013 12:00:00 AM		Created: 9/12/2013 3:28:08 PM		Modified: 9/12/2013 3:28:08 PM																				Comments: Episode Start Date:9/6/2013 ; Insurance: Medicare PGBA; Insurance Number: 122400095A; 		
FirstName: Benedicta		LastName: Rosario		Gender: 		PatientIdNumber: A00074		MedicareNumber: 582787001A		PrimaryInsurance: 1		SSN: 582787001		DOB: 4/27/1921 12:00:00 AM		PhoneHome: 8133835295		AddressLine1: 2907 W Woodlawn Ave		AddressCity: Tampa		AddressStateCode: FL		AddressZipCode: 33607		StartofCareDate: 1/30/2009 12:00:00 AM		Created: 9/12/2013 3:28:08 PM		Modified: 9/12/2013 3:28:08 PM																				Comments: Episode Start Date:1/30/2009 ; Insurance: Medicare PGBA; Insurance Number: 582787001A; 		
FirstName: Sergio		LastName: Roy			Gender: 		PatientIdNumber: A01180		MedicareNumber: 261348938A		PrimaryInsurance: 1		SSN: 261348938		DOB: 1/1/0001 12:00:00 AM		PhoneHome: 			AddressLine1: 1615 Hacienda Ct 117 A		AddressCity: Tampa		AddressStateCode: FL		AddressZipCode: 33605		StartofCareDate: 9/5/2013 12:00:00 AM		Created: 9/12/2013 3:28:08 PM		Modified: 9/12/2013 3:28:08 PM																				Comments: Episode Start Date:9/5/2013 ; Insurance: Medicare PGBA; Insurance Number: 261348938A; 		
FirstName: Michael		LastName: Santasieri		Gender: 		PatientIdNumber: A01155		MedicareNumber: 081206864A		PrimaryInsurance: 1		SSN: 081206864		DOB: 8/23/1928 12:00:00 AM		PhoneHome: 8139385441		AddressLine1: 1419 Langley Dr			AddressCity: Sun City Center	AddressStateCode: FL		AddressZipCode: 33573		StartofCareDate: 8/1/2013 12:00:00 AM		Created: 9/12/2013 3:28:08 PM		Modified: 9/12/2013 3:28:08 PM																				Comments: Episode Start Date:7/29/2013 ; Insurance: Medicare PGBA; Insurance Number: 081206864A; 		
FirstName: Candida		LastName: Sardinas		Gender: 		PatientIdNumber: A00950		MedicareNumber: 581880816D		PrimaryInsurance: 1		SSN: 581905669		DOB: 10/19/1924 12:00:00 AM		PhoneHome: 8133509040		AddressLine1: 2933 W columbus Dr		AddressCity: Tampa		AddressStateCode: FL		AddressZipCode: 33607		StartofCareDate: 7/24/2013 12:00:00 AM		Created: 9/12/2013 3:28:08 PM		Modified: 9/12/2013 3:28:08 PM		Phys FN: CARLOS		Phys LN: FUMERO		Phys NPI: 1184710501		Phys Phone: 		Phys Fax: 				Comments: Episode Start Date:7/23/2013 ; Insurance: Medicare PGBA; Insurance Number: 581880816D; 		
FirstName: William		LastName: Streeter		Gender: 		PatientIdNumber: A01160		MedicareNumber: 127163403A		PrimaryInsurance: 1		SSN: 127163403		DOB: 5/5/1926 12:00:00 AM		PhoneHome: 8139863381		AddressLine1: 6901 Five Acre Rd			AddressCity: Plant City		AddressStateCode: FL		AddressZipCode: 33565		StartofCareDate: 8/2/2013 12:00:00 AM		Created: 9/12/2013 3:28:08 PM		Modified: 9/12/2013 3:28:08 PM		Phys FN: DANIEL		Phys LN: POETTER	Phys NPI: 1366637647		Phys Phone: 		Phys Fax: 				Comments: Episode Start Date:8/1/2013 ; Insurance: Medicare PGBA; Insurance Number: 127163403A; 		
FirstName: Alejandrin		LastName: Tamayo		Gender: 		PatientIdNumber: A00319		MedicareNumber: 153847273A		PrimaryInsurance: 1		SSN: 153847273		DOB: 1/1/0001 12:00:00 AM		PhoneHome: 			AddressLine1: 216 N Habana Ave 1508		AddressCity: Tampa		AddressStateCode: FL		AddressZipCode: 33609		StartofCareDate: 9/5/2013 12:00:00 AM		Created: 9/12/2013 3:28:08 PM		Modified: 9/12/2013 3:28:08 PM																				Comments: Episode Start Date:9/3/2013 ; Insurance: Medicare PGBA; Insurance Number: 153847273A; 		
FirstName: Sixta		LastName: Tapanes		Gender: 		PatientIdNumber: A00295		MedicareNumber: 263293551D		PrimaryInsurance: 1		SSN: 267333319		DOB: 3/28/1919 12:00:00 AM		PhoneHome: 8139362273		AddressLine1: 2607 W Humphrey St.		AddressCity: Tampa		AddressStateCode: FL		AddressZipCode: 33614		StartofCareDate: 1/15/2013 12:00:00 AM		Created: 9/12/2013 3:28:08 PM		Modified: 9/12/2013 3:28:08 PM																				Comments: Episode Start Date:1/15/2013 ; Insurance: Medicare PGBA; Insurance Number: 263293551D; 		
FirstName: Luisa		LastName: Tarazona		Gender: 		PatientIdNumber: A00374		MedicareNumber: 593116624M		PrimaryInsurance: 1		SSN: 593116624		DOB: 1/1/0001 12:00:00 AM		PhoneHome: 			AddressLine1: 2946 W Columbus Dr		AddressCity: Tampa		AddressStateCode: FL		AddressZipCode: 33607		StartofCareDate: 9/3/2013 12:00:00 AM		Created: 9/12/2013 3:28:08 PM		Modified: 9/12/2013 3:28:08 PM																				Comments: Episode Start Date:8/29/2013 ; Insurance: Medicare PGBA; Insurance Number: 593116624M; 		
FirstName: Henrietta		LastName: Templeman		Gender: 		PatientIdNumber: A00613		MedicareNumber: 266180710A		PrimaryInsurance: 1		SSN: 266180710		DOB: 7/2/1919 12:00:00 AM		PhoneHome: 8139362273		AddressLine1: 2607 W Humphrey St		AddressCity: Tampa		AddressStateCode: FL		AddressZipCode: 33614		StartofCareDate: 10/5/2012 12:00:00 AM		Created: 9/12/2013 3:28:08 PM		Modified: 9/12/2013 3:28:08 PM																				Comments: Episode Start Date:10/5/2012 ; Insurance: Medicare PGBA; Insurance Number: 266180710A; 		
FirstName: Francisco		LastName: Torres		Gender: 		PatientIdNumber: A00834		MedicareNumber: 124308405A		PrimaryInsurance: 1		SSN: 124308405		DOB: 8/25/1940 12:00:00 AM		PhoneHome: 8133509040		AddressLine1: 2933 W Columbus Dr		AddressCity: Tampa		AddressStateCode: FL		AddressZipCode: 33607		StartofCareDate: 8/7/2013 12:00:00 AM		Created: 9/12/2013 3:28:08 PM		Modified: 9/12/2013 3:28:08 PM		Phys FN: CARLOS		Phys LN: FUMERO		Phys NPI: 1184710501		Phys Phone: 		Phys Fax: 				Comments: Episode Start Date:8/6/2013 ; Insurance: Medicare PGBA; Insurance Number: 124308405A; 		
FirstName: Herminia		LastName: Torres		Gender: 		PatientIdNumber: A01172							PrimaryInsurance: 		SSN: 580484813		DOB: 11/11/1930 12:00:00 AM		PhoneHome: 8454176604		AddressLine1: 1912 White Cedar Way		AddressCity: Brandon		AddressStateCode: FL		AddressZipCode: 33511		StartofCareDate: 8/22/2013 12:00:00 AM		Created: 9/12/2013 3:28:08 PM		Modified: 9/12/2013 3:28:08 PM																				Comments: Episode Start Date:8/20/2013 ; Insurance: United HealthCare; Insurance Number: 831015387; 		
FirstName: Nelly		LastName: Torres Ortiz		Gender: 		PatientIdNumber: A00823		MedicareNumber: 063305879D		PrimaryInsurance: 1		SSN: 584072960		DOB: 12/31/1944 12:00:00 AM		PhoneHome: 8133509040		AddressLine1: 2933 W Columbus Dr		AddressCity: Tampa		AddressStateCode: FL		AddressZipCode: 33607		StartofCareDate: 3/29/2012 12:00:00 AM		Created: 9/12/2013 3:28:08 PM		Modified: 9/12/2013 3:28:08 PM		Phys FN: CARLOS		Phys LN: FUMERO		Phys NPI: 1184710501		Phys Phone: 		Phys Fax: 				Comments: Episode Start Date:6/29/2012 ; Insurance: Medicare PGBA; Insurance Number: 063305879D; 		
FirstName: Aida			LastName: Velo			Gender: 		PatientIdNumber: A00703		MedicareNumber: 265407933A		PrimaryInsurance: 1		SSN: 265407933		DOB: 5/21/1930 12:00:00 AM		PhoneHome: 8133509040		AddressLine1: 2933 W Columbus Dr		AddressCity: Tampa		AddressStateCode: FL		AddressZipCode: 33607		StartofCareDate: 8/25/2011 12:00:00 AM		Created: 9/12/2013 3:28:08 PM		Modified: 9/12/2013 3:28:08 PM		Phys FN: CARLOS		Phys LN: FUMERO		Phys NPI: 1184710501		Phys Phone: 		Phys Fax: 				Comments: Episode Start Date:8/25/2011 ; Insurance: Medicare PGBA; Insurance Number: 265407933A; 		
FirstName: Virginia		LastName: Wannop		Gender: 		PatientIdNumber: A01170		MedicareNumber: 264649997A		PrimaryInsurance: 1		SSN: 264649997		DOB: 12/19/1940 12:00:00 AM		PhoneHome: 8137528161		AddressLine1: 1102 N Alexander St, Apt 303	AddressCity: Plant City		AddressStateCode: FL		AddressZipCode: 33563		StartofCareDate: 8/15/2013 12:00:00 AM		Created: 9/12/2013 3:28:08 PM		Modified: 9/12/2013 3:28:08 PM																				Comments: Episode Start Date:8/13/2013 ; Insurance: Medicare PGBA; Insurance Number: 264649997A; 		
FirstName: Wendi		LastName: Ward			Gender: 		PatientIdNumber: A01165							PrimaryInsurance: 		SSN: 074584265		DOB: 3/16/1966 12:00:00 AM		PhoneHome: 8134093270		AddressLine1: 1735 Mosaic Forest Dr		AddressCity: Seffner		AddressStateCode: FL		AddressZipCode: 33584		StartofCareDate: 8/8/2013 12:00:00 AM		Created: 9/12/2013 3:28:08 PM		Modified: 9/12/2013 3:28:08 PM																				Comments: Episode Start Date:8/6/2013 ; Insurance: United HealthCare; Insurance Number: 931210527; 		
FirstName: Ronald		LastName: Wood			Gender: 		PatientIdNumber: A01171							PrimaryInsurance: 		SSN: 278508587		DOB: 11/9/1950 12:00:00 AM		PhoneHome: 8134014728		AddressLine1: 4125 Honolulu Dr.			AddressCity: Apollo Beach	AddressStateCode: FL		AddressZipCode: 33570		StartofCareDate: 8/17/2013 12:00:00 AM		Created: 9/12/2013 3:28:08 PM		Modified: 9/12/2013 3:28:08 PM																				Comments: Episode Start Date:8/16/2013 ; Insurance: VA Fee Basis; Insurance Number: 278508587; 		
