Start Time: 11/18/2013 10:44:51 AM
STARTED : Agency Update For => [5b273333-3f30-4e8c-8736-436cba71fec0]
SUCCEEDED [022be7f7-8ae1-447c-86fc-52b4e5cf4592,5b273333-3f30-4e8c-8736-436cba71fec0,b7c27177-9588-4183-a832-472bc784ab6e]
SUCCEEDED [029fdfa3-18a2-4c90-b47e-58ddabf26247,5b273333-3f30-4e8c-8736-436cba71fec0,0036e98d-b6dd-4437-ba64-37ec312766b0]
SUCCEEDED [040913d8-bae4-43a2-ad4e-d25e78aac3b4,5b273333-3f30-4e8c-8736-436cba71fec0,179c6a71-6e20-4a2e-b552-3cc1ee014d21]
SUCCEEDED [049c93fa-0469-4c35-bc14-b7b3fc2a064e,5b273333-3f30-4e8c-8736-436cba71fec0,66163241-5010-4f2f-8dcb-251eb49b466d]
SUCCEEDED [0546abfe-106b-4b40-8f2e-5845089451c7,5b273333-3f30-4e8c-8736-436cba71fec0,cf797545-d8a9-467f-b10c-ea69cc15819a]
SUCCEEDED [074e685d-9871-4568-8034-d2ab4ac31945,5b273333-3f30-4e8c-8736-436cba71fec0,9a9c2dee-8742-4bb8-a84a-d91cef1f2132]
SUCCEEDED [074e6e93-14f2-424b-876c-f8410132f787,5b273333-3f30-4e8c-8736-436cba71fec0,58bf909a-0832-45bb-9c44-aa0484380a82]
SUCCEEDED [09f27570-4438-47d6-aef8-21f420751f6f,5b273333-3f30-4e8c-8736-436cba71fec0,99565773-09e7-4b7d-b07f-76499d1388f6]
SUCCEEDED [0eab41d9-5d1e-4eeb-8848-93c25d8b589d,5b273333-3f30-4e8c-8736-436cba71fec0,3bcf481d-a45b-4478-8e3c-518ab02a0156]
SUCCEEDED [0f9495ca-0328-4ebd-a3ac-49ce02b0e4ac,5b273333-3f30-4e8c-8736-436cba71fec0,542d8bb8-371c-44e4-8fec-a5268c6a6588]
SUCCEEDED [10798d55-0c4a-497e-a0c1-72c4d2a11253,5b273333-3f30-4e8c-8736-436cba71fec0,79ed8ef0-6431-41de-9bf7-f413e58c1ed0]
SUCCEEDED [121ee4c5-ad02-4ced-a40a-c878f9b74d9f,5b273333-3f30-4e8c-8736-436cba71fec0,2f33126a-bf26-4c7c-95c6-e0d8ddfab22f]
SUCCEEDED [1331c8cf-32fc-4851-b9c0-329337e95eff,5b273333-3f30-4e8c-8736-436cba71fec0,9a9c2dee-8742-4bb8-a84a-d91cef1f2132]
SUCCEEDED [15e8c216-42be-40d7-ae87-6e59f4794b50,5b273333-3f30-4e8c-8736-436cba71fec0,7fc6363d-fd26-433d-baf9-7816804c2da9]
SUCCEEDED [193c5a9a-7962-46d0-8a39-f932677e2903,5b273333-3f30-4e8c-8736-436cba71fec0,6527db8a-ec66-42ee-9348-1b6da064cd4d]
SUCCEEDED [1aa9508c-2435-4156-9d93-5862d730b7eb,5b273333-3f30-4e8c-8736-436cba71fec0,6c6f00c5-d309-49ed-ac7b-1eaa4dcafb0e]
SUCCEEDED [1b3df7a3-ad85-43d6-863c-c0650748c403,5b273333-3f30-4e8c-8736-436cba71fec0,d9c5c0d1-bbb7-4bf8-828f-10c3edce270a]
SUCCEEDED [1c8607b1-fadb-412f-a9c3-6c7ae8274fed,5b273333-3f30-4e8c-8736-436cba71fec0,2a00c960-c3b2-4f1d-aa4d-0b4d636394f4]
SUCCEEDED [1cc56687-74af-4c92-90ee-42c39347882d,5b273333-3f30-4e8c-8736-436cba71fec0,dc351f43-ddd5-4329-b481-bad81d39a3e8]
SUCCEEDED [1e0fc7a9-d109-4908-8880-af7f74fb269f,5b273333-3f30-4e8c-8736-436cba71fec0,50297a4e-c66e-4f95-bc66-03dad59b5507]
SUCCEEDED [1e12a322-6f86-41bb-ac3f-9a70ff2377f8,5b273333-3f30-4e8c-8736-436cba71fec0,52af6c4c-fb76-475d-bde8-356ab0e0991c]
SUCCEEDED [20001d74-0e68-44a4-ba22-09a26a1802c7,5b273333-3f30-4e8c-8736-436cba71fec0,0143336f-6cb3-45e1-8064-4470c84fc8b2]
SUCCEEDED [228763ba-ba06-418d-bfc0-182185b04e3a,5b273333-3f30-4e8c-8736-436cba71fec0,577e1c59-d7e1-4981-915a-9882a966f14f]
SUCCEEDED [242207ef-2cbc-4d0b-8f1f-3bea41399f8d,5b273333-3f30-4e8c-8736-436cba71fec0,e5dd900e-8305-4a9a-b851-6c67a639cc1d]
SUCCEEDED [252402d8-049a-499e-b21f-fe3069763906,5b273333-3f30-4e8c-8736-436cba71fec0,a3a064f6-90c2-498f-aa9f-55c58ae84140]
SUCCEEDED [25d0afa8-a3c3-41f1-aac1-86c782cb018a,5b273333-3f30-4e8c-8736-436cba71fec0,acfa28d5-7fa4-4d3f-8acd-bc786ca2a19d]
SUCCEEDED [2c6a4a99-313c-4d53-9464-0884947aca22,5b273333-3f30-4e8c-8736-436cba71fec0,5b6a96f2-b953-4fb2-992c-c9ae58a87811]
SUCCEEDED [2c6b5e4e-7110-444e-bc1a-0be331921cb4,5b273333-3f30-4e8c-8736-436cba71fec0,54e53bf6-5527-4be0-9b82-b39a9231f6e6]
SUCCEEDED [2d022432-1684-4dc5-8c42-3ee93696725d,5b273333-3f30-4e8c-8736-436cba71fec0,afe6219e-e7f4-48d3-9abf-7213bd3a92a3]
SUCCEEDED [2d454c9e-c8b7-4242-a4f7-254e10306aef,5b273333-3f30-4e8c-8736-436cba71fec0,85243aca-1039-40aa-9b06-7eaadc9d8016]
SUCCEEDED [2fbf151e-d46c-4998-9f48-08dcb7ce41bb,5b273333-3f30-4e8c-8736-436cba71fec0,2e2dfaf4-2ec5-46ed-96b5-090525f8e18d]
SUCCEEDED [301ed099-e593-4974-9b2d-ca97cad73d0c,5b273333-3f30-4e8c-8736-436cba71fec0,7fc6363d-fd26-433d-baf9-7816804c2da9]
SUCCEEDED [34fb930a-4cdc-42e8-81d4-4e426c83b2bd,5b273333-3f30-4e8c-8736-436cba71fec0,5d66b36d-6022-40aa-86e4-032554689267]
SUCCEEDED [3757c96f-6094-4d02-90dc-a8aac4ba4c4e,5b273333-3f30-4e8c-8736-436cba71fec0,f1d292df-2462-404b-9e1f-6531301f3cb1]
SUCCEEDED [391445db-3084-4f07-ab69-10509d786106,5b273333-3f30-4e8c-8736-436cba71fec0,dc351f43-ddd5-4329-b481-bad81d39a3e8]
SUCCEEDED [39cfb266-a9a2-4c63-a119-4af6f1b28888,5b273333-3f30-4e8c-8736-436cba71fec0,9716b5e4-5565-4fba-acbb-eb00b55826ee]
SUCCEEDED [39e40100-951d-4dd4-ab32-9cc19334e976,5b273333-3f30-4e8c-8736-436cba71fec0,acfa28d5-7fa4-4d3f-8acd-bc786ca2a19d]
SUCCEEDED [3ac10105-e9a6-4fbb-ba54-662bc6c50eaf,5b273333-3f30-4e8c-8736-436cba71fec0,ee8e6165-ca77-4315-9fcc-56a56534f334]
SUCCEEDED [3afb568a-bfdb-4fdc-9b97-e2adad2eed29,5b273333-3f30-4e8c-8736-436cba71fec0,e3cd9373-95da-40aa-b93c-51077890b654]
SUCCEEDED [3afe2ff7-a613-487c-b7e4-d0bdd4789ee3,5b273333-3f30-4e8c-8736-436cba71fec0,24ec12c4-3627-42eb-b2f7-68912cf04fe4]
SUCCEEDED [3b52e941-f753-4f9d-8b17-c9bb7495b45b,5b273333-3f30-4e8c-8736-436cba71fec0,eb6448f4-a34d-4881-8bd0-b42bbefff6dd]
SUCCEEDED [3f000a45-fd54-4e97-bee3-ba9796080db5,5b273333-3f30-4e8c-8736-436cba71fec0,e2e8d161-f882-4510-8b12-40cba526e0a5]
SUCCEEDED [3f6bcb69-db52-4600-8f7b-38e0523fe858,5b273333-3f30-4e8c-8736-436cba71fec0,f0d832d0-074d-4eec-a14a-e28ac4364401]
SUCCEEDED [3f9f6857-b7ac-41f0-a5a0-3d9f4b49ab24,5b273333-3f30-4e8c-8736-436cba71fec0,d9c5c0d1-bbb7-4bf8-828f-10c3edce270a]
SUCCEEDED [42bb4d4f-5ad4-47f8-8284-b12c1c08885a,5b273333-3f30-4e8c-8736-436cba71fec0,50297a4e-c66e-4f95-bc66-03dad59b5507]
SUCCEEDED [44764e6a-add8-4bd2-a6dd-0205c2b10125,5b273333-3f30-4e8c-8736-436cba71fec0,99565773-09e7-4b7d-b07f-76499d1388f6]
SUCCEEDED [463cbecb-b9d6-478a-bd29-aeafb98a731f,5b273333-3f30-4e8c-8736-436cba71fec0,bcd2bc27-b60c-43f7-a6a8-58f7b1931e87]
SUCCEEDED [473a96fa-4a81-4a2f-8641-80585b4fdd80,5b273333-3f30-4e8c-8736-436cba71fec0,85243aca-1039-40aa-9b06-7eaadc9d8016]
SUCCEEDED [4a1fd7cb-8aab-4be8-8412-7d8bcf4134d7,5b273333-3f30-4e8c-8736-436cba71fec0,be73cdac-903c-4485-a5a4-185aa24d7b5b]
SUCCEEDED [4a8baf50-f0db-4d0b-b56d-eb015671308a,5b273333-3f30-4e8c-8736-436cba71fec0,542d8bb8-371c-44e4-8fec-a5268c6a6588]
SUCCEEDED [5076b80f-da02-46ca-a4a4-d2d69fd01ecd,5b273333-3f30-4e8c-8736-436cba71fec0,24ec12c4-3627-42eb-b2f7-68912cf04fe4]
SUCCEEDED [538cb6c3-4cfd-4566-b735-7271a4b8f207,5b273333-3f30-4e8c-8736-436cba71fec0,68151f97-60c6-4f18-973f-18962a4787df]
SUCCEEDED [5514488a-815f-472d-84bb-069d3dd7a355,5b273333-3f30-4e8c-8736-436cba71fec0,3c4e12d2-2743-496e-ad52-71e5d1ead9ff]
SUCCEEDED [5599e0a7-bd8b-48c8-a272-008683dfd50c,5b273333-3f30-4e8c-8736-436cba71fec0,6b395610-96c4-450c-955c-64ea7958a161]
SUCCEEDED [560e2f5a-3a04-4e21-bac3-ecd1f4e7aea5,5b273333-3f30-4e8c-8736-436cba71fec0,58bf909a-0832-45bb-9c44-aa0484380a82]
SUCCEEDED [568830f1-0cf2-4240-a389-856fbe7ae8bc,5b273333-3f30-4e8c-8736-436cba71fec0,e6408caf-acaf-48d1-8a6c-3a2bf937af80]
SUCCEEDED [56df6fd4-f2af-4287-b5cb-b9afa674af3e,5b273333-3f30-4e8c-8736-436cba71fec0,4241c828-6204-4eae-8e0d-b94c3e4efad5]
SUCCEEDED [574bffd0-1590-4d79-aeb0-d43a2f5bfd2d,5b273333-3f30-4e8c-8736-436cba71fec0,2a91a685-c394-4e28-817a-a3fb7e998311]
SUCCEEDED [58eceb34-4819-4926-97c3-b1975c9c48f3,5b273333-3f30-4e8c-8736-436cba71fec0,e1936fa6-8072-4ed2-8fc4-eaf2a0c746f7]
SUCCEEDED [59ace204-4bc5-43c5-a88a-74bb86164279,5b273333-3f30-4e8c-8736-436cba71fec0,dd027fd4-cbb7-4f14-b468-afade530cfef]
SUCCEEDED [5b346502-2495-4772-bba4-8ced671d0475,5b273333-3f30-4e8c-8736-436cba71fec0,6c6f00c5-d309-49ed-ac7b-1eaa4dcafb0e]
SUCCEEDED [5d71090e-1531-4c32-8cb7-0730068eb180,5b273333-3f30-4e8c-8736-436cba71fec0,cf797545-d8a9-467f-b10c-ea69cc15819a]
SUCCEEDED [621cce48-07d8-40af-bb35-df85b6f9ff6f,5b273333-3f30-4e8c-8736-436cba71fec0,79ed8ef0-6431-41de-9bf7-f413e58c1ed0]
SUCCEEDED [62d45a9f-6fc7-48af-a90c-4d44f35840d8,5b273333-3f30-4e8c-8736-436cba71fec0,1302a2a8-5135-4eb8-a404-6a6923b9193c]
SUCCEEDED [62fb2681-0c73-40c1-ae9d-f9a2d05439f8,5b273333-3f30-4e8c-8736-436cba71fec0,179c6a71-6e20-4a2e-b552-3cc1ee014d21]
SUCCEEDED [6501457f-9854-49a1-9fcb-f50e07af68af,5b273333-3f30-4e8c-8736-436cba71fec0,ee8e6165-ca77-4315-9fcc-56a56534f334]
SUCCEEDED [659797b8-4cea-4aa5-8270-db78f28078bf,5b273333-3f30-4e8c-8736-436cba71fec0,e3cd9373-95da-40aa-b93c-51077890b654]
SUCCEEDED [692d63ee-5cec-4f06-a97d-ea321d992ddd,5b273333-3f30-4e8c-8736-436cba71fec0,420387be-efa6-4cb4-a507-fb8af0f2423c]
SUCCEEDED [6955ab1d-f814-484d-8378-79451b1ba6d8,5b273333-3f30-4e8c-8736-436cba71fec0,8f64f7ce-ae1f-40f0-ab83-cd21f2533183]
SUCCEEDED [6a1a3b9e-6311-4863-9f6b-3fde5278a18f,5b273333-3f30-4e8c-8736-436cba71fec0,2926c538-f759-414e-b7f3-4443f512a471]
SUCCEEDED [6b3a759f-ddfd-4ee6-bac1-d6f6cc1c89d3,5b273333-3f30-4e8c-8736-436cba71fec0,e6408caf-acaf-48d1-8a6c-3a2bf937af80]
SUCCEEDED [6bbec380-9d8b-43f2-a28e-1d6abc82d34b,5b273333-3f30-4e8c-8736-436cba71fec0,577e1c59-d7e1-4981-915a-9882a966f14f]
SUCCEEDED [6c083ab3-e9c3-4e0a-b502-feea5d3ff030,5b273333-3f30-4e8c-8736-436cba71fec0,2a00c960-c3b2-4f1d-aa4d-0b4d636394f4]
SUCCEEDED [6d60f78f-3529-4287-9944-4551d6635aef,5b273333-3f30-4e8c-8736-436cba71fec0,e1936fa6-8072-4ed2-8fc4-eaf2a0c746f7]
SUCCEEDED [6e18c4f5-1c0e-4bc8-9d9a-3e4bce6b27ee,5b273333-3f30-4e8c-8736-436cba71fec0,50297a4e-c66e-4f95-bc66-03dad59b5507]
SUCCEEDED [6f36b7ed-527d-4f79-9a3a-1206da88c293,5b273333-3f30-4e8c-8736-436cba71fec0,6b395610-96c4-450c-955c-64ea7958a161]
SUCCEEDED [6fb7666f-89c1-4037-9def-36596534fd55,5b273333-3f30-4e8c-8736-436cba71fec0,2f33126a-bf26-4c7c-95c6-e0d8ddfab22f]
SUCCEEDED [701d31d1-2842-466e-8a99-359f798c66a5,5b273333-3f30-4e8c-8736-436cba71fec0,4401a4b3-098c-4d24-9866-2219b0181a2b]
SUCCEEDED [721dbef4-142c-4597-8248-a5a4285aa13d,5b273333-3f30-4e8c-8736-436cba71fec0,90514176-8351-4308-b2cb-601cd249b815]
SUCCEEDED [72a8bf21-9fb8-44af-b377-0de43d2fadd4,5b273333-3f30-4e8c-8736-436cba71fec0,8f64f7ce-ae1f-40f0-ab83-cd21f2533183]
SUCCEEDED [73febcf2-f235-4297-aa2d-2d0658640df5,5b273333-3f30-4e8c-8736-436cba71fec0,40eef4b9-0f4e-4e28-a7a3-b0e5c9d5ddfd]
SUCCEEDED [7532881a-774e-4196-b200-eff3b6073b93,5b273333-3f30-4e8c-8736-436cba71fec0,54e53bf6-5527-4be0-9b82-b39a9231f6e6]
SUCCEEDED [763532ba-c835-4647-b9f1-adfeadd61fde,5b273333-3f30-4e8c-8736-436cba71fec0,0aeecd54-388c-4417-8e94-8cd2d3bac5d1]
SUCCEEDED [79726ea6-afd0-4446-be7a-80e9c1fb26e0,5b273333-3f30-4e8c-8736-436cba71fec0,eb6448f4-a34d-4881-8bd0-b42bbefff6dd]
SUCCEEDED [7bc527ba-1851-49f7-9a4e-1537519fb549,5b273333-3f30-4e8c-8736-436cba71fec0,0c2bc51a-e811-43c7-99b5-67df049f6197]
SUCCEEDED [7e725fe3-e27b-46c4-a504-4e12dccac675,5b273333-3f30-4e8c-8736-436cba71fec0,0c2bc51a-e811-43c7-99b5-67df049f6197]
SUCCEEDED [83607935-4eba-4269-ac27-d95c4bc075cd,5b273333-3f30-4e8c-8736-436cba71fec0,f0d832d0-074d-4eec-a14a-e28ac4364401]
SUCCEEDED [838e7083-a402-472a-a643-80967ad0f10a,5b273333-3f30-4e8c-8736-436cba71fec0,9716b5e4-5565-4fba-acbb-eb00b55826ee]
SUCCEEDED [83f5771c-4f2d-427c-9804-3f59cc46bb01,5b273333-3f30-4e8c-8736-436cba71fec0,f2322312-e191-41ed-a077-7a2c2669e1b6]
SUCCEEDED [8b1dbb78-9fe6-444a-b147-cffae873a4ac,5b273333-3f30-4e8c-8736-436cba71fec0,52af6c4c-fb76-475d-bde8-356ab0e0991c]
SUCCEEDED [94080e04-19ef-4281-83e7-75667455d284,5b273333-3f30-4e8c-8736-436cba71fec0,807030e5-e47d-485d-88fd-dde53dadc43a]
SUCCEEDED [94d5b05d-e48c-4e52-8a41-e3c89cd8f504,5b273333-3f30-4e8c-8736-436cba71fec0,4241c828-6204-4eae-8e0d-b94c3e4efad5]
SUCCEEDED [9887edd5-cc8f-4702-b03f-8bd50265e5ec,5b273333-3f30-4e8c-8736-436cba71fec0,819245ac-9fb1-4b6c-91f0-94c9fe69dc95]
SUCCEEDED [9947ec7a-27c2-45c2-9f3b-9cbc89a3484a,5b273333-3f30-4e8c-8736-436cba71fec0,8a5ef40b-fe11-4e5c-bc35-ee084488e591]
SUCCEEDED [9a4b4510-b35b-4e25-9ba9-172352151163,5b273333-3f30-4e8c-8736-436cba71fec0,2926c538-f759-414e-b7f3-4443f512a471]
SUCCEEDED [9ad2e04f-0b90-4ac1-bd30-a30cb02ab269,5b273333-3f30-4e8c-8736-436cba71fec0,a3a064f6-90c2-498f-aa9f-55c58ae84140]
SUCCEEDED [9ae62398-83d8-4e07-a0b7-648e18fc9d17,5b273333-3f30-4e8c-8736-436cba71fec0,2926c538-f759-414e-b7f3-4443f512a471]
SUCCEEDED [9ca5f489-6ac0-4248-9423-b68277ccccd4,5b273333-3f30-4e8c-8736-436cba71fec0,f477bf86-8e20-4550-acd5-7831f50c8959]
SUCCEEDED [9e4638a8-a1fc-433d-847f-b239137ae116,5b273333-3f30-4e8c-8736-436cba71fec0,bcd2bc27-b60c-43f7-a6a8-58f7b1931e87]
SUCCEEDED [a314c20e-e359-464d-8de5-433770d36d1f,5b273333-3f30-4e8c-8736-436cba71fec0,a81e2f03-c888-4924-83c6-27d8d15abd93]
SUCCEEDED [a75dd18a-207a-4ed1-be09-8ed28a18db23,5b273333-3f30-4e8c-8736-436cba71fec0,2a91a685-c394-4e28-817a-a3fb7e998311]
SUCCEEDED [a7ee694f-357c-47ef-b42f-2aae0aa7df9d,5b273333-3f30-4e8c-8736-436cba71fec0,6ec3a9ef-5adc-417f-ad02-bc78ca4c769f]
SUCCEEDED [a9b4815a-b9a4-49a0-ba15-d69176fe9a07,5b273333-3f30-4e8c-8736-436cba71fec0,afe6219e-e7f4-48d3-9abf-7213bd3a92a3]
SUCCEEDED [aa862606-d584-4500-a17d-d0a39eb923b3,5b273333-3f30-4e8c-8736-436cba71fec0,5b6a96f2-b953-4fb2-992c-c9ae58a87811]
SUCCEEDED [ad374118-2bb0-4d63-975c-9dbd0fad4cc3,5b273333-3f30-4e8c-8736-436cba71fec0,3bcf481d-a45b-4478-8e3c-518ab02a0156]
SUCCEEDED [ae62c41b-c92f-4af9-beda-296a719a8a89,5b273333-3f30-4e8c-8736-436cba71fec0,6ec3a9ef-5adc-417f-ad02-bc78ca4c769f]
SUCCEEDED [b1882e64-da22-4699-802b-7021dd003729,5b273333-3f30-4e8c-8736-436cba71fec0,f1d292df-2462-404b-9e1f-6531301f3cb1]
SUCCEEDED [b30b7bdd-5dc1-493e-aed1-d7237bd5eea9,5b273333-3f30-4e8c-8736-436cba71fec0,ef491229-62d9-4c85-bde5-24a0a4dad3a6]
SUCCEEDED [b3269450-87ef-44dd-91e5-3809e1405dea,5b273333-3f30-4e8c-8736-436cba71fec0,a3a064f6-90c2-498f-aa9f-55c58ae84140]
SUCCEEDED [b42d29ab-46eb-4081-a966-2823d5371ae2,5b273333-3f30-4e8c-8736-436cba71fec0,819245ac-9fb1-4b6c-91f0-94c9fe69dc95]
SUCCEEDED [b4547f01-f1da-4b6f-a412-e5f78ca7d355,5b273333-3f30-4e8c-8736-436cba71fec0,54e53bf6-5527-4be0-9b82-b39a9231f6e6]
SUCCEEDED [b706fa98-70b9-471d-8ed5-4a693cd8b08b,5b273333-3f30-4e8c-8736-436cba71fec0,684cb2db-55c9-4f01-bac5-8d91ab368085]
SUCCEEDED [b802db70-84f6-4f4f-9dae-57c92fa9a9f9,5b273333-3f30-4e8c-8736-436cba71fec0,be73cdac-903c-4485-a5a4-185aa24d7b5b]
SUCCEEDED [bb23374d-c70a-4d17-8d66-9ad95008394b,5b273333-3f30-4e8c-8736-436cba71fec0,5b6a96f2-b953-4fb2-992c-c9ae58a87811]
SUCCEEDED [bc32f3c8-4a2e-4612-a100-e306e19bfb17,5b273333-3f30-4e8c-8736-436cba71fec0,90514176-8351-4308-b2cb-601cd249b815]
SUCCEEDED [bc40e970-d777-4ca5-b6e5-bae3a62957d3,5b273333-3f30-4e8c-8736-436cba71fec0,684cb2db-55c9-4f01-bac5-8d91ab368085]
SUCCEEDED [be71b4bd-fe82-4d09-8c70-8819c6f10ae6,5b273333-3f30-4e8c-8736-436cba71fec0,68151f97-60c6-4f18-973f-18962a4787df]
SUCCEEDED [c01541ed-47d4-4463-8ce5-71636d8aa86d,5b273333-3f30-4e8c-8736-436cba71fec0,a81e2f03-c888-4924-83c6-27d8d15abd93]
SUCCEEDED [c0a0ab30-644b-4fa7-8ea7-7bd0ac2154cc,5b273333-3f30-4e8c-8736-436cba71fec0,420387be-efa6-4cb4-a507-fb8af0f2423c]
SUCCEEDED [c0a0fed6-7540-479f-8ba4-0c9409e198b9,5b273333-3f30-4e8c-8736-436cba71fec0,0628e672-f633-4785-9155-ee33d9e3d987]
SUCCEEDED [c2746380-65ab-4106-84fb-bb4b3916c922,5b273333-3f30-4e8c-8736-436cba71fec0,ef491229-62d9-4c85-bde5-24a0a4dad3a6]
SUCCEEDED [c2dad0fc-fd31-4247-9382-cff42d365e85,5b273333-3f30-4e8c-8736-436cba71fec0,6d6e34bf-08b9-45b1-96a5-602e75a28960]
SUCCEEDED [c2edb89a-9c76-42ad-bff7-8f0a350ab552,5b273333-3f30-4e8c-8736-436cba71fec0,14531394-8658-4b5b-adc9-b70275fe5574]
SUCCEEDED [c655dd37-9fc8-437e-afe6-1478914717b1,5b273333-3f30-4e8c-8736-436cba71fec0,f2322312-e191-41ed-a077-7a2c2669e1b6]
SUCCEEDED [c8cf392f-e7b0-406e-aaf0-802b8443e324,5b273333-3f30-4e8c-8736-436cba71fec0,18c75db1-44b7-47c3-b360-b0b1429c167f]
SUCCEEDED [c960b015-f957-4a1b-b7cf-4db31521a78c,5b273333-3f30-4e8c-8736-436cba71fec0,807030e5-e47d-485d-88fd-dde53dadc43a]
SUCCEEDED [c9724d1d-c93e-4e56-84a3-035341dbc2ab,5b273333-3f30-4e8c-8736-436cba71fec0,290d0ae1-eded-4828-bc17-b78d320633ae]
SUCCEEDED [cba343e4-0caf-4d7c-9427-8d71c2538df3,5b273333-3f30-4e8c-8736-436cba71fec0,dc6c786b-40cf-4414-b1c3-19adec9f6fbe]
SUCCEEDED [cf65b94f-e89c-4a06-acfa-10cc11ace52d,5b273333-3f30-4e8c-8736-436cba71fec0,542d8bb8-371c-44e4-8fec-a5268c6a6588]
SUCCEEDED [d229068c-6305-426e-8b4a-39226e09900d,5b273333-3f30-4e8c-8736-436cba71fec0,b45c1c2f-89d5-4b21-8871-c658f1aaa672]
SUCCEEDED [d2e5a88a-16f1-4e9d-a253-19982f82f8ee,5b273333-3f30-4e8c-8736-436cba71fec0,bd057d2d-4c55-42d7-b687-8163fa1cb025]
SUCCEEDED [d35e5e98-8fd3-4734-9537-b16edc4cbd9f,5b273333-3f30-4e8c-8736-436cba71fec0,dd027fd4-cbb7-4f14-b468-afade530cfef]
SUCCEEDED [d38f5ace-61df-4d39-9a87-4387051196bb,5b273333-3f30-4e8c-8736-436cba71fec0,420387be-efa6-4cb4-a507-fb8af0f2423c]
SUCCEEDED [d60dbe47-23f0-42ea-984f-e80fb8f2e60e,5b273333-3f30-4e8c-8736-436cba71fec0,dc6c786b-40cf-4414-b1c3-19adec9f6fbe]
SUCCEEDED [d80fed3d-10cf-4aaf-9a43-bf6b91cd714b,5b273333-3f30-4e8c-8736-436cba71fec0,0036e98d-b6dd-4437-ba64-37ec312766b0]
SUCCEEDED [d840475e-5f61-420d-bb97-7f38488c1a23,5b273333-3f30-4e8c-8736-436cba71fec0,0143336f-6cb3-45e1-8064-4470c84fc8b2]
SUCCEEDED [d9800d56-9e72-4c91-bc22-f2301165d636,5b273333-3f30-4e8c-8736-436cba71fec0,b45c1c2f-89d5-4b21-8871-c658f1aaa672]
SUCCEEDED [df2cf59a-0814-48da-aa0a-226b227b13e9,5b273333-3f30-4e8c-8736-436cba71fec0,05770fd4-71c3-4c43-acd1-25d985ef042c]
SUCCEEDED [e0b11173-8d37-417a-ac0f-6d26c4af37fe,5b273333-3f30-4e8c-8736-436cba71fec0,dc6380b9-93e8-4c4d-a8a4-d945cfcd3f1f]
SUCCEEDED [e11c0b08-f72a-442d-a9ea-21cf5a321633,5b273333-3f30-4e8c-8736-436cba71fec0,e2e8d161-f882-4510-8b12-40cba526e0a5]
SUCCEEDED [e152cfeb-b664-4631-9f55-a4846d4bba17,5b273333-3f30-4e8c-8736-436cba71fec0,b61ba2dc-d1fc-45de-b922-75adb260b382]
SUCCEEDED [e28d00c6-3ba3-48e6-be82-44311a9d6f08,5b273333-3f30-4e8c-8736-436cba71fec0,b5220e96-2194-4959-9882-71ce45fae71e]
SUCCEEDED [e2bbcbef-e6ed-4a2c-a0c6-7d7a66c9947b,5b273333-3f30-4e8c-8736-436cba71fec0,b5220e96-2194-4959-9882-71ce45fae71e]
SUCCEEDED [e2eaaa14-f345-46fd-b28c-35daf3ba5323,5b273333-3f30-4e8c-8736-436cba71fec0,bcd2bc27-b60c-43f7-a6a8-58f7b1931e87]
SUCCEEDED [e3a05fee-8cb1-4c8a-87eb-ae33cea2ea5b,5b273333-3f30-4e8c-8736-436cba71fec0,05770fd4-71c3-4c43-acd1-25d985ef042c]
SUCCEEDED [e42090ca-b118-4cab-b50a-ee15c9ff01ad,5b273333-3f30-4e8c-8736-436cba71fec0,6d6e34bf-08b9-45b1-96a5-602e75a28960]
SUCCEEDED [e4705ed2-590c-427b-9f41-01ef9cd84928,5b273333-3f30-4e8c-8736-436cba71fec0,577e1c59-d7e1-4981-915a-9882a966f14f]
SUCCEEDED [e611147c-0839-4a0e-80a0-182d4bb83a1c,5b273333-3f30-4e8c-8736-436cba71fec0,6527db8a-ec66-42ee-9348-1b6da064cd4d]
SUCCEEDED [e859c40e-c7de-49cf-8e6a-196c94868f5e,5b273333-3f30-4e8c-8736-436cba71fec0,819245ac-9fb1-4b6c-91f0-94c9fe69dc95]
SUCCEEDED [e9b2a621-27e6-40b3-a36c-86a112ea42e5,5b273333-3f30-4e8c-8736-436cba71fec0,0036e98d-b6dd-4437-ba64-37ec312766b0]
SUCCEEDED [ea17dcf1-45b6-43a7-a334-4ac34efcea38,5b273333-3f30-4e8c-8736-436cba71fec0,290d0ae1-eded-4828-bc17-b78d320633ae]
SUCCEEDED [ea263476-d2a6-4534-8c0c-12869bdf6dd7,5b273333-3f30-4e8c-8736-436cba71fec0,1302a2a8-5135-4eb8-a404-6a6923b9193c]
SUCCEEDED [eb3a8d5e-2ecb-4b18-8d76-c8f17b3aeec0,5b273333-3f30-4e8c-8736-436cba71fec0,0aeecd54-388c-4417-8e94-8cd2d3bac5d1]
SUCCEEDED [eb918401-95ff-40d5-aa85-72d09f065ed9,5b273333-3f30-4e8c-8736-436cba71fec0,b61ba2dc-d1fc-45de-b922-75adb260b382]
SUCCEEDED [f0188e96-c7af-4d82-a5ff-043d8514cdeb,5b273333-3f30-4e8c-8736-436cba71fec0,a81e2f03-c888-4924-83c6-27d8d15abd93]
SUCCEEDED [f0758c2d-bdf3-4198-b4a1-87c3665a0a2d,5b273333-3f30-4e8c-8736-436cba71fec0,bd057d2d-4c55-42d7-b687-8163fa1cb025]
SUCCEEDED [f0bbe209-5f31-4b7c-9854-73c9f108104b,5b273333-3f30-4e8c-8736-436cba71fec0,2e2dfaf4-2ec5-46ed-96b5-090525f8e18d]
SUCCEEDED [f15ef05d-bcd2-4a0e-b9c4-f09ea50b5856,5b273333-3f30-4e8c-8736-436cba71fec0,2af0ccac-3af3-4639-b00e-1f6c39c01277]
SUCCEEDED [f3a8ca69-491c-4f47-b675-355b0f6b23a8,5b273333-3f30-4e8c-8736-436cba71fec0,2af0ccac-3af3-4639-b00e-1f6c39c01277]
SUCCEEDED [f3f6e72a-5bb6-4b31-a31f-752d9da83077,5b273333-3f30-4e8c-8736-436cba71fec0,a6cd55fe-498c-4026-b947-b170ed24a351]
SUCCEEDED [f5132172-cd5d-409b-8d6e-26bcc6bd15ac,5b273333-3f30-4e8c-8736-436cba71fec0,f6905cd2-7fd2-456d-af42-b903dee4af13]
SUCCEEDED [f5f5b5ea-9ef3-459a-b57b-a5d40a1b3036,5b273333-3f30-4e8c-8736-436cba71fec0,66163241-5010-4f2f-8dcb-251eb49b466d]
SUCCEEDED [f6dfefa6-e609-459e-9c2b-3f79dc5ccbf7,5b273333-3f30-4e8c-8736-436cba71fec0,18c75db1-44b7-47c3-b360-b0b1429c167f]
SUCCEEDED [f8831906-1f87-4d0f-8f21-06342d4a0a10,5b273333-3f30-4e8c-8736-436cba71fec0,4ad13cbb-52cf-449d-87d0-3d645a991264]
SUCCEEDED [fa178495-fb0d-4c74-97da-e795dece2696,5b273333-3f30-4e8c-8736-436cba71fec0,b7c27177-9588-4183-a832-472bc784ab6e]
SUCCEEDED [fab9b8c1-6838-496e-81ad-5ce6a3b4ffd0,5b273333-3f30-4e8c-8736-436cba71fec0,79ed8ef0-6431-41de-9bf7-f413e58c1ed0]
SUCCEEDED [fb83edbf-0f30-4712-9d21-109e5ab98765,5b273333-3f30-4e8c-8736-436cba71fec0,4ad13cbb-52cf-449d-87d0-3d645a991264]
SUCCEEDED [ffd48ca9-c60b-4d43-a9db-6d8aa26f0137,5b273333-3f30-4e8c-8736-436cba71fec0,4401a4b3-098c-4d24-9866-2219b0181a2b]
FINISHED : Agency Update For => [5b273333-3f30-4e8c-8736-436cba71fec0]
End Time: 11/18/2013 10:45:33 AM
