Start Time: 11/18/2013 4:19:11 PM
STARTED : Agency Update For => [c9db0a83-0871-4c77-b088-7cbddbc90fd8]
FINISHED : Agency Update For => [c9db0a83-0871-4c77-b088-7cbddbc90fd8]
End Time: 11/18/2013 4:24:34 PM
