MiddleInitial: A		FirstName: NANCY		LastName: ALFORD		Gender: 		PatientIdNumber: 52		PrimaryInsurance: 		DOB: 9/5/1929 12:00:00 AM		PhoneHome: 5802451388		AddressLine1: RT 1 BOX 146		AddressCity: HAWORTH		AddressStateCode: OK		AddressZipCode: 74740		StartofCareDate: 10/26/2012 12:05:00 PM		Created: 10/7/2013 4:50:20 PM		Modified: 10/7/2013 4:50:20 PM		Comments: 		
FirstName:  JUANITA		LastName: ALLEN		Gender: 		PatientIdNumber: 381		PrimaryInsurance: 		DOB: 7/25/1924 12:00:00 AM		PhoneHome: 5808352208		AddressLine1: HC 76 BOX 27		AddressCity: EAGLETOWN		AddressStateCode: OK		AddressZipCode: 74734		StartofCareDate: 7/22/2013 1:30:00 PM		Created: 10/7/2013 4:50:58 PM		Modified: 10/7/2013 4:50:58 PM		Comments: 		
MiddleInitial: L		FirstName: CHAD		LastName: ALLISON		Gender: 		PatientIdNumber: 345		PrimaryInsurance: 		DOB: 7/6/1975 12:00:00 AM		PhoneHome: 		AddressLine1: RT 1 BOX 729		AddressCity: IDABEL		AddressStateCode: OK		AddressZipCode: 74745		StartofCareDate: 10/13/2009 12:00:00 AM		Created: 10/7/2013 4:50:59 PM		Modified: 10/7/2013 4:50:59 PM		Comments: 		
MiddleInitial: B		FirstName: RUBY		LastName: BARRETT		Gender: 		PatientIdNumber: 4		PrimaryInsurance: 		DOB: 4/9/1929 12:00:00 AM		PhoneHome: 5804203016		AddressLine1: 288 MYRTLE RD		AddressCity: BROKEN BOW		AddressStateCode: OK		AddressZipCode: 74728		StartofCareDate: 8/15/2008 3:08:00 PM		Created: 10/7/2013 4:51:00 PM		Modified: 10/7/2013 4:51:00 PM		Comments: 		
FirstName:  CATHERINE		LastName: BEAN		Gender: 		PatientIdNumber: 203		PrimaryInsurance: 		DOB: 1/21/1941 12:00:00 AM		PhoneHome: 5807462569		AddressLine1: 213 KESTREL RD		AddressCity: GARVIN		AddressStateCode: OK		AddressZipCode: 74736		StartofCareDate: 6/24/2013 11:00:00 AM		Created: 10/7/2013 4:51:00 PM		Modified: 10/7/2013 4:51:00 PM		Comments: 		
MiddleInitial: I		FirstName: RUTH		LastName: BEARD		Gender: 		PatientIdNumber: 229		PrimaryInsurance: 		DOB: 3/8/1937 12:00:00 AM		PhoneHome: 5802452282		AddressLine1: HC 60 BOX 2138		AddressCity: HAWORTH		AddressStateCode: OK		AddressZipCode: 74740		StartofCareDate: 3/6/2013 3:01:00 PM		Created: 10/7/2013 4:51:06 PM		Modified: 10/7/2013 4:51:06 PM		Comments: 		
MiddleInitial: C		FirstName: JOE		LastName: BERRY		Gender: 		PatientIdNumber: 426		PrimaryInsurance: 		DOB: 8/23/1935 12:00:00 AM		PhoneHome: 5805842011		AddressLine1: 4164 S. PARK DRIVE		AddressCity: BROKEN BOW		AddressStateCode: OK		AddressZipCode: 74728		StartofCareDate: 6/16/2013 4:13:00 PM		Created: 10/7/2013 4:51:06 PM		Modified: 10/7/2013 4:51:06 PM		Comments: 		
MiddleInitial: E		FirstName: JOYCE		LastName: BOLES		Gender: 		PatientIdNumber: 432		PrimaryInsurance: 		DOB: 9/17/1931 12:00:00 AM		PhoneHome: 5805842204		AddressLine1: 2216 LUKFATA CHURCH RD.		AddressCity: BROKEN BOW		AddressStateCode: OK		AddressZipCode: 74728		StartofCareDate: 6/14/2013 12:00:00 AM		Created: 10/7/2013 4:51:06 PM		Modified: 10/7/2013 4:51:06 PM		Comments: 		
FirstName:  BART		LastName: BOND		Gender: 		PatientIdNumber: 376		PrimaryInsurance: 		DOB: 4/28/1945 12:00:00 AM		PhoneHome: 5802360992		AddressLine1: R3 BOX 77		AddressCity: BROKEN BOW		AddressStateCode: OK		AddressZipCode: 74728		StartofCareDate: 12/3/2010 12:00:00 AM		Created: 10/7/2013 4:51:06 PM		Modified: 10/7/2013 4:51:06 PM		Comments: 		
FirstName:  WILBURN		LastName: BRAY		Gender: 		PatientIdNumber: 362		PrimaryInsurance: 		DOB: 7/19/1929 12:00:00 AM		PhoneHome: 5805846166		AddressLine1: 807 DIERKS ST PO BOX 716		AddressCity: BROKEN BOW		AddressStateCode: OK		AddressZipCode: 74728		StartofCareDate: 8/15/2013 9:15:00 AM		Created: 10/7/2013 4:51:06 PM		Modified: 10/7/2013 4:51:06 PM		Comments: 		
FirstName:  VERA		LastName: BROWN		Gender: 		PatientIdNumber: 267		PrimaryInsurance: 		DOB: 4/10/1934 12:00:00 AM		PhoneHome: 5802865242		AddressLine1: P.O. BOX 1551		AddressCity: IDABEL		AddressStateCode: OK		AddressZipCode: 74745		StartofCareDate: 2/5/2007 12:00:00 AM		Created: 10/7/2013 4:51:07 PM		Modified: 10/7/2013 4:51:07 PM		Comments: 		
FirstName:  RUTH		LastName: CARDEN		Gender: 		PatientIdNumber: 277		PrimaryInsurance: 		DOB: 8/17/1928 12:00:00 AM		PhoneHome: 5802451607		AddressLine1: 9294 SHINEWELL RD		AddressCity: HAWORTH		AddressStateCode: OK		AddressZipCode: 74740		StartofCareDate: 5/6/2011 2:44:00 PM		Created: 10/7/2013 4:51:07 PM		Modified: 10/7/2013 4:51:07 PM		Comments: 		
FirstName:  FRANK		LastName: CATES		Gender: 		PatientIdNumber: 316		PrimaryInsurance: 		DOB: 2/7/1938 12:00:00 AM		PhoneHome: 5805845315		AddressLine1: 100 Oakwood Dr Apt #4 PO Box 466		AddressCity: BROKEN BOW		AddressStateCode: OK		AddressZipCode: 74728		StartofCareDate: 8/14/2013 2:05:00 PM		Created: 10/7/2013 4:51:07 PM		Modified: 10/7/2013 4:51:07 PM		Comments: 		
MiddleInitial: R		FirstName: DONALD		LastName: CRAWFORD		Gender: 		PatientIdNumber: 428		PrimaryInsurance: 		DOB: 11/24/1942 12:00:00 AM		PhoneHome: 9034903723		AddressLine1: RT 1 BOX 219A 1385 GEMSTONE TRAIL		AddressCity: HAWORTH		AddressStateCode: OK		AddressZipCode: 74740		StartofCareDate: 7/19/2013 10:20:00 AM		Created: 10/7/2013 4:51:07 PM		Modified: 10/7/2013 4:51:07 PM		Comments: 		
MiddleInitial: J		FirstName: RAY		LastName: CROWLEY		Gender: 		PatientIdNumber: 419		PrimaryInsurance: 		DOB: 10/18/1928 12:00:00 AM		PhoneHome: 5808763216		AddressLine1: 280 KINGFISHER RD.		AddressCity: RUFE		AddressStateCode: OK		AddressZipCode: 74755		StartofCareDate: 9/11/2012 12:00:00 AM		Created: 10/7/2013 4:51:07 PM		Modified: 10/7/2013 4:51:07 PM		Comments: 		
FirstName:  MARLIN		LastName: CUNNINGHAM		Gender: 		PatientIdNumber: 218		PrimaryInsurance: 		DOB: 12/4/1935 12:00:00 AM		PhoneHome: 5808763654		AddressLine1: HC 68 BOX 805		AddressCity: RUFE		AddressStateCode: OK		AddressZipCode: 74755		StartofCareDate: 1/4/2011 11:16:00 AM		Created: 10/7/2013 4:51:08 PM		Modified: 10/7/2013 4:51:08 PM		Comments: 		
MiddleInitial: D		FirstName: CORA		LastName: DEBLOIS		Gender: 		PatientIdNumber: 369		PrimaryInsurance: 		DOB: 9/16/1924 12:00:00 AM		PhoneHome: 5802865885		AddressLine1: 106 CHERRY RD		AddressCity: IDABEL		AddressStateCode: OK		AddressZipCode: 74745		StartofCareDate: 9/30/2010 12:00:00 AM		Created: 10/7/2013 4:51:08 PM		Modified: 10/7/2013 4:51:08 PM		Comments: 		
FirstName:  GONZALO		LastName: DEL MORAL		Gender: 		PatientIdNumber: 401		PrimaryInsurance: 		DOB: 6/11/1925 12:00:00 AM		PhoneHome: 5808739474		AddressLine1: P.O. BOX 242		AddressCity: FORT TOWSON		AddressStateCode: OK		AddressZipCode: 74735		StartofCareDate: 12/16/2011 12:00:00 AM		Created: 10/7/2013 4:51:08 PM		Modified: 10/7/2013 4:51:08 PM		Comments: 		
MiddleInitial: N		FirstName: WILLIAM		LastName: ENGLER		Gender: 		PatientIdNumber: 190		PrimaryInsurance: 		DOB: 6/27/1931 12:00:00 AM		PhoneHome: 5804203242		AddressLine1: PO BOX 101		AddressCity: GOLDEN		AddressStateCode: OK		AddressZipCode: 74737		StartofCareDate: 8/5/2006 12:00:00 AM		Created: 10/7/2013 4:51:08 PM		Modified: 10/7/2013 4:51:08 PM		Comments: 		
FirstName:  VERNA		LastName: FAILS		Gender: 		PatientIdNumber: 327		PrimaryInsurance: 		DOB: 11/27/1922 12:00:00 AM		PhoneHome: 5805846542		AddressLine1: 829 EAST 2ND		AddressCity: BROKEN BOW		AddressStateCode: OK		AddressZipCode: 74728		StartofCareDate: 12/29/2008 12:00:00 AM		Created: 10/7/2013 4:51:08 PM		Modified: 10/7/2013 4:51:08 PM		Comments: 		
MiddleInitial: D		FirstName: RUBY		LastName: FIEDLER		Gender: 		PatientIdNumber: 414		PrimaryInsurance: 		DOB: 9/10/1942 12:00:00 AM		PhoneHome: 5802452234		AddressLine1: HC 60 BOX 1720		AddressCity: HAWORTH		AddressStateCode: OK		AddressZipCode: 74740		StartofCareDate: 1/21/2013 12:03:00 PM		Created: 10/7/2013 4:51:08 PM		Modified: 10/7/2013 4:51:08 PM		Comments: 		
FirstName:  VICKI		LastName: FRENCH		Gender: 		PatientIdNumber: 433		PrimaryInsurance: 		DOB: 3/16/1954 12:00:00 AM		PhoneHome: 		AddressLine1: 107 WATERFORD		AddressCity: IDABEL		AddressStateCode: OK		AddressZipCode: 74745		StartofCareDate: 6/29/2013 8:30:00 AM		Created: 10/7/2013 4:51:08 PM		Modified: 10/7/2013 4:51:08 PM		Comments: 		
FirstName:  ETHEL		LastName: GAMMON		Gender: 		PatientIdNumber: 424		PrimaryInsurance: 		DOB: 5/15/1918 12:00:00 AM		PhoneHome: 5802861117		AddressLine1: 602 NW INDIAN ST.		AddressCity: IDABEL		AddressStateCode: OK		AddressZipCode: 74745		StartofCareDate: 10/30/2012 12:00:00 AM		Created: 10/7/2013 4:51:08 PM		Modified: 10/7/2013 4:51:08 PM		Comments: 		
MiddleInitial: H		FirstName: JOHN		LastName: GREGORY		Gender: 		PatientIdNumber: 207		PrimaryInsurance: 		DOB: 6/30/1937 12:00:00 AM		PhoneHome: 5805846320		AddressLine1: 1200 KUYKENDALL RD  TRLR #1		AddressCity: BROKEN BOW		AddressStateCode: OK		AddressZipCode: 74728		StartofCareDate: 1/4/2012 11:38:00 AM		Created: 10/7/2013 4:51:09 PM		Modified: 10/7/2013 4:51:09 PM		Comments: 		
MiddleInitial: W		FirstName: JOSEPH		LastName: HAWTHORNE		Gender: 		PatientIdNumber: 130		PrimaryInsurance: 		DOB: 7/25/1974 12:00:00 AM		PhoneHome: 5807462344		AddressLine1: 986 WHIPPORWILL RD		AddressCity: GARVIN		AddressStateCode: OK		AddressZipCode: 74736		StartofCareDate: 12/9/2004 12:00:00 AM		Created: 10/7/2013 4:51:09 PM		Modified: 10/7/2013 4:51:09 PM		Comments: 		
MiddleInitial: L		FirstName: HUBERT		LastName: JEANES		Gender: 		PatientIdNumber: 436		PrimaryInsurance: 		DOB: 8/6/1939 12:00:00 AM		PhoneHome: 		AddressLine1: 109 SE AVE N		AddressCity: IDABEL		AddressStateCode: OK		AddressZipCode: 74745		StartofCareDate: 8/9/2013 11:00:00 AM		Created: 10/7/2013 4:51:09 PM		Modified: 10/7/2013 4:51:09 PM		Comments: 		
MiddleInitial: E		FirstName: ZORA		LastName: JESSIE		Gender: 		PatientIdNumber: 418		PrimaryInsurance: 		DOB: 10/1/1918 12:00:00 AM		PhoneHome: 5805846487		AddressLine1: 211 SPRINGVIEW DR.		AddressCity: BROKEN BOW		AddressStateCode: OK		AddressZipCode: 74728		StartofCareDate: 8/15/2013 2:20:00 PM		Created: 10/7/2013 4:51:09 PM		Modified: 10/7/2013 4:51:09 PM		Comments: 		
MiddleInitial: M		FirstName: MATTIE		LastName: JOHNSON		Gender: 		PatientIdNumber: 310		PrimaryInsurance: 		DOB: 12/29/1938 12:00:00 AM		PhoneHome: 5804206326		AddressLine1: 384 THOMAS RD		AddressCity: BROKEN BOW		AddressStateCode: OK		AddressZipCode: 74728		StartofCareDate: 7/6/2012 1:08:00 PM		Created: 10/7/2013 4:51:09 PM		Modified: 10/7/2013 4:51:09 PM		Comments: 		
MiddleInitial: D		FirstName: MARTHA		LastName: LIECHTI		Gender: 		PatientIdNumber: 354		PrimaryInsurance: 		DOB: 8/18/1919 12:00:00 AM		PhoneHome: 5802451710		AddressLine1: 1658 REDLAND RD.		AddressCity: IDABEL		AddressStateCode: OK		AddressZipCode: 74745		StartofCareDate: 2/18/2010 12:00:00 AM		Created: 10/7/2013 4:51:09 PM		Modified: 10/7/2013 4:51:09 PM		Comments: 		
MiddleInitial: M		FirstName: LULA		LastName: LOWERY		Gender: 		PatientIdNumber: 400		PrimaryInsurance: 		DOB: 9/5/1938 12:00:00 AM		PhoneHome: 5808352357		AddressLine1: HC 76 BOX 39		AddressCity: EAGLETOWN		AddressStateCode: OK		AddressZipCode: 74734		StartofCareDate: 12/5/2011 12:00:00 AM		Created: 10/7/2013 4:51:09 PM		Modified: 10/7/2013 4:51:09 PM		Comments: 		
MiddleInitial: A		FirstName: NAOMI		LastName: LOWRANCE		Gender: 		PatientIdNumber: 265		PrimaryInsurance: 		DOB: 8/24/1918 12:00:00 AM		PhoneHome: 5802863061		AddressLine1: 504 SE AVE J		AddressCity: IDABEL		AddressStateCode: OK		AddressZipCode: 74745		StartofCareDate: 8/14/2007 12:00:00 AM		Created: 10/7/2013 4:51:09 PM		Modified: 10/7/2013 4:51:09 PM		Comments: 		
MiddleInitial: M		FirstName: Oleta		LastName: Martinez		Gender: 		PatientIdNumber: 437		PrimaryInsurance: 		DOB: 7/4/1950 12:00:00 AM		PhoneHome: 		AddressLine1: 200 W. 9th		AddressCity: WRIGHT CITY		AddressStateCode: OK		AddressZipCode: 74766		StartofCareDate: 8/16/2013 5:15:00 PM		Created: 10/7/2013 4:51:09 PM		Modified: 10/7/2013 4:51:09 PM		Comments: 		
FirstName:  CONNIE		LastName: MARTZ		Gender: 		PatientIdNumber: 417		PrimaryInsurance: 		DOB: 4/16/1955 12:00:00 AM		PhoneHome: 5805842744		AddressLine1: 515 W. CIRCLE DRIVE		AddressCity: BROKEN BOW		AddressStateCode: OK		AddressZipCode: 74728		StartofCareDate: 7/31/2012 12:00:00 AM		Created: 10/7/2013 4:51:09 PM		Modified: 10/7/2013 4:51:09 PM		Comments: 		
FirstName:  ROSILENE		LastName: MAYNARD		Gender: 		PatientIdNumber: 66		PrimaryInsurance: 		DOB: 7/5/1937 12:00:00 AM		PhoneHome: 5809335013		AddressLine1: 55 W LUCAS		AddressCity: VALLIANT		AddressStateCode: OK		AddressZipCode: 74764		StartofCareDate: 1/3/2013 2:44:00 PM		Created: 10/7/2013 4:51:10 PM		Modified: 10/7/2013 4:51:10 PM		Comments: 		
MiddleInitial: B		FirstName: DONY		LastName: MCCLURE		Gender: 		PatientIdNumber: 393		PrimaryInsurance: 		DOB: 12/5/1939 12:00:00 AM		PhoneHome: 5802866826		AddressLine1: 1709 SHADY LANE		AddressCity: IDABEL		AddressStateCode: OK		AddressZipCode: 74745		StartofCareDate: 7/13/2011 12:00:00 AM		Created: 10/7/2013 4:51:10 PM		Modified: 10/7/2013 4:51:10 PM		Comments: 		
MiddleInitial: L		FirstName: JESSIE		LastName: MCHARGUE		Gender: 		PatientIdNumber: 12		PrimaryInsurance: 		DOB: 4/9/1927 12:00:00 AM		PhoneHome: 5806121927		AddressLine1: 837 LYNDON RD		AddressCity: IDABEL		AddressStateCode: OK		AddressZipCode: 74745		StartofCareDate: 3/17/2012 8:48:00 AM		Created: 10/7/2013 4:51:11 PM		Modified: 10/7/2013 4:51:11 PM		Comments: 		
MiddleInitial: R		FirstName: SHEILA		LastName: MCKINSEY		Gender: 		PatientIdNumber: 373		PrimaryInsurance: 		DOB: 3/4/1951 12:00:00 AM		PhoneHome: 5802367438		AddressLine1: 209 SE MARTIN LUTHER KING		AddressCity: BROKEN BOW		AddressStateCode: OK		AddressZipCode: 74728		StartofCareDate: 5/6/2013 3:34:00 PM		Created: 10/7/2013 4:51:11 PM		Modified: 10/7/2013 4:51:11 PM		Comments: 		
MiddleInitial: A		FirstName: BENJAMIN		LastName: MEAD		Gender: 		PatientIdNumber: 274		PrimaryInsurance: 		DOB: 1/8/1934 12:00:00 AM		PhoneHome: 5802080350		AddressLine1: 600 NW SEMINOLE AVE.		AddressCity: IDABEL		AddressStateCode: OK		AddressZipCode: 74745		StartofCareDate: 7/27/2012 8:51:00 AM		Created: 10/7/2013 4:51:11 PM		Modified: 10/7/2013 4:51:11 PM		Comments: 		
MiddleInitial: L		FirstName: WILLIAM		LastName: MOWERY		Gender: 		PatientIdNumber: 208		PrimaryInsurance: 		DOB: 4/23/1931 12:00:00 AM		PhoneHome: 		AddressLine1: 1307 SE ADAMS ST APT #15		AddressCity: IDABEL		AddressStateCode: OK		AddressZipCode: 74745		StartofCareDate: 2/5/2009 9:41:00 AM		Created: 10/7/2013 4:51:12 PM		Modified: 10/7/2013 4:51:12 PM		Comments: 		
FirstName:  DEBRA		LastName: MUSSETT		Gender: 		PatientIdNumber: 359		PrimaryInsurance: 		DOB: 7/29/1961 12:00:00 AM		PhoneHome: 9039337871		AddressLine1: PO BOX 1203		AddressCity: VALLIANT		AddressStateCode: OK		AddressZipCode: 74764		StartofCareDate: 4/18/2013 2:22:00 PM		Created: 10/7/2013 4:51:12 PM		Modified: 10/7/2013 4:51:12 PM		Comments: 		
FirstName:  JANIE		LastName: OGLESBY		Gender: 		PatientIdNumber: 380		PrimaryInsurance: 		DOB: 5/18/1951 12:00:00 AM		PhoneHome: 5802451024		AddressLine1: HC 73 BOX 25		AddressCity: HAWORTH		AddressStateCode: OK		AddressZipCode: 74740		StartofCareDate: 9/6/2011 2:37:00 PM		Created: 10/7/2013 4:51:12 PM		Modified: 10/7/2013 4:51:12 PM		Comments: 		
MiddleInitial: R		FirstName: KEVIN		LastName: OVERTURF		Gender: 		PatientIdNumber: 435		PrimaryInsurance: 		DOB: 9/8/1987 12:00:00 AM		PhoneHome: 		AddressLine1: 24 Sailfish Road		AddressCity: BROKEN BOW		AddressStateCode: OK		AddressZipCode: 74728		StartofCareDate: 7/26/2013 9:50:00 AM		Created: 10/7/2013 4:51:12 PM		Modified: 10/7/2013 4:51:12 PM		Comments: 		
MiddleInitial: O		FirstName: BILLY		LastName: PACKWOOD		Gender: 		PatientIdNumber: 438		PrimaryInsurance: 		DOB: 8/21/1939 12:00:00 AM		PhoneHome: 5805843730		AddressLine1: 404 MIMOSA		AddressCity: BROKEN BOW		AddressStateCode: OK		AddressZipCode: 74728		StartofCareDate: 9/13/2013 11:00:00 AM		Created: 10/7/2013 4:51:12 PM		Modified: 10/7/2013 4:51:12 PM		Comments: 		
MiddleInitial: C		FirstName: ALMA		LastName: PANNELL		Gender: 		PatientIdNumber: 259		PrimaryInsurance: 		DOB: 1/18/1936 12:00:00 AM		PhoneHome: 5805842166		AddressLine1: 4845 S. PARK DR.		AddressCity: BROKEN BOW		AddressStateCode: OK		AddressZipCode: 74728		StartofCareDate: 11/29/2006 12:00:00 AM		Created: 10/7/2013 4:51:13 PM		Modified: 10/7/2013 4:51:13 PM		Comments: 		
MiddleInitial: C		FirstName: LAWRENCE		LastName: PANNELL		Gender: 		PatientIdNumber: 258		PrimaryInsurance: 		DOB: 7/28/1927 12:00:00 AM		PhoneHome: 5805842166		AddressLine1: 4845 S. PARK DR.		AddressCity: BROKEN BOW		AddressStateCode: OK		AddressZipCode: 74728		StartofCareDate: 5/27/2011 2:27:00 PM		Created: 10/7/2013 4:51:13 PM		Modified: 10/7/2013 4:51:13 PM		Comments: 		
MiddleInitial: R		FirstName: NANUBHAI		LastName: PATEL		Gender: 		PatientIdNumber: 320		PrimaryInsurance: 		DOB: 1/24/1949 12:00:00 AM		PhoneHome: 5805843311		AddressLine1: 300 SOUTH PARK DRIVE		AddressCity: BROKEN BOW		AddressStateCode: OK		AddressZipCode: 74728		StartofCareDate: 3/23/2011 10:40:00 AM		Created: 10/7/2013 4:51:13 PM		Modified: 10/7/2013 4:51:13 PM		Comments: 		
MiddleInitial: S		FirstName: LINDA		LastName: PHILLIPS		Gender: 		PatientIdNumber: 434		PrimaryInsurance: 		DOB: 7/31/1948 12:00:00 AM		PhoneHome: 5805845315		AddressLine1: 100 OAKWOOD DR. APT #4 PO BOX 794		AddressCity: BROKEN BOW		AddressStateCode: OK		AddressZipCode: 74728		StartofCareDate: 7/1/2013 11:05:00 AM		Created: 10/7/2013 4:51:13 PM		Modified: 10/7/2013 4:51:13 PM		Comments: 		
MiddleInitial: J		FirstName: Anita		LastName: Phipps		Gender: 		PatientIdNumber: 431		PrimaryInsurance: 		DOB: 11/1/1961 12:00:00 AM		PhoneHome: 5802863610		AddressLine1: 911 SE Ave C		AddressCity: IDABEL		AddressStateCode: OK		AddressZipCode: 74745		StartofCareDate: 8/23/2013 10:10:00 AM		Created: 10/7/2013 4:51:13 PM		Modified: 10/7/2013 4:51:13 PM		Comments: 		
FirstName:  DOUGLAS		LastName: SEARS		Gender: 		PatientIdNumber: 272		PrimaryInsurance: 		DOB: 2/12/1955 12:00:00 AM		PhoneHome: 5805846012		AddressLine1: 400 CIRCLE DRIVE		AddressCity: BROKEN BOW		AddressStateCode: OK		AddressZipCode: 74728		StartofCareDate: 5/13/2013 2:21:00 PM		Created: 10/7/2013 4:51:13 PM		Modified: 10/7/2013 4:51:13 PM		Comments: 		
MiddleInitial: E		FirstName: KATHRYN		LastName: SEMTNER		Gender: 		PatientIdNumber: 427		PrimaryInsurance: 		DOB: 1/21/1951 12:00:00 AM		PhoneHome: 		AddressLine1: 1905 SOUTH CENTRAL		AddressCity: IDABEL		AddressStateCode: OK		AddressZipCode: 74745		StartofCareDate: 2/19/2013 12:00:00 AM		Created: 10/7/2013 4:51:13 PM		Modified: 10/7/2013 4:51:13 PM		Comments: 		
MiddleInitial: L		FirstName: TAMMY		LastName: SHOALS		Gender: 		PatientIdNumber: 287		PrimaryInsurance: 		DOB: 1/8/1962 12:00:00 AM		PhoneHome: 5803147130		AddressLine1: 113 E. 12ST		AddressCity: BROKEN BOW		AddressStateCode: OK		AddressZipCode: 74728		StartofCareDate: 8/28/2007 12:00:00 AM		Created: 10/7/2013 4:51:13 PM		Modified: 10/7/2013 4:51:13 PM		Comments: 		
MiddleInitial: A		FirstName: JASON		LastName: SPRADLING		Gender: 		PatientIdNumber: 122		PrimaryInsurance: 		DOB: 1/15/1977 12:00:00 AM		PhoneHome: 5804946501		AddressLine1: RT 4 BOX 91-26		AddressCity: BROKEN BOW		AddressStateCode: OK		AddressZipCode: 74728		StartofCareDate: 8/27/2011 8:48:00 AM		Created: 10/7/2013 4:51:13 PM		Modified: 10/7/2013 4:51:13 PM		Comments: 		
MiddleInitial: M		FirstName: MATTIE		LastName: THOMAS		Gender: 		PatientIdNumber: 339		PrimaryInsurance: 		DOB: 10/22/1941 12:00:00 AM		PhoneHome: 5809337697		AddressLine1: RT 1 BOX 793		AddressCity: VALLIANT		AddressStateCode: OK		AddressZipCode: 74728		StartofCareDate: 7/12/2013 4:11:00 PM		Created: 10/7/2013 4:51:13 PM		Modified: 10/7/2013 4:51:13 PM		Comments: 		
FirstName:  MILDRED		LastName: TIPTON		Gender: 		PatientIdNumber: 371		PrimaryInsurance: 		DOB: 6/19/1922 12:00:00 AM		PhoneHome: 5802863089		AddressLine1: 1307 S.E. ADAMS APT#21		AddressCity: IDABEL		AddressStateCode: OK		AddressZipCode: 74745		StartofCareDate: 10/20/2010 12:00:00 AM		Created: 10/7/2013 4:51:14 PM		Modified: 10/7/2013 4:51:14 PM		Comments: 		
MiddleInitial: M		FirstName: NONA		LastName: TOWERY		Gender: 		PatientIdNumber: 361		PrimaryInsurance: 		DOB: 2/15/1921 12:00:00 AM		PhoneHome: 5805846731		AddressLine1: 811 N. BROADWAY		AddressCity: BROKEN BOW		AddressStateCode: OK		AddressZipCode: 74728		StartofCareDate: 8/19/2010 12:00:00 AM		Created: 10/7/2013 4:51:14 PM		Modified: 10/7/2013 4:51:14 PM		Comments: 		
MiddleInitial: S		FirstName: WANDA		LastName: VINYARD		Gender: 		PatientIdNumber: 355		PrimaryInsurance: 		DOB: 7/1/1951 12:00:00 AM		PhoneHome: 5806120751		AddressLine1: RT 2 BOX 420		AddressCity: VALLIANT		AddressStateCode: OK		AddressZipCode: 74750		StartofCareDate: 7/1/2010 8:52:00 AM		Created: 10/7/2013 4:51:14 PM		Modified: 10/7/2013 4:51:14 PM		Comments: 		
FirstName:  BILL		LastName: WAKE		Gender: 		PatientIdNumber: 422		PrimaryInsurance: 		DOB: 6/19/1943 12:00:00 AM		PhoneHome: 5802865619		AddressLine1: 1504 GARFIELD		AddressCity: IDABEL		AddressStateCode: OK		AddressZipCode: 74745		StartofCareDate: 9/27/2013 2:23:00 PM		Created: 10/7/2013 4:51:14 PM		Modified: 10/7/2013 4:51:14 PM		Comments: 		
FirstName:  EVELYN		LastName: YOUNG		Gender: 		PatientIdNumber: 9		PrimaryInsurance: 		DOB: 4/25/1924 12:00:00 AM		PhoneHome: 5802452302		AddressLine1: 5379 SAND RD		AddressCity: HAWORTH		AddressStateCode: OK		AddressZipCode: 74740		StartofCareDate: 8/18/2009 12:17:00 PM		Created: 10/7/2013 4:51:14 PM		Modified: 10/7/2013 4:51:14 PM		Comments: 		
