MiddleInitial: F		FirstName: ROBERTA		LastName: ALLEN		Gender: 		PatientIdNumber: 3-1471		PrimaryInsurance: 		DOB: 12/12/1932 12:00:00 AM		PhoneHome: 9186523722		AddressLine1: P.O. BOX 377 507 N. PECAN		AddressCity: DEWAR		AddressStateCode: OK		AddressZipCode: 74431		StartofCareDate: 7/2/2013 12:00:00 AM		Created: 10/7/2013 4:51:14 PM		Modified: 10/7/2013 4:51:14 PM		Comments: 		
MiddleInitial: E		FirstName: DOROTHY		LastName: BARKER		Gender: 		PatientIdNumber: 1343		PrimaryInsurance: 		DOB: 7/10/1920 12:00:00 AM		PhoneHome: 9186529267		AddressLine1: 105 W BARCLAY		AddressCity: HENRYETTA		AddressStateCode: OK		AddressZipCode: 74437		StartofCareDate: 4/17/2012 12:00:00 AM		Created: 10/7/2013 4:51:21 PM		Modified: 10/7/2013 4:51:21 PM		Comments: 		
MiddleInitial: J		FirstName: CAROLE		LastName: BARRON		Gender: 		PatientIdNumber: 6123		PrimaryInsurance: 		DOB: 4/19/1939 12:00:00 AM		PhoneHome: 9183447849		AddressLine1: 204 FERGUSON ST APT A		AddressCity: HENRYETTA		AddressStateCode: OK		AddressZipCode: 74437		StartofCareDate: 5/21/2012 8:52:00 AM		Created: 10/7/2013 4:51:22 PM		Modified: 10/7/2013 4:51:22 PM		Comments: 		
MiddleInitial: L		FirstName: LAURA		LastName: BERKEY		Gender: 		PatientIdNumber: 1108		PrimaryInsurance: 		DOB: 6/22/1921 12:00:00 AM		PhoneHome: 9186524161		AddressLine1: 304 E MADISON		AddressCity: HENRYETTA		AddressStateCode: OK		AddressZipCode: 74437		StartofCareDate: 4/15/2010 12:00:00 AM		Created: 10/7/2013 4:51:22 PM		Modified: 10/7/2013 4:51:22 PM		Comments: 		
FirstName:  EMILY		LastName: BEVAN		Gender: 		PatientIdNumber: 1088		PrimaryInsurance: 		DOB: 12/12/1921 12:00:00 AM		PhoneHome: 4059441088		AddressLine1: 11525 NS 3640		AddressCity: SEMINOLE		AddressStateCode: OK		AddressZipCode: 74868		StartofCareDate: 3/24/2010 12:00:00 AM		Created: 10/7/2013 4:51:22 PM		Modified: 10/7/2013 4:51:22 PM		Comments: 		
MiddleInitial: W		FirstName: DAVID		LastName: BIRDCREEK		Gender: 		PatientIdNumber: 3-1473		PrimaryInsurance: 		DOB: 8/13/1966 12:00:00 AM		PhoneHome: 9186523626		AddressLine1: 26110 WILSON ROAD		AddressCity: HENRYETTA		AddressStateCode: OK		AddressZipCode: 74437		StartofCareDate: 7/9/2013 12:00:00 AM		Created: 10/7/2013 4:51:22 PM		Modified: 10/7/2013 4:51:22 PM		Comments: 		
MiddleInitial: J		FirstName: DORA		LastName: BOURASSA		Gender: 		PatientIdNumber: 6040		PrimaryInsurance: 		DOB: 5/8/1927 12:00:00 AM		PhoneHome: 9186527882		AddressLine1: P.O. BOX 1063 401 W. JEFFERSON		AddressCity: HENRYETTA		AddressStateCode: OK		AddressZipCode: 74437		StartofCareDate: 7/28/2006 12:00:00 AM		Created: 10/7/2013 4:51:23 PM		Modified: 10/7/2013 4:51:23 PM		Comments: 		
MiddleInitial: A		FirstName: MELODEE		LastName: BRADLEY		Gender: 		PatientIdNumber: 3-1479		PrimaryInsurance: 		DOB: 5/30/1958 12:00:00 AM		PhoneHome: 		AddressLine1: 310 ELDER ST		AddressCity: HENRYETTA		AddressStateCode: OK		AddressZipCode: 74437		StartofCareDate: 7/29/2013 12:00:00 AM		Created: 10/7/2013 4:51:23 PM		Modified: 10/7/2013 4:51:23 PM		Comments: 		
MiddleInitial: L		FirstName: CORINA		LastName: BROWN		Gender: 		PatientIdNumber: 3-1426		PrimaryInsurance: 		DOB: 6/15/1936 12:00:00 AM		PhoneHome: 9186232311		AddressLine1: 901 CRESTVIEW DR APT #1		AddressCity: OKEMAH		AddressStateCode: OK		AddressZipCode: 74859		StartofCareDate: 7/25/2013 10:25:00 AM		Created: 10/7/2013 4:51:23 PM		Modified: 10/7/2013 4:51:23 PM		Comments: 		
MiddleInitial: A		FirstName: BARBARA		LastName: BUSH		Gender: 		PatientIdNumber: 1006		PrimaryInsurance: 		DOB: 11/13/1935 12:00:00 AM		PhoneHome: 9186250363		AddressLine1: 13343 New Lake Road		AddressCity: HENRYETTA		AddressStateCode: OK		AddressZipCode: 74437		StartofCareDate: 2/13/2012 9:59:00 AM		Created: 10/7/2013 4:51:23 PM		Modified: 10/7/2013 4:51:23 PM		Comments: 		
MiddleInitial: L		FirstName: FLORA		LastName: CAMPBELL		Gender: 		PatientIdNumber: 971		PrimaryInsurance: 		DOB: 10/11/1937 12:00:00 AM		PhoneHome: 		AddressLine1: 908 Ragan St		AddressCity: HENRYETTA		AddressStateCode: OK		AddressZipCode: 74437		StartofCareDate: 5/7/2009 12:00:00 AM		Created: 10/7/2013 4:51:23 PM		Modified: 10/7/2013 4:51:23 PM		Comments: 		
MiddleInitial: M		FirstName: KATHERINE		LastName: CHANEY		Gender: 		PatientIdNumber: 928		PrimaryInsurance: 		DOB: 4/24/1917 12:00:00 AM		PhoneHome: 9186527312		AddressLine1: 1405 W. RAGAN		AddressCity: HENRYETTA		AddressStateCode: OK		AddressZipCode: 74437		StartofCareDate: 7/28/2010 12:38:00 PM		Created: 10/7/2013 4:51:23 PM		Modified: 10/7/2013 4:51:23 PM		Comments: 		
MiddleInitial: M		FirstName: DORIS		LastName: CLEGG		Gender: 		PatientIdNumber: 3-1486		PrimaryInsurance: 		DOB: 7/30/1932 12:00:00 AM		PhoneHome: 9186524322		AddressLine1: 607 HIGH ST		AddressCity: HENRYETTA		AddressStateCode: OK		AddressZipCode: 74437		StartofCareDate: 9/4/2013 12:00:00 AM		Created: 10/7/2013 4:51:24 PM		Modified: 10/7/2013 4:51:24 PM		Comments: 		
MiddleInitial: L		FirstName: ROY		LastName: CONTRERAS		Gender: 		PatientIdNumber: 1217		PrimaryInsurance: 		DOB: 6/3/1929 12:00:00 AM		PhoneHome: 9186527563		AddressLine1: P.O. BOX 71 711 W. 5th		AddressCity: DEWAR		AddressStateCode: OK		AddressZipCode: 74431		StartofCareDate: 4/20/2011 8:09:00 AM		Created: 10/7/2013 4:51:24 PM		Modified: 10/7/2013 4:51:24 PM		Comments: 		
FirstName:  DELORIS		LastName: COX		Gender: 		PatientIdNumber: 799		PrimaryInsurance: 		DOB: 3/4/1932 12:00:00 AM		PhoneHome: 9186232058		AddressLine1: 521 E BROADWAY		AddressCity: OKEMAH		AddressStateCode: OK		AddressZipCode: 74859		StartofCareDate: 9/29/2008 9:07:00 AM		Created: 10/7/2013 4:51:24 PM		Modified: 10/7/2013 4:51:24 PM		Comments: 		
MiddleInitial: L		FirstName: KARON		LastName: COX		Gender: 		PatientIdNumber: 1187		PrimaryInsurance: 		DOB: 10/26/1956 12:00:00 AM		PhoneHome: 9186232058		AddressLine1: 521 E BROADWAY		AddressCity: OKEMAH		AddressStateCode: OK		AddressZipCode: 74859		StartofCareDate: 11/8/2010 12:00:00 AM		Created: 10/7/2013 4:51:24 PM		Modified: 10/7/2013 4:51:24 PM		Comments: 		
FirstName:  LEWIS		LastName: COX		Gender: 		PatientIdNumber: 801		PrimaryInsurance: 		DOB: 9/25/1928 12:00:00 AM		PhoneHome: 9186232058		AddressLine1: 521 E. BROADWAY		AddressCity: OKEMAH		AddressStateCode: OK		AddressZipCode: 74859		StartofCareDate: 5/30/2008 12:00:00 AM		Created: 10/7/2013 4:51:24 PM		Modified: 10/7/2013 4:51:24 PM		Comments: 		
FirstName:  PEARL		LastName: CRAFT		Gender: 		PatientIdNumber: 1325		PrimaryInsurance: 		DOB: 6/29/1933 12:00:00 AM		PhoneHome: 9186523561		AddressLine1: 104 S C STREET		AddressCity: HENRYETTA		AddressStateCode: OK		AddressZipCode: 74437		StartofCareDate: 1/27/2012 12:00:00 AM		Created: 10/7/2013 4:51:24 PM		Modified: 10/7/2013 4:51:24 PM		Comments: 		
FirstName:  BOB		LastName: DEERE		Gender: 		PatientIdNumber: 8052		PrimaryInsurance: 		DOB: 12/28/1944 12:00:00 AM		PhoneHome: 9184297718		AddressLine1: 614A Krebs Housing Box 14A		AddressCity: MC ALESTER		AddressStateCode: OK		AddressZipCode: 74501		StartofCareDate: 5/4/2009 9:05:00 AM		Created: 10/7/2013 4:51:24 PM		Modified: 10/7/2013 4:51:24 PM		Comments: 		
MiddleInitial: L		FirstName: MARGARET		LastName: HAMILTON		Gender: 		PatientIdNumber: 1320		PrimaryInsurance: 		DOB: 2/23/1949 12:00:00 AM		PhoneHome: 9186509453		AddressLine1: 113317 HOLLY RD		AddressCity: HENRYETTA		AddressStateCode: OK		AddressZipCode: 74437		StartofCareDate: 2/3/2012 12:00:00 AM		Created: 10/7/2013 4:51:25 PM		Modified: 10/7/2013 4:51:25 PM		Comments: 		
MiddleInitial: B		FirstName: LORETTA		LastName: HEATH		Gender: 		PatientIdNumber: 1239		PrimaryInsurance: 		DOB: 12/16/1934 12:00:00 AM		PhoneHome: 9186523860		AddressLine1: 206 BOLLINGER		AddressCity: HENRYETTA		AddressStateCode: OK		AddressZipCode: 74437		StartofCareDate: 5/17/2013 9:51:00 AM		Created: 10/7/2013 4:51:25 PM		Modified: 10/7/2013 4:51:25 PM		Comments: 		
MiddleInitial: F		FirstName: MYRNA		LastName: HENRY		Gender: 		PatientIdNumber: 1339		PrimaryInsurance: 		DOB: 9/4/1940 12:00:00 AM		PhoneHome: 9186509168		AddressLine1: 101 E CLEGERN		AddressCity: HENRYETTA		AddressStateCode: OK		AddressZipCode: 74437		StartofCareDate: 5/11/2012 12:00:00 AM		Created: 10/7/2013 4:51:25 PM		Modified: 10/7/2013 4:51:25 PM		Comments: 		
MiddleInitial: E		FirstName: VIOLET		LastName: HIRRILL		Gender: 		PatientIdNumber: 3-1423		PrimaryInsurance: 		DOB: 2/13/1952 12:00:00 AM		PhoneHome: 9186239070		AddressLine1: 901 CRESTVIEW DR APT #27		AddressCity: OKEMAH		AddressStateCode: OK		AddressZipCode: 74859		StartofCareDate: 11/28/2012 12:00:00 AM		Created: 10/7/2013 4:51:25 PM		Modified: 10/7/2013 4:51:25 PM		Comments: 		
FirstName:  MARJORIE		LastName: HUGHES		Gender: 		PatientIdNumber: 3-1452		PrimaryInsurance: 		DOB: 4/10/1924 12:00:00 AM		PhoneHome: 9186500608		AddressLine1: 313 E MADISON		AddressCity: HENRYETTA		AddressStateCode: OK		AddressZipCode: 74437		StartofCareDate: 3/27/2013 12:00:00 AM		Created: 10/7/2013 4:51:26 PM		Modified: 10/7/2013 4:51:26 PM		Comments: 		
MiddleInitial: L		FirstName: CHESTER		LastName: MARTIN		Gender: 		PatientIdNumber: 1305		PrimaryInsurance: 		DOB: 10/15/1932 12:00:00 AM		PhoneHome: 9183484791		AddressLine1: P.O. BOX 1935 3401 MONTA PLACE		AddressCity: FORT GIBSON		AddressStateCode: OK		AddressZipCode: 74434		StartofCareDate: 7/10/2013 11:13:00 AM		Created: 10/7/2013 4:51:26 PM		Modified: 10/7/2013 4:51:26 PM		Comments: 		
MiddleInitial: N		FirstName: DOROTHY		LastName: MARTIN		Gender: 		PatientIdNumber: 3-1484		PrimaryInsurance: 		DOB: 11/5/1921 12:00:00 AM		PhoneHome: 9186529581		AddressLine1: 612 N 1ST		AddressCity: HENRYETTA		AddressStateCode: OK		AddressZipCode: 74437		StartofCareDate: 8/13/2013 12:00:00 AM		Created: 10/7/2013 4:51:26 PM		Modified: 10/7/2013 4:51:26 PM		Comments: 		
MiddleInitial: A		FirstName: SARAH		LastName: MCCROSKEY		Gender: 		PatientIdNumber: 1352		PrimaryInsurance: 		DOB: 5/23/1927 12:00:00 AM		PhoneHome: 9186523073		AddressLine1: 1908 N 5TH		AddressCity: HENRYETTA		AddressStateCode: OK		AddressZipCode: 74437		StartofCareDate: 5/9/2012 12:00:00 AM		Created: 10/7/2013 4:51:26 PM		Modified: 10/7/2013 4:51:26 PM		Comments: 		
MiddleInitial: D		FirstName: CAROL		LastName: MCELYEA		Gender: 		PatientIdNumber: 1371		PrimaryInsurance: 		DOB: 7/23/1938 12:00:00 AM		PhoneHome: 4057862797		AddressLine1: 3 1/2 MI S 1400N75		AddressCity: WELEETKA		AddressStateCode: OK		AddressZipCode: 74880		StartofCareDate: 7/6/2012 12:00:00 AM		Created: 10/7/2013 4:51:26 PM		Modified: 10/7/2013 4:51:26 PM		Comments: 		
FirstName:  ANGELINE		LastName: MILLER		Gender: 		PatientIdNumber: 1205		PrimaryInsurance: 		DOB: 8/7/1920 12:00:00 AM		PhoneHome: 9186524830		AddressLine1: 1213 WADE WELLS DR		AddressCity: HENRYETTA		AddressStateCode: OK		AddressZipCode: 74437		StartofCareDate: 12/17/2010 12:00:00 AM		Created: 10/7/2013 4:51:26 PM		Modified: 10/7/2013 4:51:26 PM		Comments: 		
MiddleInitial: F		FirstName: GENNIVE		LastName: MONROE		Gender: 		PatientIdNumber: 3-1446		PrimaryInsurance: 		DOB: 10/30/1932 12:00:00 AM		PhoneHome: 9187597699		AddressLine1: 21701 S 220 RD		AddressCity: HENRYETTA		AddressStateCode: OK		AddressZipCode: 74437		StartofCareDate: 3/12/2013 12:00:00 AM		Created: 10/7/2013 4:51:27 PM		Modified: 10/7/2013 4:51:27 PM		Comments: 		
MiddleInitial: M		FirstName: IOLA		LastName: MOODY		Gender: 		PatientIdNumber: 1219		PrimaryInsurance: 		DOB: 12/9/1921 12:00:00 AM		PhoneHome: 9186528381SISTER		AddressLine1: 112 EAST 3RD P.O. BOX 1		AddressCity: DEWAR		AddressStateCode: OK		AddressZipCode: 74431		StartofCareDate: 7/31/2012 8:55:00 AM		Created: 10/7/2013 4:51:27 PM		Modified: 10/7/2013 4:51:27 PM		Comments: 		
FirstName:  KATHERINE		LastName: PATTERSON		Gender: 		PatientIdNumber: 6107		PrimaryInsurance: 		DOB: 4/12/1919 12:00:00 AM		PhoneHome: 9186523650		AddressLine1: 10360 SAGE ROAD		AddressCity: HENRYETTA		AddressStateCode: OK		AddressZipCode: 74437		StartofCareDate: 8/20/2009 2:32:00 PM		Created: 10/7/2013 4:51:27 PM		Modified: 10/7/2013 4:51:27 PM		Comments: 		
MiddleInitial: F		FirstName: VIRGINIA		LastName: PIERCE		Gender: 		PatientIdNumber: 3-1476		PrimaryInsurance: 		DOB: 7/1/1927 12:00:00 AM		PhoneHome: 9186527828		AddressLine1: 27341 WILSON ROAD		AddressCity: HENRYETTA		AddressStateCode: OK		AddressZipCode: 74437		StartofCareDate: 7/22/2013 12:00:00 AM		Created: 10/7/2013 4:51:27 PM		Modified: 10/7/2013 4:51:27 PM		Comments: 		
MiddleInitial: J		FirstName: WANDA		LastName: PIPPIN		Gender: 		PatientIdNumber: 3-1424		PrimaryInsurance: 		DOB: 4/28/1937 12:00:00 AM		PhoneHome: 9186528555		AddressLine1: 602 HIGH ST		AddressCity: HENRYETTA		AddressStateCode: OK		AddressZipCode: 74437		StartofCareDate: 1/31/2013 9:32:00 AM		Created: 10/7/2013 4:51:27 PM		Modified: 10/7/2013 4:51:27 PM		Comments: 		
FirstName:  ILEAN		LastName: RADEBAUGH		Gender: 		PatientIdNumber: 1360		PrimaryInsurance: 		DOB: 11/14/1916 12:00:00 AM		PhoneHome: 9186523460		AddressLine1: 1502 W. DIVISION		AddressCity: HENRYETTA		AddressStateCode: OK		AddressZipCode: 74437		StartofCareDate: 6/18/2012 12:00:00 AM		Created: 10/7/2013 4:51:27 PM		Modified: 10/7/2013 4:51:27 PM		Comments: 		
MiddleInitial: L		FirstName: PEGGY		LastName: RAMOS		Gender: 		PatientIdNumber: 1002		PrimaryInsurance: 		DOB: 9/12/1956 12:00:00 AM		PhoneHome: 9186522171		AddressLine1: 25187 WILSON RD		AddressCity: HENRYETTA		AddressStateCode: OK		AddressZipCode: 74437		StartofCareDate: 5/16/2012 10:09:00 AM		Created: 10/7/2013 4:51:27 PM		Modified: 10/7/2013 4:51:27 PM		Comments: 		
MiddleInitial: R		FirstName: LESLIE		LastName: REXROAT		Gender: 		PatientIdNumber: 790		PrimaryInsurance: 		DOB: 5/13/1926 12:00:00 AM		PhoneHome: 9187580909		AddressLine1: 1840 E 10TH ST		AddressCity: OKMULGEE		AddressStateCode: OK		AddressZipCode: 74447		StartofCareDate: 7/2/2013 2:34:00 PM		Created: 10/7/2013 4:51:27 PM		Modified: 10/7/2013 4:51:27 PM		Comments: 		
MiddleInitial: K		FirstName: MARY		LastName: REXROAT		Gender: 		PatientIdNumber: 6077		PrimaryInsurance: 		DOB: 4/10/1930 12:00:00 AM		PhoneHome: 9187580909		AddressLine1: 1840 E. 10TH		AddressCity: OKMULGEE		AddressStateCode: OK		AddressZipCode: 74447		StartofCareDate: 2/12/2012 9:48:00 AM		Created: 10/7/2013 4:51:27 PM		Modified: 10/7/2013 4:51:27 PM		Comments: 		
MiddleInitial: E		FirstName: DONNA		LastName: ROUNDTREE		Gender: 		PatientIdNumber: 1268		PrimaryInsurance: 		DOB: 10/1/1941 12:00:00 AM		PhoneHome: 9186239415		AddressLine1: 901 N CRESTVIEW NORTHVIEW APTS   #26		AddressCity: OKEMAH		AddressStateCode: OK		AddressZipCode: 74859		StartofCareDate: 5/26/2011 12:00:00 AM		Created: 10/7/2013 4:51:28 PM		Modified: 10/7/2013 4:51:28 PM		Comments: 		
MiddleInitial: L		FirstName: NORMA		LastName: RUSSELL		Gender: 		PatientIdNumber: 1227		PrimaryInsurance: 		DOB: 3/5/1945 12:00:00 AM		PhoneHome: 		AddressLine1: 14835 MULBERRY RD		AddressCity: HENRYETTA		AddressStateCode: OK		AddressZipCode: 74437		StartofCareDate: 2/8/2011 12:00:00 AM		Created: 10/7/2013 4:51:28 PM		Modified: 10/7/2013 4:51:28 PM		Comments: 		
MiddleInitial: E		FirstName: RICHARD		LastName: SNEED		Gender: 		PatientIdNumber: 3-1453		PrimaryInsurance: 		DOB: 5/7/1937 12:00:00 AM		PhoneHome: 9186500056		AddressLine1: 205 W. WASHINGTON		AddressCity: HENRYETTA		AddressStateCode: OK		AddressZipCode: 74437		StartofCareDate: 4/10/2013 12:00:00 AM		Created: 10/7/2013 4:51:28 PM		Modified: 10/7/2013 4:51:28 PM		Comments: 		
MiddleInitial: L		FirstName: LARRY		LastName: STANTON		Gender: 		PatientIdNumber: 3-5467		PrimaryInsurance: 		DOB: 6/22/1942 12:00:00 AM		PhoneHome: 9187590038		AddressLine1: 13301 INDIGO		AddressCity: SHULTER		AddressStateCode: OK		AddressZipCode: 74460		StartofCareDate: 9/23/2013 12:00:00 AM		Created: 10/7/2013 4:51:28 PM		Modified: 10/7/2013 4:51:28 PM		Comments: 		
MiddleInitial: F		FirstName: LULA		LastName: STEELE		Gender: 		PatientIdNumber: 3-1436		PrimaryInsurance: 		DOB: 7/23/1943 12:00:00 AM		PhoneHome: 9187566756		AddressLine1: 21105 S.230 ROAD		AddressCity: HENRYETTA		AddressStateCode: OK		AddressZipCode: 74437		StartofCareDate: 1/29/2013 12:00:00 AM		Created: 10/7/2013 4:51:28 PM		Modified: 10/7/2013 4:51:28 PM		Comments: 		
MiddleInitial: J		FirstName: SALLY		LastName: STEPHENS		Gender: 		PatientIdNumber: 982		PrimaryInsurance: 		DOB: 11/7/1944 12:00:00 AM		PhoneHome: 9186500056		AddressLine1: 205 W. WASHINGTON		AddressCity: HENRYETTA		AddressStateCode: OK		AddressZipCode: 74437		StartofCareDate: 12/27/2012 8:48:00 AM		Created: 10/7/2013 4:51:28 PM		Modified: 10/7/2013 4:51:28 PM		Comments: 		
MiddleInitial: E		FirstName: BEATRICE		LastName: SUMMERS		Gender: 		PatientIdNumber: 1023		PrimaryInsurance: 		DOB: 12/14/1943 12:00:00 AM		PhoneHome: 9186563350		AddressLine1: RT 1, BOX 53		AddressCity: DUSTIN		AddressStateCode: OK		AddressZipCode: 74839		StartofCareDate: 8/24/2009 12:00:00 AM		Created: 10/7/2013 4:51:28 PM		Modified: 10/7/2013 4:51:28 PM		Comments: 		
MiddleInitial: W		FirstName: ERNEST		LastName: SUMMERS		Gender: 		PatientIdNumber: 6056		PrimaryInsurance: 		DOB: 5/14/1943 12:00:00 AM		PhoneHome: 9186563350		AddressLine1: RT 1 BOX 53		AddressCity: DUSTIN		AddressStateCode: OK		AddressZipCode: 74839		StartofCareDate: 2/14/2013 9:56:00 AM		Created: 10/7/2013 4:51:28 PM		Modified: 10/7/2013 4:51:28 PM		Comments: 		
MiddleInitial: L		FirstName: WANOLA		LastName: THOMPSON		Gender: 		PatientIdNumber: 3-1445		PrimaryInsurance: 		DOB: 6/20/1925 12:00:00 AM		PhoneHome: 9186524251		AddressLine1: 811 W CUMMINGS		AddressCity: HENRYETTA		AddressStateCode: OK		AddressZipCode: 74437		StartofCareDate: 3/5/2013 12:00:00 AM		Created: 10/7/2013 4:51:28 PM		Modified: 10/7/2013 4:51:28 PM		Comments: 		
MiddleInitial: L		FirstName: GEORGE		LastName: TIPTON		Gender: 		PatientIdNumber: 1180		PrimaryInsurance: 		DOB: 12/8/1925 12:00:00 AM		PhoneHome: 9186524066		AddressLine1: 1112 W. DIVISION		AddressCity: HENRYETTA		AddressStateCode: OK		AddressZipCode: 74437		StartofCareDate: 11/2/2010 12:00:00 AM		Created: 10/7/2013 4:51:28 PM		Modified: 10/7/2013 4:51:28 PM		Comments: 		
MiddleInitial: L		FirstName: HELEN		LastName: TIPTON		Gender: 		PatientIdNumber: 1179		PrimaryInsurance: 		DOB: 3/15/1928 12:00:00 AM		PhoneHome: 9186524066		AddressLine1: 1112 W. DIVISION		AddressCity: HENRYETTA		AddressStateCode: OK		AddressZipCode: 74437		StartofCareDate: 10/29/2010 12:00:00 AM		Created: 10/7/2013 4:51:29 PM		Modified: 10/7/2013 4:51:29 PM		Comments: 		
FirstName:  ROSANA		LastName: TOMLINSON		Gender: 		PatientIdNumber: 1132		PrimaryInsurance: 		DOB: 5/31/1927 12:00:00 AM		PhoneHome: 9186524367		AddressLine1: 1302 W CUMMINGS		AddressCity: HENRYETTA		AddressStateCode: OK		AddressZipCode: 74437		StartofCareDate: 5/26/2010 12:00:00 AM		Created: 10/7/2013 4:51:29 PM		Modified: 10/7/2013 4:51:29 PM		Comments: 		
MiddleInitial: D		FirstName: WILLIAM		LastName: WHITLOCK		Gender: 		PatientIdNumber: 3-1483		PrimaryInsurance: 		DOB: 8/24/1924 12:00:00 AM		PhoneHome: 9186524410		AddressLine1: P.O. BOX 239		AddressCity: HENRYETTA		AddressStateCode: OK		AddressZipCode: 74437		StartofCareDate: 8/13/2013 12:00:00 AM		Created: 10/7/2013 4:51:32 PM		Modified: 10/7/2013 4:51:32 PM		Comments: 		
FirstName:  GLENN		LastName: WILDER		Gender: 		PatientIdNumber: 1085		PrimaryInsurance: 		DOB: 2/10/1949 12:00:00 AM		PhoneHome: 9186500746		AddressLine1: 908 Ragan St		AddressCity: HENRYETTA		AddressStateCode: OK		AddressZipCode: 74437		StartofCareDate: 3/17/2010 12:00:00 AM		Created: 10/7/2013 4:51:33 PM		Modified: 10/7/2013 4:51:33 PM		Comments: 		
MiddleInitial: E		FirstName: T		LastName: WILLIAMS JR		Gender: 		PatientIdNumber: 3-1481		PrimaryInsurance: 		DOB: 5/30/1926 12:00:00 AM		PhoneHome: 		AddressLine1: 2301 W MAIN ST		AddressCity: HENRYETTA		AddressStateCode: OK		AddressZipCode: 74437		StartofCareDate: 8/12/2013 12:00:00 AM		Created: 10/7/2013 4:51:33 PM		Modified: 10/7/2013 4:51:33 PM		Comments: 		
