FirstName:  LOMAS		LastName: AUBREY		Gender: 		PatientIdNumber: MHCP5232		PrimaryInsurance: 1		SSN: 433505232		DOB: 8/18/1936 12:00:00 AM		PhoneHome: 8322925406		AddressLine1: 13800 ELLA BLVD, APT.#G103		AddressCity: Houston		AddressStateCode: TX		AddressZipCode: 77014		StartofCareDate: 6/6/2013 12:00:00 AM		Created: 10/8/2013 9:44:55 AM		Modified: 10/8/2013 9:44:55 AM		Comments: Current Cert Period:08/05/13 - 10/03/13 ; Insurance: Medicare; 		
FirstName:  MARIA		LastName: AVILA		Gender: 		PatientIdNumber: MHCP5974		PrimaryInsurance: 1		SSN: 461735974		DOB: 10/25/1937 12:00:00 AM		PhoneHome: 8327880362		AddressLine1: 10723 DUNVEGAN WAY		AddressCity: Houston		AddressStateCode: TX		AddressZipCode: 77013		StartofCareDate: 9/20/2013 12:00:00 AM		Created: 10/8/2013 9:44:57 AM		Modified: 10/8/2013 9:44:57 AM		Comments: Current Cert Period:09/20/13 - 11/18/13 ; Insurance: Medicare; 		
FirstName:  NATALIE		LastName: BONDS		Gender: 		PatientIdNumber: MHCP1006		PrimaryInsurance: 		SSN: 373861006		DOB: 12/24/1979 12:00:00 AM		PhoneHome: 2817344804		AddressLine1: 307 SCENIC LAKE CT		AddressCity: Montgomery		AddressStateCode: TX		AddressZipCode: 77316		StartofCareDate: 8/23/2013 12:00:00 AM		Created: 10/8/2013 9:44:57 AM		Modified: 10/8/2013 9:44:57 AM		Comments: Current Cert Period:08/23/13 - 10/21/13 ; Insurance: CARE CENTRIX; 		
FirstName:  LEON		LastName: CALDWELL		Gender: 		PatientIdNumber: MHCP0381		PrimaryInsurance: 1		SSN: 456620381		DOB: 12/13/1938 12:00:00 AM		PhoneHome: 8327824490		AddressLine1: 333 AIRTEX #3208		AddressCity: Houston		AddressStateCode: TX		AddressZipCode: 77090		StartofCareDate: 4/12/2013 12:00:00 AM		Created: 10/8/2013 9:44:57 AM		Modified: 10/8/2013 9:44:57 AM		Comments: Current Cert Period:08/10/13 - 10/08/13 ; Insurance: Medicare; 		
FirstName:  XAVIER		LastName: COMEAUX		Gender: 		PatientIdNumber: MHCP5773		PrimaryInsurance: 		SSN: 464465773		DOB: 3/20/1935 12:00:00 AM		PhoneHome: 7136357616		AddressLine1: 7934 LYNETTE STREET		AddressCity: Houston		AddressStateCode: TX		AddressZipCode: 77028		StartofCareDate: 9/10/2013 12:00:00 AM		Created: 10/8/2013 9:44:57 AM		Modified: 10/8/2013 9:44:57 AM		Comments: Current Cert Period:09/10/13 - 11/08/13 ; Insurance: UNITED HEALTH CARE; 		
FirstName:  JAMES		LastName: DIXON		Gender: 		PatientIdNumber: MHCP5625		PrimaryInsurance: 		SSN: 457295625		DOB: 12/17/1963 12:00:00 AM		PhoneHome: 8322720522		AddressLine1: 7924 BOWEN STREET		AddressCity: Houston		AddressStateCode: TX		AddressZipCode: 77051		StartofCareDate: 8/23/2013 12:00:00 AM		Created: 10/8/2013 9:44:58 AM		Modified: 10/8/2013 9:44:58 AM		Comments: Current Cert Period:08/23/13 - 10/21/13 ; Insurance: UNITED HEALTH CARE; 		
FirstName:  CARL		LastName: GORDON		Gender: 		PatientIdNumber: MHCP2118		PrimaryInsurance: 1		SSN: 467902118		DOB: 10/1/1947 12:00:00 AM		PhoneHome: 7138360474		AddressLine1: 8826 HARRELL STREET, APT. 611		AddressCity: Houston		AddressStateCode: TX		AddressZipCode: 77093		StartofCareDate: 1/1/0001 12:00:00 AM		Created: 10/8/2013 9:44:58 AM		Modified: 10/8/2013 9:44:58 AM		Comments: Current Cert Period:09/07/13 - 11/05/13 ; Insurance: Medicare; 		
FirstName:  DEIDRA		LastName: HARRIS		Gender: 		PatientIdNumber: MHCP1860		PrimaryInsurance: 1		SSN: 245151860		DOB: 3/14/1967 12:00:00 AM		PhoneHome: 8323053523		AddressLine1: 955 LANGWICK DRIVE APT.# 4207		AddressCity: Houston		AddressStateCode: TX		AddressZipCode: 77060		StartofCareDate: 9/19/2013 12:00:00 AM		Created: 10/8/2013 9:44:59 AM		Modified: 10/8/2013 9:44:59 AM		Comments: Current Cert Period:09/19/13 - 11/17/13 ; Insurance: Medicare; 		
FirstName:  WILLIAM		LastName: HICKS		Gender: 		PatientIdNumber: MHCP8277		PrimaryInsurance: 		SSN: 027768277		DOB: 8/6/1943 12:00:00 AM		PhoneHome: 8177975726		AddressLine1: 10335 OLD BAMMEL N HOUSTON RD , APT.#2215		AddressCity: Houston		AddressStateCode: TX		AddressZipCode: 77086		StartofCareDate: 8/15/2013 12:00:00 AM		Created: 10/8/2013 9:44:59 AM		Modified: 10/8/2013 9:44:59 AM		Comments: Current Cert Period:08/15/13 - 10/13/13 ; Insurance: UNITED HEALTH CARE; 		
FirstName:  LINDA		LastName: HORNE		Gender: 		PatientIdNumber: MHCP4195		PrimaryInsurance: 1		SSN: 449574195		DOB: 9/3/1966 12:00:00 AM		PhoneHome: 8322921793		AddressLine1: 8158 CRESTVIEW		AddressCity: Houston		AddressStateCode: TX		AddressZipCode: 77028		StartofCareDate: 8/22/2013 12:00:00 AM		Created: 10/8/2013 9:44:59 AM		Modified: 10/8/2013 9:44:59 AM		Comments: Current Cert Period:08/22/13 - 10/20/13 ; Insurance: Medicare; 		
FirstName:  ESTELLA		LastName: HUTTON		Gender: 		PatientIdNumber: MHCP1175		PrimaryInsurance: 1		SSN: 455031175		DOB: 10/2/1910 12:00:00 AM		PhoneHome: 7137234448		AddressLine1: 6105 WEST OREM,APT.#135		AddressCity: Houston		AddressStateCode: TX		AddressZipCode: 77085		StartofCareDate: 9/5/2013 12:00:00 AM		Created: 10/8/2013 9:44:59 AM		Modified: 10/8/2013 9:44:59 AM		Comments: Current Cert Period:09/05/13 - 11/03/13 ; Insurance: Medicare; 		
FirstName:  ANGELA		LastName: JACKSON		Gender: 		PatientIdNumber: MHCP1010		PrimaryInsurance: 1		SSN: 463021010		DOB: 2/16/1957 12:00:00 AM		PhoneHome: 8324955506		AddressLine1: 5016 CHAPMAN STREET		AddressCity: Houston		AddressStateCode: TX		AddressZipCode: 77009		StartofCareDate: 3/18/2013 12:00:00 AM		Created: 10/8/2013 9:44:59 AM		Modified: 10/8/2013 9:44:59 AM		Comments: Current Cert Period:07/16/13 - 09/13/13 ; Insurance: Medicare; 		
FirstName:  ABHINAV		LastName: JAGETIA		Gender: 		PatientIdNumber: MHCP3403		PrimaryInsurance: 		SSN: 072983403		DOB: 8/19/1984 12:00:00 AM		PhoneHome: 5857322834		AddressLine1: 10221 CENTREPARK DRIVE,#326		AddressCity: Houston		AddressStateCode: TX		AddressZipCode: 77043		StartofCareDate: 7/25/2013 12:00:00 AM		Created: 10/8/2013 9:45:00 AM		Modified: 10/8/2013 9:45:00 AM		Comments: Current Cert Period:07/25/13 - 09/22/13 ; Insurance: CIGNA; 		
FirstName:  PAT		LastName: JOHNSON		Gender: 		PatientIdNumber: MHCP2880		PrimaryInsurance: 1		SSN: 435722880		DOB: 8/11/1947 12:00:00 AM		PhoneHome: 8323388582		AddressLine1: 6214 WEDGEFIELD		AddressCity: Houston		AddressStateCode: TX		AddressZipCode: 77028		StartofCareDate: 4/8/2013 12:00:00 AM		Created: 10/8/2013 9:45:00 AM		Modified: 10/8/2013 9:45:00 AM		Comments: Current Cert Period:08/06/13 - 10/04/13 ; Insurance: Medicare; 		
MiddleInitial: JR		FirstName: ERVIN		LastName: NED		Gender: 		PatientIdNumber: 		PrimaryInsurance: 1		SSN: 453151945		DOB: 2/20/1959 12:00:00 AM		PhoneHome: 		AddressLine1: 		AddressCity: 		AddressStateCode: 		AddressZipCode: 		StartofCareDate: 1/1/0001 12:00:00 AM		Created: 10/8/2013 9:45:00 AM		Modified: 10/8/2013 9:45:00 AM		Comments: Current Cert Period:NO EPISODES ; Insurance: Medicare; 		
FirstName:  JERELINE		LastName: READO		Gender: 		PatientIdNumber: MHCP4866		PrimaryInsurance: 1		SSN: 451544866		DOB: 2/10/1941 12:00:00 AM		PhoneHome: 7136313776		AddressLine1: 9002 STERLINGSHIRE STREET APT 1507		AddressCity: Houston		AddressStateCode: TX		AddressZipCode: 77078		StartofCareDate: 7/11/2013 12:00:00 AM		Created: 10/8/2013 9:45:00 AM		Modified: 10/8/2013 9:45:00 AM		Comments: Current Cert Period:09/09/13 - 11/07/13 ; Insurance: Medicare; 		
FirstName:  ANTONIO		LastName: SANIDAKOS		Gender: 		PatientIdNumber: MHCP5632		PrimaryInsurance: 1		SSN: 450085632		DOB: 9/22/1944 12:00:00 AM		PhoneHome: 7132289929		AddressLine1: 320 HAMILTON STREET		AddressCity: Houston		AddressStateCode: TX		AddressZipCode: 77002		StartofCareDate: 9/18/2013 12:00:00 AM		Created: 10/8/2013 9:45:00 AM		Modified: 10/8/2013 9:45:00 AM		Comments: Current Cert Period:09/18/13 - 11/16/13 ; Insurance: Medicare; 		
FirstName:  CYNTHIA		LastName: SIMIEN		Gender: 		PatientIdNumber: MHCP3412		PrimaryInsurance: 		SSN: 466923412		DOB: 6/15/1952 12:00:00 AM		PhoneHome: 2816332282		AddressLine1: 19219 MERCANT MARK LANE		AddressCity: Richmond		AddressStateCode: TX		AddressZipCode: 77407		StartofCareDate: 8/14/2013 12:00:00 AM		Created: 10/8/2013 9:45:00 AM		Modified: 10/8/2013 9:45:00 AM		Comments: Current Cert Period:08/14/13 - 10/12/13 ; Insurance: CIGNA; 		
FirstName:  CHERYL		LastName: WILLIAMS		Gender: 		PatientIdNumber: MHCP1290		PrimaryInsurance: 1		SSN: 465151290		DOB: 2/15/1968 12:00:00 AM		PhoneHome: 8328897859		AddressLine1: 25469 BOROUGH PARK DRIVE, APT.# 1238		AddressCity: Spring		AddressStateCode: TX		AddressZipCode: 77038		StartofCareDate: 8/30/2013 12:00:00 AM		Created: 10/8/2013 9:45:00 AM		Modified: 10/8/2013 9:45:00 AM		Comments: Current Cert Period:08/30/13 - 10/28/13 ; Insurance: Medicare; 		
FirstName:  CHRISTIAN		LastName: WILLIAMS		Gender: 		PatientIdNumber: MHCP2228		PrimaryInsurance: 1		SSN: 466082228		DOB: 6/2/1955 12:00:00 AM		PhoneHome: 7137777960		AddressLine1: 10919 FONDREN RD APT 905		AddressCity: Houston		AddressStateCode: TX		AddressZipCode: 77096		StartofCareDate: 2/23/2012 12:00:00 AM		Created: 10/8/2013 9:45:00 AM		Modified: 10/8/2013 9:45:00 AM		Comments: Current Cert Period:08/16/13 - 10/14/13 ; Insurance: Medicare; 		
FirstName:  JACQUELINE		LastName: WILLIS		Gender: 		PatientIdNumber: MHCP8950		PrimaryInsurance: 		SSN: 352468950		DOB: 2/8/1954 12:00:00 AM		PhoneHome: 8324740329		AddressLine1: 9114 PECOS ROSE LANE		AddressCity: Richmond		AddressStateCode: TX		AddressZipCode: 77407		StartofCareDate: 8/28/2013 12:00:00 AM		Created: 10/8/2013 9:45:00 AM		Modified: 10/8/2013 9:45:00 AM		Comments: Current Cert Period:08/28/13 - 10/26/13 ; Insurance: CARE CENTRIX; 		
